%!PS-Adobe-2.0 EPSF-2.0
% %BoundingBox: 4.0 301.0 734.0 585.0
%%BoundingBox: 2.0 150.5 367.0 292.5
%%Title: /usr/people/alfred/ALBERTA/DOC/linear_dof.eps
%%CreationDate: 9:52 AM March  5, 1997
%%Pages: 1
%%EndComments
%%BeginProlog
%%BeginResource ShowcaseResource
1 setlinejoin
/M  { moveto } bind def /S { show  } bind def
/R { rmoveto } bind def /L { lineto } bind def
/B { newpath 0 0 M 0 1 L 1 1 L 1 0 L closepath } bind def
/CS { closepath stroke } bind def
/S {
    /fixwidth exch def
    dup length /nchars exch def
    dup stringwidth pop
    fixwidth exch sub nchars div
    exch 0 exch ashow
} def
/bwproc {
	rgbproc
	dup length 3 idiv string 0 3 0
	5 -1 roll {
	add 2 1 roll 1 sub dup 0 eq
	{ pop 3 idiv 3 -1 roll dup 4 -1 roll dup
	  3 1 roll 5 -1 roll put 1 add 3 0 }
	{ 2 1 roll } ifelse
	} forall
	pop pop pop
} def
systemdict /colorimage known not {
	/colorimage {
		pop
		pop
		/rgbproc exch def
		{ bwproc } image
	} def
} if
0.500000 0.500000 scale
0 setlinewidth
/drawtri {
/y3 exch def
/x3 exch def
/y2 exch def
/x2 exch def
/y1 exch def
/x1 exch def
0 setgray
newpath
x1 y1 moveto
x2 y2 lineto
x3 y3 lineto
closepath
stroke
} bind def
/filltri {
/y3 exch def
/x3 exch def
/y2 exch def
/x2 exch def
/y1 exch def
/x1 exch def
newpath
x1 y1 moveto
x2 y2 lineto
x3 y3 lineto
closepath
fill
} bind def
/cliptri {
/y3 exch def
/x3 exch def
/y2 exch def
/x2 exch def
/y1 exch def
/x1 exch def
0 setgray
newpath
x1 y1 moveto
x2 y2 lineto
x3 y3 lineto
closepath
clip
} bind def
/imgscanrgb {
gsave
translate
/scandy exch def
/scandx exch def
/istr scandx 3 mul string def
scandx scandy scale
0.500000 0.500000 scale
scandx scandy 8
[scandx 0 0 scandy neg 0 scandy]
{currentfile istr readhexstring pop}
false 3
colorimage
grestore
} bind def
/imgscanbw {
gsave
translate
/scandy exch def
/scandx exch def
/istr scandx string def
scandx scandy scale
0.500000 0.500000 scale
scandx scandy 8
[scandx 0 0 scandy neg 0 scandy]
{currentfile istr readhexstring pop}
image
grestore
} bind def
/showcaseisoencoding [
/.notdef /.notdef /.notdef /.notdef
/.notdef /.notdef /.notdef /.notdef
/.notdef /.notdef /.notdef /.notdef
/.notdef /.notdef /.notdef /.notdef
/.notdef /.notdef /.notdef /.notdef
/.notdef /.notdef /.notdef /.notdef
/.notdef /.notdef /.notdef /.notdef
/.notdef /.notdef /.notdef /.notdef
/space /exclam /quotedbl /numbersign
/dollar /percent /ampersand /quoteright
/parenleft /parenright /asterisk /plus
/comma /minus /period /slash
/zero /one /two /three /four /five /six /seven
/eight /nine /colon /semicolon
/less /equal /greater /question
/at /A /B /C /D /E /F /G
/H /I /J /K /L /M /N /O
/P /Q /R /S /T /U /V /W
/X /Y /Z /bracketleft
/backslash /bracketright /asciicircum /underscore
/quoteleft /a /b /c /d /e /f /g
/h /i /j /k /l /m /n /o
/p /q /r /s /t /u /v /w
/x /y /z /braceleft
/bar /braceright /asciitilde /guilsinglright
/fraction /florin /quotesingle /quotedblleft
/guilsinglleft /fi /fl /endash
/dagger /daggerdbl /bullet /quotesinglbase
/quotedblbase /quotedblright /ellipsis /trademark
/dotlessi /grave /acute /circumflex
/tilde /macron /breve /dotaccent
/dieresis /perthousand /ring /cedilla
/Ydieresis /hungarumlaut /ogonek /caron
/emdash /exclamdown /cent /sterling
/currency /yen /brokenbar /section
/dieresis /copyright /ordfeminine /guillemotleft
/logicalnot /hyphen /registered /macron
/degree /plusminus /twosuperior /threesuperior
/acute /mu /paragraph /periodcentered
/cedilla /onesuperior /ordmasculine /guillemotright
/onequarter /onehalf /threequarters /questiondown
/Agrave /Aacute /Acircumflex /Atilde
/Adieresis /Aring /AE /Ccedilla
/Egrave /Eacute /Ecircumflex /Edieresis
/Igrave /Iacute /Icircumflex /Idieresis
/Eth /Ntilde /Ograve /Oacute
/Ocircumflex /Otilde /Odieresis /multiply
/Oslash /Ugrave /Uacute /Ucircumflex
/Udieresis /Yacute /Thorn /germandbls
/agrave /aacute /acircumflex /atilde
/adieresis /aring /ae /ccedilla
/egrave /eacute /ecircumflex /edieresis
/igrave /iacute /icircumflex /idieresis
/eth /ntilde /ograve /oacute
/ocircumflex /otilde /odieresis /divide
/oslash /ugrave /uacute /ucircumflex
/udieresis /yacute /thorn /ydieresis ] def
/showcasedingbatencoding [
/.notdef /.notdef /.notdef /.notdef
/.notdef /.notdef /.notdef /.notdef
/.notdef /.notdef /.notdef /.notdef
/.notdef /.notdef /.notdef /.notdef
/.notdef /.notdef /.notdef /.notdef
/.notdef /.notdef /.notdef /.notdef
/.notdef /.notdef /.notdef /.notdef
/.notdef /.notdef /.notdef /.notdef
/.notdef /a1 /a2 /a202 /a3 /a4 /a5 /a119 /a118 /a117
/a11 /a12 /a13 /a14 /a15 /a16 /a105 /a17 /a18 /a19
/a20 /a21 /a22 /a23 /a24 /a25 /a26 /a27 /a28 /a6 /a7
/a8 /a9 /a10 /a29
/a30 /a31 /a32 /a33 /a34 /a35 /a36 /a37 /a38 /a39
/a40 /a41 /a42 /a43 /a44 /a45 /a46 /a47 /a48 /a49
/a50 /a51 /a52 /a53 /a54 /a55 /a56 /a57 /a58 /a59
/a60 /a61 /a62 /a63 /a64 /a65 /a66 /a67 /a68 /a69
/a70 /a71 /a72 /a73 /a74 /a203 /a75 /a204 /a76 /a77 /a78
/a79 /a81 /a82 /a83 /a84 /a97 /a98 /a99 /a100 /.notdef
/a205 /a85 /a206 /a86 /a87 /a88 /a89 /a90 /a91 /a92 /a93
/a94 /a95 /a96
/.notdef /.notdef /.notdef /.notdef /.notdef /.notdef
/.notdef /.notdef /.notdef /.notdef /.notdef /.notdef
/.notdef /.notdef /.notdef /.notdef /.notdef /.notdef
/.notdef /a101 /a102 /a103 /a104 /a106 /a107 /a108
/a112 /a111 /a110 /a109
/a120 /a121 /a122 /a123 /a124 /a125 /a126 /a127 /a128 /a129
/a130 /a131 /a132 /a133 /a134 /a135 /a136 /a137 /a138 /a139
/a140 /a141 /a142 /a143 /a144 /a145 /a146 /a147 /a148 /a149
/a150 /a151 /a152 /a153 /a154 /a155 /a156 /a157 /a158 /a159
/a160 /a161 /a163 /a164 /a196 /a165 /a192 /a166 /a167 /a168
/a169 /a170 /a171 /a172 /a173 /a162 /a174 /a175 /a176 /a177
/a178 /a179 /a193 /a180 /a199 /a181 /a200 /a182 /.notdef
/a201 /a183 /a184 /a197 /a185 /a194 /a198 /a186 /a195 /a187
/a188 /a189 /a190 /a191 /.notdef
] def
/Courier-Bold findfont
dup length dict begin
  {1 index /FID ne {def} {pop pop} ifelse} forall
  /Encoding showcaseisoencoding def
  currentdict
end
/Courier-Bold-SHOWISO exch definefont pop
/Helvetica findfont
dup length dict begin
  {1 index /FID ne {def} {pop pop} ifelse} forall
  /Encoding showcaseisoencoding def
  currentdict
end
/Helvetica-SHOWISO exch definefont pop
/newfont 10 dict def
newfont begin

 /FontType 3 def
 /FontMatrix [1 0 0 1 0 0] def
 /FontBBox [0 0 1 1] def
 /Encoding 256 array def
 0 1 255 {Encoding exch /.notdef put} for

 /CharProcs 1 dict def
 CharProcs begin
 /.notdef {} def

end

 /BuildChar {
  1 0
  0 0 1 1
  setcachedevice
  exch begin
  Encoding exch get
  CharProcs exch get
  end
  exec
 } def
end
/PatternFont newfont definefont pop

%%EndResource
%%EndProlog
%%BeginSetup
%%EndSetup
%%Page: label 1
gsave
/saveit save def
gsave
gsave
0 0 0 setrgbcolor
1.000000 setlinewidth
newpath
216 540 M
90 414 L
270 360 L
closepath
stroke
grestore
gsave
0 0 0 setrgbcolor
1.000000 setlinewidth
newpath
594 576 M
486 486 L
540 324 L
648 432 L
closepath
stroke
grestore
gsave
0 0 0 setrgbcolor
1.000000 setlinewidth
newpath
594 576 M
540 324 L
stroke
grestore
gsave
0 0 0 setrgbcolor
1.000000 setlinewidth
[4] 0 setdash
newpath
486 486 M
648 432 L
stroke
grestore
gsave
gsave
matrix currentmatrix
[1 0 0 1 107 409.5] concat
newpath
0 0 M 0 18 L 12.8 18 L 12.8 0 L
closepath setmatrix
0 0 0 setrgbcolor
grestore
newpath
105 407.5 M 105 429.5 L 121.8 429.5 L 121.8 407.5 L
closepath clip newpath
0 0 0 setrgbcolor
matrix currentmatrix
[1 0 0 1 107 409.5] concat
/Courier-Bold-SHOWISO findfont 18 scalefont setfont
0 0 0 setrgbcolor
0 4.5 M (0) 10.8 S
setmatrix
grestore
gsave
gsave
matrix currentmatrix
[1 0 0 1 495 463.5] concat
newpath
0 0 M 0 18 L 12.8 18 L 12.8 0 L
closepath setmatrix
0 0 0 setrgbcolor
grestore
newpath
493 461.5 M 493 483.5 L 509.8 483.5 L 509.8 461.5 L
closepath clip newpath
0 0 0 setrgbcolor
matrix currentmatrix
[1 0 0 1 495 463.5] concat
/Courier-Bold-SHOWISO findfont 18 scalefont setfont
0 0 0 setrgbcolor
0 4.5 M (0) 10.8 S
setmatrix
grestore
gsave
gsave
matrix currentmatrix
[1 0 0 1 247.5 369] concat
newpath
0 0 M 0 18 L 12.8 18 L 12.8 0 L
closepath setmatrix
0 0 0 setrgbcolor
grestore
newpath
245.5 367 M 245.5 389 L 262.3 389 L 262.3 367 L
closepath clip newpath
0 0 0 setrgbcolor
matrix currentmatrix
[1 0 0 1 247.5 369] concat
/Courier-Bold-SHOWISO findfont 18 scalefont setfont
0 0 0 setrgbcolor
0 4.5 M (1) 10.8 S
setmatrix
grestore
gsave
gsave
matrix currentmatrix
[1 0 0 1 207 508.5] concat
newpath
0 0 M 0 18 L 12.8 18 L 12.8 0 L
closepath setmatrix
0 0 0 setrgbcolor
grestore
newpath
205 506.5 M 205 528.5 L 221.8 528.5 L 221.8 506.5 L
closepath clip newpath
0 0 0 setrgbcolor
matrix currentmatrix
[1 0 0 1 207 508.5] concat
/Courier-Bold-SHOWISO findfont 18 scalefont setfont
0 0 0 setrgbcolor
0 4.5 M (2) 10.8 S
setmatrix
grestore
gsave
gsave
matrix currentmatrix
[1 0 0 1 621 418.5] concat
newpath
0 0 M 0 18 L 12.8 18 L 12.8 0 L
closepath setmatrix
0 0 0 setrgbcolor
grestore
newpath
619 416.5 M 619 438.5 L 635.8 438.5 L 635.8 416.5 L
closepath clip newpath
0 0 0 setrgbcolor
matrix currentmatrix
[1 0 0 1 621 418.5] concat
/Courier-Bold-SHOWISO findfont 18 scalefont setfont
0 0 0 setrgbcolor
0 4.5 M (2) 10.8 S
setmatrix
grestore
gsave
gsave
matrix currentmatrix
[1 0 0 1 589.5 535.5] concat
newpath
0 0 M 0 18 L 12.8 18 L 12.8 0 L
closepath setmatrix
0 0 0 setrgbcolor
grestore
newpath
587.5 533.5 M 587.5 555.5 L 604.3 555.5 L 604.3 533.5 L
closepath clip newpath
0 0 0 setrgbcolor
matrix currentmatrix
[1 0 0 1 589.5 535.5] concat
/Courier-Bold-SHOWISO findfont 18 scalefont setfont
0 0 0 setrgbcolor
0 4.5 M (3) 10.8 S
setmatrix
grestore
gsave
gsave
matrix currentmatrix
[1 0 0 1 549 342] concat
newpath
0 0 M 0 18 L 12.8 18 L 12.8 0 L
closepath setmatrix
0 0 0 setrgbcolor
grestore
newpath
547 340 M 547 362 L 563.8 362 L 563.8 340 L
closepath clip newpath
0 0 0 setrgbcolor
matrix currentmatrix
[1 0 0 1 549 342] concat
/Courier-Bold-SHOWISO findfont 18 scalefont setfont
0 0 0 setrgbcolor
0 4.5 M (1) 10.8 S
setmatrix
grestore
gsave
gsave
matrix currentmatrix
[1 0 0 1 4.5 409.5] concat
newpath
0 0 M 0 18 L 76.052 18 L 76.052 0 L
closepath setmatrix
0 0 0 setrgbcolor
grestore
newpath
2.5 407.5 M 2.5 430.773 L 82.552 430.773 L 82.552 407.5 L
closepath clip newpath
0 0 0 setrgbcolor
matrix currentmatrix
[1 0 0 1 4.5 409.5] concat
/Helvetica-SHOWISO findfont 18 scalefont setfont
0 0 0 setrgbcolor
0 3.27273 M (dof[0][nv) 69.048 S
69.048 3.27273 M (]) 5.004 S
setmatrix
grestore
gsave
gsave
matrix currentmatrix
[1 0 0 1 279 355.5] concat
newpath
0 0 M 0 18 L 76.052 18 L 76.052 0 L
closepath setmatrix
0 0 0 setrgbcolor
grestore
newpath
277 353.5 M 277 376.773 L 357.052 376.773 L 357.052 353.5 L
closepath clip newpath
0 0 0 setrgbcolor
matrix currentmatrix
[1 0 0 1 279 355.5] concat
/Helvetica-SHOWISO findfont 18 scalefont setfont
0 0 0 setrgbcolor
0 3.27273 M (dof[1][nv) 69.048 S
69.048 3.27273 M (]) 5.004 S
setmatrix
grestore
gsave
gsave
matrix currentmatrix
[1 0 0 1 189 544.5] concat
newpath
0 0 M 0 18 L 76.052 18 L 76.052 0 L
closepath setmatrix
0 0 0 setrgbcolor
grestore
newpath
187 542.5 M 187 565.773 L 267.052 565.773 L 267.052 542.5 L
closepath clip newpath
0 0 0 setrgbcolor
matrix currentmatrix
[1 0 0 1 189 544.5] concat
/Helvetica-SHOWISO findfont 18 scalefont setfont
0 0 0 setrgbcolor
0 3.27273 M (dof[2][nv) 69.048 S
69.048 3.27273 M (]) 5.004 S
setmatrix
grestore
gsave
gsave
matrix currentmatrix
[1 0 0 1 400.5 481.5] concat
newpath
0 0 M 0 18 L 76.052 18 L 76.052 0 L
closepath setmatrix
0 0 0 setrgbcolor
grestore
newpath
398.5 479.5 M 398.5 502.773 L 478.552 502.773 L 478.552 479.5 L
closepath clip newpath
0 0 0 setrgbcolor
matrix currentmatrix
[1 0 0 1 400.5 481.5] concat
/Helvetica-SHOWISO findfont 18 scalefont setfont
0 0 0 setrgbcolor
0 3.27273 M (dof[0][nv) 69.048 S
69.048 3.27273 M (]) 5.004 S
setmatrix
grestore
gsave
gsave
matrix currentmatrix
[1 0 0 1 504 301.5] concat
newpath
0 0 M 0 18 L 76.052 18 L 76.052 0 L
closepath setmatrix
0 0 0 setrgbcolor
grestore
newpath
502 299.5 M 502 322.773 L 582.052 322.773 L 582.052 299.5 L
closepath clip newpath
0 0 0 setrgbcolor
matrix currentmatrix
[1 0 0 1 504 301.5] concat
/Helvetica-SHOWISO findfont 18 scalefont setfont
0 0 0 setrgbcolor
0 3.27273 M (dof[1][nv) 69.048 S
69.048 3.27273 M (]) 5.004 S
setmatrix
grestore
gsave
gsave
matrix currentmatrix
[1 0 0 1 657 427.5] concat
newpath
0 0 M 0 18 L 76.052 18 L 76.052 0 L
closepath setmatrix
0 0 0 setrgbcolor
grestore
newpath
655 425.5 M 655 448.773 L 735.052 448.773 L 735.052 425.5 L
closepath clip newpath
0 0 0 setrgbcolor
matrix currentmatrix
[1 0 0 1 657 427.5] concat
/Helvetica-SHOWISO findfont 18 scalefont setfont
0 0 0 setrgbcolor
0 3.27273 M (dof[2][nv) 69.048 S
69.048 3.27273 M (]) 5.004 S
setmatrix
grestore
gsave
gsave
matrix currentmatrix
[1 0 0 1 603 567] concat
newpath
0 0 M 0 18 L 76.052 18 L 76.052 0 L
closepath setmatrix
0 0 0 setrgbcolor
grestore
newpath
601 565 M 601 588.273 L 681.052 588.273 L 681.052 565 L
closepath clip newpath
0 0 0 setrgbcolor
matrix currentmatrix
[1 0 0 1 603 567] concat
/Helvetica-SHOWISO findfont 18 scalefont setfont
0 0 0 setrgbcolor
0 3.27273 M (dof[3][nv) 69.048 S
69.048 3.27273 M (]) 5.004 S
setmatrix
grestore
grestore
showpage
saveit restore
grestore
%%EOF
