%!PS-Adobe-2.0 EPSF-2.0
%%Title: macro3d.fig
%%Creator: fig2dev Version 3.2 Patchlevel 4
%%CreationDate: Wed Nov 29 14:45:47 2006
%%For: dani@sputnik (Daniel Koester)
%%BoundingBox: 0 0 191 174
%%Magnification: 1.0000
%%EndComments
/$F2psDict 200 dict def
$F2psDict begin
$F2psDict /mtrx matrix put
/col-1 {0 setgray} bind def
/col0 {0.000 0.000 0.000 srgb} bind def
/col1 {0.000 0.000 1.000 srgb} bind def
/col2 {0.000 1.000 0.000 srgb} bind def
/col3 {0.000 1.000 1.000 srgb} bind def
/col4 {1.000 0.000 0.000 srgb} bind def
/col5 {1.000 0.000 1.000 srgb} bind def
/col6 {1.000 1.000 0.000 srgb} bind def
/col7 {1.000 1.000 1.000 srgb} bind def
/col8 {0.000 0.000 0.560 srgb} bind def
/col9 {0.000 0.000 0.690 srgb} bind def
/col10 {0.000 0.000 0.820 srgb} bind def
/col11 {0.530 0.810 1.000 srgb} bind def
/col12 {0.000 0.560 0.000 srgb} bind def
/col13 {0.000 0.690 0.000 srgb} bind def
/col14 {0.000 0.820 0.000 srgb} bind def
/col15 {0.000 0.560 0.560 srgb} bind def
/col16 {0.000 0.690 0.690 srgb} bind def
/col17 {0.000 0.820 0.820 srgb} bind def
/col18 {0.560 0.000 0.000 srgb} bind def
/col19 {0.690 0.000 0.000 srgb} bind def
/col20 {0.820 0.000 0.000 srgb} bind def
/col21 {0.560 0.000 0.560 srgb} bind def
/col22 {0.690 0.000 0.690 srgb} bind def
/col23 {0.820 0.000 0.820 srgb} bind def
/col24 {0.500 0.190 0.000 srgb} bind def
/col25 {0.630 0.250 0.000 srgb} bind def
/col26 {0.750 0.380 0.000 srgb} bind def
/col27 {1.000 0.500 0.500 srgb} bind def
/col28 {1.000 0.630 0.630 srgb} bind def
/col29 {1.000 0.750 0.750 srgb} bind def
/col30 {1.000 0.880 0.880 srgb} bind def
/col31 {1.000 0.840 0.000 srgb} bind def
/col32 {0.625 0.625 0.625 srgb} bind def

end
save
newpath 0 174 moveto 0 0 lineto 191 0 lineto 191 174 lineto closepath clip newpath
-160.1 334.8 translate
1 -1 scale

/cp {closepath} bind def
/ef {eofill} bind def
/gr {grestore} bind def
/gs {gsave} bind def
/sa {save} bind def
/rs {restore} bind def
/l {lineto} bind def
/m {moveto} bind def
/rm {rmoveto} bind def
/n {newpath} bind def
/s {stroke} bind def
/sh {show} bind def
/slc {setlinecap} bind def
/slj {setlinejoin} bind def
/slw {setlinewidth} bind def
/srgb {setrgbcolor} bind def
/rot {rotate} bind def
/sc {scale} bind def
/sd {setdash} bind def
/ff {findfont} bind def
/sf {setfont} bind def
/scf {scalefont} bind def
/sw {stringwidth} bind def
/tr {translate} bind def
/tnt {dup dup currentrgbcolor
  4 -2 roll dup 1 exch sub 3 -1 roll mul add
  4 -2 roll dup 1 exch sub 3 -1 roll mul add
  4 -2 roll dup 1 exch sub 3 -1 roll mul add srgb}
  bind def
/shd {dup dup currentrgbcolor 4 -2 roll mul 4 -2 roll mul
  4 -2 roll mul srgb} bind def
/$F2psBegin {$F2psDict begin /$F2psEnteredState save def} def
/$F2psEnd {$F2psEnteredState restore end} def

$F2psBegin
10 setmiterlimit
0 slj 0 slc
 0.06299 0.06299 sc
%
% Fig objects follow
%
% 
% here starts figure with depth 50
% Polyline
7.500 slw
n 2700 3150 m 4725 3150 l 4725 5175 l 2700 5175 l
 cp gs col0 s gr 
% Polyline
n 2700 3150 m 3600 2700 l 5400 2700 l 5400 4500 l
 4725 5175 l gs col0 s gr 
% Polyline
n 4725 3150 m
 5400 2700 l gs col0 s gr 
% Polyline
n 3600 2700 m 3600 4500 l
 5400 4500 l gs col32 s gr 
% Polyline
n 3600 4500 m
 2700 5175 l gs col32 s gr 
% Polyline
 [15 45] 45 sd
n 2700 5175 m
 5400 4500 l gs col32 s gr  [] 0 sd
% Polyline
 [15 45] 45 sd
n 2700 5175 m
 3600 2700 l gs col32 s gr  [] 0 sd
% Polyline
 [15 45] 45 sd
n 2700 3150 m
 5400 2700 l gs col-1 s gr  [] 0 sd
% Polyline
 [15 45] 45 sd
n 4725 5175 m
 5400 2700 l gs col-1 s gr  [] 0 sd
% Polyline
 [60] 0 sd
n 2700 5175 m
 5400 2700 l gs col32 s gr  [] 0 sd
% Polyline
 [15 45] 45 sd
n 2700 5175 m
 4725 3150 l gs col-1 s gr  [] 0 sd
% Polyline
 [15 45] 45 sd
n 3600 4500 m
 5400 2700 l gs col32 s gr  [] 0 sd
/Times-Roman ff 180.00 scf sf
3612 4681 m
gs 1 -1 sc (6) col32 sh gr
/Times-Roman ff 180.00 scf sf
2555 5315 m
gs 1 -1 sc (0) col-1 sh gr
/Times-Roman ff 180.00 scf sf
4804 5289 m
gs 1 -1 sc (1) col-1 sh gr
/Times-Roman ff 180.00 scf sf
5478 4547 m
gs 1 -1 sc (4) col-1 sh gr
/Times-Roman ff 180.00 scf sf
5458 2686 m
gs 1 -1 sc (5) col-1 sh gr
/Times-Roman ff 180.00 scf sf
3540 2662 m
gs 1 -1 sc (7) col-1 sh gr
/Times-Roman ff 180.00 scf sf
2542 3130 m
gs 1 -1 sc (2) col-1 sh gr
/Times-Roman ff 180.00 scf sf
4672 3110 m
gs 1 -1 sc (3) col-1 sh gr
% here ends figure;
$F2psEnd
rs
showpage
