%!PS-Adobe-2.0 EPSF-2.0
%%BoundingBox: 18 396 776 567
%%Title: /hosts/sauron/graid/ALBERTA_DOC/DOC/EPS/ref_tetra_e.eps
%%CreationDate: 11:01 AM February 22, 2000
%%Pages: 1
%%EndComments
%%BeginProlog
%%BeginResource ShowcaseResource
1 setlinejoin
/M  { moveto } bind def /S { show  } bind def
/R { rmoveto } bind def /L { lineto } bind def
/B { newpath 0 0 M 0 1 L 1 1 L 1 0 L closepath } bind def
/CS { closepath stroke } bind def
/S {
    /fixwidth exch def
    dup length /nchars exch def
    dup stringwidth pop
    fixwidth exch sub nchars div
    exch 0 exch ashow
} def
/bwproc {
	rgbproc
	dup length 3 idiv string 0 3 0
	5 -1 roll {
	add 2 1 roll 1 sub dup 0 eq
	{ pop 3 idiv 3 -1 roll dup 4 -1 roll dup
	  3 1 roll 5 -1 roll put 1 add 3 0 }
	{ 2 1 roll } ifelse
	} forall
	pop pop pop
} def
systemdict /colorimage known not {
	/colorimage {
		pop
		pop
		/rgbproc exch def
		{ bwproc } image
	} def
} if
1 1 scale
0 setlinewidth
/drawtri {
/y3 exch def
/x3 exch def
/y2 exch def
/x2 exch def
/y1 exch def
/x1 exch def
0 setgray
newpath
x1 y1 moveto
x2 y2 lineto
x3 y3 lineto
closepath
stroke
} bind def
/filltri {
/y3 exch def
/x3 exch def
/y2 exch def
/x2 exch def
/y1 exch def
/x1 exch def
newpath
x1 y1 moveto
x2 y2 lineto
x3 y3 lineto
closepath
fill
} bind def
/cliptri {
/y3 exch def
/x3 exch def
/y2 exch def
/x2 exch def
/y1 exch def
/x1 exch def
0 setgray
newpath
x1 y1 moveto
x2 y2 lineto
x3 y3 lineto
closepath
clip
} bind def
/imgscanrgb {
gsave
translate
/scandy exch def
/scandx exch def
/istr scandx 3 mul string def
scandx scandy scale
scandx scandy 8
[scandx 0 0 scandy neg 0 scandy]
{currentfile istr readhexstring pop}
false 3
colorimage
grestore
} bind def
/imgscanbw {
gsave
translate
/scandy exch def
/scandx exch def
/istr scandx string def
scandx scandy scale
scandx scandy 8
[scandx 0 0 scandy neg 0 scandy]
{currentfile istr readhexstring pop}
image
grestore
} bind def
/showcaseisoencoding [
/.notdef /.notdef /.notdef /.notdef
/.notdef /.notdef /.notdef /.notdef
/.notdef /.notdef /.notdef /.notdef
/.notdef /.notdef /.notdef /.notdef
/.notdef /.notdef /.notdef /.notdef
/.notdef /.notdef /.notdef /.notdef
/.notdef /.notdef /.notdef /.notdef
/.notdef /.notdef /.notdef /.notdef
/space /exclam /quotedbl /numbersign
/dollar /percent /ampersand /quoteright
/parenleft /parenright /asterisk /plus
/comma /minus /period /slash
/zero /one /two /three /four /five /six /seven
/eight /nine /colon /semicolon
/less /equal /greater /question
/at /A /B /C /D /E /F /G
/H /I /J /K /L /M /N /O
/P /Q /R /S /T /U /V /W
/X /Y /Z /bracketleft
/backslash /bracketright /asciicircum /underscore
/quoteleft /a /b /c /d /e /f /g
/h /i /j /k /l /m /n /o
/p /q /r /s /t /u /v /w
/x /y /z /braceleft
/bar /braceright /asciitilde /guilsinglright
/fraction /florin /quotesingle /quotedblleft
/guilsinglleft /fi /fl /endash
/dagger /daggerdbl /bullet /quotesinglbase
/quotedblbase /quotedblright /ellipsis /trademark
/dotlessi /grave /acute /circumflex
/tilde /macron /breve /dotaccent
/dieresis /perthousand /ring /cedilla
/Ydieresis /hungarumlaut /ogonek /caron
/emdash /exclamdown /cent /sterling
/currency /yen /brokenbar /section
/dieresis /copyright /ordfeminine /guillemotleft
/logicalnot /hyphen /registered /macron
/degree /plusminus /twosuperior /threesuperior
/acute /mu /paragraph /periodcentered
/cedilla /onesuperior /ordmasculine /guillemotright
/onequarter /onehalf /threequarters /questiondown
/Agrave /Aacute /Acircumflex /Atilde
/Adieresis /Aring /AE /Ccedilla
/Egrave /Eacute /Ecircumflex /Edieresis
/Igrave /Iacute /Icircumflex /Idieresis
/Eth /Ntilde /Ograve /Oacute
/Ocircumflex /Otilde /Odieresis /multiply
/Oslash /Ugrave /Uacute /Ucircumflex
/Udieresis /Yacute /Thorn /germandbls
/agrave /aacute /acircumflex /atilde
/adieresis /aring /ae /ccedilla
/egrave /eacute /ecircumflex /edieresis
/igrave /iacute /icircumflex /idieresis
/eth /ntilde /ograve /oacute
/ocircumflex /otilde /odieresis /divide
/oslash /ugrave /uacute /ucircumflex
/udieresis /yacute /thorn /ydieresis ] def
/showcasedingbatencoding [
/.notdef /.notdef /.notdef /.notdef
/.notdef /.notdef /.notdef /.notdef
/.notdef /.notdef /.notdef /.notdef
/.notdef /.notdef /.notdef /.notdef
/.notdef /.notdef /.notdef /.notdef
/.notdef /.notdef /.notdef /.notdef
/.notdef /.notdef /.notdef /.notdef
/.notdef /.notdef /.notdef /.notdef
/.notdef /a1 /a2 /a202 /a3 /a4 /a5 /a119 /a118 /a117
/a11 /a12 /a13 /a14 /a15 /a16 /a105 /a17 /a18 /a19
/a20 /a21 /a22 /a23 /a24 /a25 /a26 /a27 /a28 /a6 /a7
/a8 /a9 /a10 /a29
/a30 /a31 /a32 /a33 /a34 /a35 /a36 /a37 /a38 /a39
/a40 /a41 /a42 /a43 /a44 /a45 /a46 /a47 /a48 /a49
/a50 /a51 /a52 /a53 /a54 /a55 /a56 /a57 /a58 /a59
/a60 /a61 /a62 /a63 /a64 /a65 /a66 /a67 /a68 /a69
/a70 /a71 /a72 /a73 /a74 /a203 /a75 /a204 /a76 /a77 /a78
/a79 /a81 /a82 /a83 /a84 /a97 /a98 /a99 /a100 /.notdef
/a205 /a85 /a206 /a86 /a87 /a88 /a89 /a90 /a91 /a92 /a93
/a94 /a95 /a96
/.notdef /.notdef /.notdef /.notdef /.notdef /.notdef
/.notdef /.notdef /.notdef /.notdef /.notdef /.notdef
/.notdef /.notdef /.notdef /.notdef /.notdef /.notdef
/.notdef /a101 /a102 /a103 /a104 /a106 /a107 /a108
/a112 /a111 /a110 /a109
/a120 /a121 /a122 /a123 /a124 /a125 /a126 /a127 /a128 /a129
/a130 /a131 /a132 /a133 /a134 /a135 /a136 /a137 /a138 /a139
/a140 /a141 /a142 /a143 /a144 /a145 /a146 /a147 /a148 /a149
/a150 /a151 /a152 /a153 /a154 /a155 /a156 /a157 /a158 /a159
/a160 /a161 /a163 /a164 /a196 /a165 /a192 /a166 /a167 /a168
/a169 /a170 /a171 /a172 /a173 /a162 /a174 /a175 /a176 /a177
/a178 /a179 /a193 /a180 /a199 /a181 /a200 /a182 /.notdef
/a201 /a183 /a184 /a197 /a185 /a194 /a198 /a186 /a195 /a187
/a188 /a189 /a190 /a191 /.notdef
] def
/Times-Roman findfont
dup length dict begin
  {1 index /FID ne {def} {pop pop} ifelse} forall
  /Encoding showcaseisoencoding def
  currentdict
end
/Times-Roman-SHOWISO exch definefont pop
/Symbol findfont
dup length dict begin
  {1 index /FID ne {def} {pop pop} ifelse} forall
  currentdict
end
/Symbol-SHOWISO exch definefont pop
/pmask33 {
<aaaa5555aaaa1111aaaa5555aaaa1111
 aaaa5555aaaa1111aaaa5555aaaa1111>
} def

/newfont 10 dict def
newfont begin

 /FontType 3 def
 /FontMatrix [1 0 0 1 0 0] def
 /FontBBox [0 0 1 1] def
 /Encoding 256 array def
 0 1 255 {Encoding exch /.notdef put} for
Encoding 65 /patchar33 put

 /CharProcs 2 dict def
 CharProcs begin
 /.notdef {} def

/patchar33 {
16 16 true [16.08 0 0 -16.08 0 16.08] pmask33 imagemask
} def
end

 /BuildChar {
  1 0
  0 0 1 1
  setcachedevice
  exch begin
  Encoding exch get
  CharProcs exch get
  end
  exec
 } def
end
/PatternFont newfont definefont pop

%%EndResource
%%EndProlog
%%BeginSetup
%%EndSetup
%%Page: label 1
gsave
/saveit save def
gsave
gsave
0 0 0 setrgbcolor
1.000000 setlinewidth
newpath
36 468 M
126 396 L
234 468 L
stroke
grestore
gsave
0 0 0 setrgbcolor
1.000000 setlinewidth
[4] 0 setdash
newpath
36 468 M
234 468 L
stroke
grestore
gsave
0 0 0 setrgbcolor
1.000000 setlinewidth
newpath
126 396 M
198 558 L
234 468 L
stroke
grestore
gsave
0 0 0 setrgbcolor
1.000000 setlinewidth
newpath
198 558 M
36 468 L
stroke
grestore
gsave
1.000000 setlinewidth
matrix currentmatrix
[4.5 0 0 4.5 79.5 433.5] concat
newpath
0 0 1 0 360 arc
0 0 0 setrgbcolor
closepath setmatrix stroke
grestore
gsave
1.000000 setlinewidth
matrix currentmatrix
[4.5 0 0 4.5 138.5 468.5] concat
newpath
0 0 1 0 360 arc
0 0 0 setrgbcolor
closepath setmatrix stroke
grestore
gsave
1.000000 setlinewidth
matrix currentmatrix
[4.5 0 0 4.5 187.5 436.5] concat
newpath
0 0 1 0 360 arc
0 0 0 setrgbcolor
closepath setmatrix stroke
grestore
gsave
1.000000 setlinewidth
matrix currentmatrix
[4.5 0 0 4.5 162.5 477.5] concat
newpath
0 0 1 0 360 arc
0 0 0 setrgbcolor
closepath setmatrix stroke
grestore
gsave
1.000000 setlinewidth
matrix currentmatrix
[4.5 0 0 4.5 218.5 508.5] concat
newpath
0 0 1 0 360 arc
0 0 0 setrgbcolor
closepath setmatrix stroke
grestore
gsave
0 0 0 setrgbcolor
1.000000 setlinewidth
newpath
612 396 M
684 558 L
720 468 L
stroke
grestore
gsave
0 0 0 setrgbcolor
1.000000 setlinewidth
newpath
603 513 M
612 396 L
stroke
grestore
gsave
0 0 0 setrgbcolor
1.000000 setlinewidth
[4] 0 setdash
newpath
603 513 M
720 468 L
stroke
grestore
gsave
1.000000 setlinewidth
matrix currentmatrix
[4.5 0 0 4.5 673.5 436.5] concat
newpath
0 0 1 0 360 arc
0 0 0 setrgbcolor
closepath setmatrix stroke
grestore
gsave
1.000000 setlinewidth
matrix currentmatrix
[4.5 0 0 4.5 648.5 477.5] concat
newpath
0 0 1 0 360 arc
0 0 0 setrgbcolor
closepath setmatrix stroke
grestore
gsave
1.000000 setlinewidth
matrix currentmatrix
[4.5 0 0 4.5 704.5 508.5] concat
newpath
0 0 1 0 360 arc
0 0 0 setrgbcolor
closepath setmatrix stroke
grestore
gsave
0 0 0 setrgbcolor
1.000000 setlinewidth
newpath
684 558 M
603 513 L
stroke
grestore
gsave
0 0 0 setrgbcolor
1.000000 setlinewidth
newpath
720 468 M
612 396 L
stroke
grestore
gsave
gsave
matrix currentmatrix
[1 0 0 1 714.5 498.57] concat
newpath
0 0 M 0 20 L 61.2 20 L 61.2 0 L
closepath setmatrix
0 0 0 setrgbcolor
grestore
newpath
712.5 496.57 M 712.5 520.57 L 777.7 520.57 L 777.7 496.57 L
closepath clip newpath
0 0 0 setrgbcolor
matrix currentmatrix
[1 0 0 1 714.5 498.57] concat
/Times-Roman-SHOWISO findfont 20 scalefont setfont
0 0 0 setrgbcolor
0 3.63636 M ({1,0,0}) 59.2 S
setmatrix
grestore
gsave
gsave
matrix currentmatrix
[1 0 0 1 683 417.57] concat
newpath
0 0 M 0 20 L 12 20 L 12 0 L
closepath setmatrix
0 0 0 setrgbcolor
grestore
newpath
681 415.57 M 681 439.57 L 697 439.57 L 697 415.57 L
closepath clip newpath
0 0 0 setrgbcolor
matrix currentmatrix
[1 0 0 1 683 417.57] concat
/Times-Roman-SHOWISO findfont 20 scalefont setfont
0 0 0 setrgbcolor
0 3.63636 M (3) 10 S
setmatrix
grestore
gsave
gsave
matrix currentmatrix
[1 0 0 1 135 470.5] concat
newpath
0 0 M 0 20 L 12 20 L 12 0 L
closepath setmatrix
0 0 0 setrgbcolor
grestore
newpath
133 468.5 M 133 492.5 L 149 492.5 L 149 468.5 L
closepath clip newpath
0 0 0 setrgbcolor
matrix currentmatrix
[1 0 0 1 135 470.5] concat
/Times-Roman-SHOWISO findfont 20 scalefont setfont
0 0 0 setrgbcolor
0 3.63636 M (1) 10 S
setmatrix
grestore
gsave
gsave
matrix currentmatrix
[1 0 0 1 112.5 517.5] concat
newpath
0 0 M 0 20 L 12 20 L 12 0 L
closepath setmatrix
0 0 0 setrgbcolor
grestore
newpath
110.5 515.5 M 110.5 539.5 L 126.5 539.5 L 126.5 515.5 L
closepath clip newpath
0 0 0 setrgbcolor
matrix currentmatrix
[1 0 0 1 112.5 517.5] concat
/Times-Roman-SHOWISO findfont 20 scalefont setfont
0 0 0 setrgbcolor
0 3.63636 M (0) 10 S
setmatrix
grestore
gsave
gsave
matrix currentmatrix
[1 0 0 1 198 421] concat
newpath
0 0 M 0 20 L 12 20 L 12 0 L
closepath setmatrix
0 0 0 setrgbcolor
grestore
newpath
196 419 M 196 443 L 212 443 L 212 419 L
closepath clip newpath
0 0 0 setrgbcolor
matrix currentmatrix
[1 0 0 1 198 421] concat
/Times-Roman-SHOWISO findfont 20 scalefont setfont
0 0 0 setrgbcolor
0 3.63636 M (5) 10 S
setmatrix
grestore
gsave
gsave
matrix currentmatrix
[1 0 0 1 229.5 497.5] concat
newpath
0 0 M 0 20 L 12 20 L 12 0 L
closepath setmatrix
0 0 0 setrgbcolor
grestore
newpath
227.5 495.5 M 227.5 519.5 L 243.5 519.5 L 243.5 495.5 L
closepath clip newpath
0 0 0 setrgbcolor
matrix currentmatrix
[1 0 0 1 229.5 497.5] concat
/Times-Roman-SHOWISO findfont 20 scalefont setfont
0 0 0 setrgbcolor
0 3.63636 M (3) 10 S
setmatrix
grestore
gsave
gsave
matrix currentmatrix
[1 0 0 1 58.5 421] concat
newpath
0 0 M 0 20 L 12 20 L 12 0 L
closepath setmatrix
0 0 0 setrgbcolor
grestore
newpath
56.5 419 M 56.5 443 L 72.5 443 L 72.5 419 L
closepath clip newpath
0 0 0 setrgbcolor
matrix currentmatrix
[1 0 0 1 58.5 421] concat
/Times-Roman-SHOWISO findfont 20 scalefont setfont
0 0 0 setrgbcolor
0 3.63636 M (2) 10 S
setmatrix
grestore
gsave
gsave
matrix currentmatrix
[1 0 0 1 171 466] concat
newpath
0 0 M 0 20 L 12 20 L 12 0 L
closepath setmatrix
0 0 0 setrgbcolor
grestore
newpath
169 464 M 169 488 L 185 488 L 185 464 L
closepath clip newpath
0 0 0 setrgbcolor
matrix currentmatrix
[1 0 0 1 171 466] concat
/Times-Roman-SHOWISO findfont 20 scalefont setfont
0 0 0 setrgbcolor
0 3.63636 M (4) 10 S
setmatrix
grestore
gsave
matrix currentmatrix
[9 0 0 -9 603 468] concat
B
setmatrix
0 0 0 setrgbcolor
1.000000 setlinewidth
gsave stroke grestore
grestore
gsave
matrix currentmatrix
[9 0 0 -9 639 540] concat
B
setmatrix
0 0 0 setrgbcolor
1.000000 setlinewidth
gsave stroke grestore
grestore
gsave
matrix currentmatrix
[9 0 0 -9 657 495] concat
B
setmatrix
0 0 0 setrgbcolor
1.000000 setlinewidth
gsave stroke grestore
grestore
gsave
0 0 0 setrgbcolor
1.000000 setlinewidth
newpath
306 468 M
396 396 L
504 468 L
stroke
grestore
gsave
0 0 0 setrgbcolor
1.000000 setlinewidth
[4] 0 setdash
newpath
306 468 M
504 468 L
stroke
grestore
gsave
0 0 0 setrgbcolor
1.000000 setlinewidth
newpath
387 513 M
396 396 L
stroke
grestore
gsave
0 0 0 setrgbcolor
1.000000 setlinewidth
newpath
387 513 M
504 468 L
stroke
grestore
gsave
1.000000 setlinewidth
matrix currentmatrix
[4.5 0 0 4.5 349.5 433.5] concat
newpath
0 0 1 0 360 arc
0 0 0 setrgbcolor
closepath setmatrix stroke
grestore
gsave
1.000000 setlinewidth
matrix currentmatrix
[4.5 0 0 4.5 408.5 468.5] concat
newpath
0 0 1 0 360 arc
0 0 0 setrgbcolor
closepath setmatrix stroke
grestore
gsave
1.000000 setlinewidth
matrix currentmatrix
[4.5 0 0 4.5 457.5 436.5] concat
newpath
0 0 1 0 360 arc
0 0 0 setrgbcolor
closepath setmatrix stroke
grestore
gsave
0 0 0 setrgbcolor
1.000000 setlinewidth
newpath
387 513 M
306 468 L
stroke
grestore
gsave
gsave
matrix currentmatrix
[1 0 0 1 468 416.5] concat
newpath
0 0 M 0 20 L 12 20 L 12 0 L
closepath setmatrix
0 0 0 setrgbcolor
grestore
newpath
466 414.5 M 466 438.5 L 482 438.5 L 482 414.5 L
closepath clip newpath
0 0 0 setrgbcolor
matrix currentmatrix
[1 0 0 1 468 416.5] concat
/Times-Roman-SHOWISO findfont 20 scalefont setfont
0 0 0 setrgbcolor
0 3.63636 M (3) 10 S
setmatrix
grestore
gsave
matrix currentmatrix
[9 0 0 -9 342 495] concat
B
setmatrix
0 0 0 setrgbcolor
1.000000 setlinewidth
gsave stroke grestore
grestore
gsave
matrix currentmatrix
[9 0 0 -9 441 495] concat
B
setmatrix
0 0 0 setrgbcolor
1.000000 setlinewidth
gsave stroke grestore
grestore
gsave
matrix currentmatrix
[9 0 0 -9 387 463.5] concat
B
setmatrix
0 0 0 setrgbcolor
1.000000 setlinewidth
gsave stroke grestore
grestore
gsave
gsave
matrix currentmatrix
[1 0 0 1 328.5 416.5] concat
newpath
0 0 M 0 20 L 12 20 L 12 0 L
closepath setmatrix
0 0 0 setrgbcolor
grestore
newpath
326.5 414.5 M 326.5 438.5 L 342.5 438.5 L 342.5 414.5 L
closepath clip newpath
0 0 0 setrgbcolor
matrix currentmatrix
[1 0 0 1 328.5 416.5] concat
/Symbol findfont 20 scalefont setfont
0 0 0 setrgbcolor
0 5.26316 M (1) 10 S
setmatrix
grestore
gsave
gsave
matrix currentmatrix
[1 0 0 1 405 470.5] concat
newpath
0 0 M 0 20 L 12 20 L 12 0 L
closepath setmatrix
0 0 0 setrgbcolor
grestore
newpath
403 468.5 M 403 492.5 L 419 492.5 L 419 468.5 L
closepath clip newpath
0 0 0 setrgbcolor
matrix currentmatrix
[1 0 0 1 405 470.5] concat
/Symbol findfont 20 scalefont setfont
0 0 0 setrgbcolor
0 5.26316 M (0) 10 S
setmatrix
grestore
gsave
gsave
matrix currentmatrix
[1 0 0 1 373.5 457] concat
newpath
0 0 M 0 20 L 12 20 L 12 0 L
closepath setmatrix
0 0 0 setrgbcolor
grestore
newpath
371.5 455 M 371.5 479 L 387.5 479 L 387.5 455 L
closepath clip newpath
0 0 0 setrgbcolor
matrix currentmatrix
[1 0 0 1 373.5 457] concat
/Times-Roman-SHOWISO findfont 20 scalefont setfont
0 0 0 setrgbcolor
0 3.63636 M (5) 10 S
setmatrix
grestore
gsave
gsave
matrix currentmatrix
[1 0 0 1 441 495] concat
newpath
0 0 M 0 20 L 12 20 L 12 0 L
closepath setmatrix
0 0 0 setrgbcolor
grestore
newpath
439 493 M 439 517 L 455 517 L 455 493 L
closepath clip newpath
0 0 0 setrgbcolor
matrix currentmatrix
[1 0 0 1 441 495] concat
/Times-Roman-SHOWISO findfont 20 scalefont setfont
0 0 0 setrgbcolor
0 3.63636 M (4) 10 S
setmatrix
grestore
gsave
gsave
matrix currentmatrix
[1 0 0 1 337.5 495] concat
newpath
0 0 M 0 20 L 12 20 L 12 0 L
closepath setmatrix
0 0 0 setrgbcolor
grestore
newpath
335.5 493 M 335.5 517 L 351.5 517 L 351.5 493 L
closepath clip newpath
0 0 0 setrgbcolor
matrix currentmatrix
[1 0 0 1 337.5 495] concat
/Times-Roman-SHOWISO findfont 20 scalefont setfont
0 0 0 setrgbcolor
0 3.63636 M (2) 10 S
setmatrix
grestore
gsave
gsave
matrix currentmatrix
[1 0 0 1 634.5 540] concat
newpath
0 0 M 0 20 L 12 20 L 12 0 L
closepath setmatrix
0 0 0 setrgbcolor
grestore
newpath
632.5 538 M 632.5 562 L 648.5 562 L 648.5 538 L
closepath clip newpath
0 0 0 setrgbcolor
matrix currentmatrix
[1 0 0 1 634.5 540] concat
/Times-Roman-SHOWISO findfont 20 scalefont setfont
0 0 0 setrgbcolor
0 3.63636 M (2) 10 S
setmatrix
grestore
gsave
gsave
matrix currentmatrix
[1 0 0 1 540 540] concat
newpath
0 0 M 0 18 L 58.988 18 L 58.988 0 L
closepath setmatrix
0 0 0 setrgbcolor
grestore
newpath
538 538 M 538 560.429 L 600.988 560.429 L 600.988 538 L
closepath clip newpath
0 0 0 setrgbcolor
matrix currentmatrix
[1 0 0 1 540 540] concat
/Times-Roman-SHOWISO findfont 18 scalefont setfont
0 0 0 setrgbcolor
0 3.42857 M (child[1]) 56.988 S
setmatrix
grestore
gsave
gsave
matrix currentmatrix
[1 0 0 1 306 540] concat
newpath
0 0 M 0 18 L 58.988 18 L 58.988 0 L
closepath setmatrix
0 0 0 setrgbcolor
grestore
newpath
304 538 M 304 560.429 L 366.988 560.429 L 366.988 538 L
closepath clip newpath
0 0 0 setrgbcolor
matrix currentmatrix
[1 0 0 1 306 540] concat
/Times-Roman-SHOWISO findfont 18 scalefont setfont
0 0 0 setrgbcolor
0 3.42857 M (child[0]) 56.988 S
setmatrix
grestore
gsave
matrix currentmatrix
[4.5 0 0 4.5 117 513] concat
newpath
0 0 1 0 360 arc
setmatrix
0 0 0 setrgbcolor
closepath fill
1.000000 setlinewidth
matrix currentmatrix
[4.5 0 0 4.5 117 513] concat
newpath
0 0 1 0 360 arc
0 0 0 setrgbcolor
closepath setmatrix stroke
grestore
gsave
0 0 0 setrgbcolor
1.000000 setlinewidth
[2] 0 setdash
newpath
234 468 M
117 513 L
126 396 L
stroke
grestore
gsave
gsave
matrix currentmatrix
[1 0 0 1 636.5 493] concat
newpath
0 0 M 0 20 L 61.2 20 L 61.2 0 L
closepath setmatrix
0 0 0 setrgbcolor
grestore
newpath
634.5 491 M 634.5 515 L 699.7 515 L 699.7 491 L
closepath clip newpath
0 0 0 setrgbcolor
matrix currentmatrix
[1 0 0 1 636.5 493] concat
/Times-Roman-SHOWISO findfont 20 scalefont setfont
0 0 0 setrgbcolor
0 3.63636 M ({5,4,4}) 59.2 S
setmatrix
grestore
gsave
gsave
matrix currentmatrix
[1 0 0 1 625.5 452.5] concat
newpath
0 0 M 0 20 L 61.2 20 L 61.2 0 L
closepath setmatrix
0 0 0 setrgbcolor
grestore
newpath
623.5 450.5 M 623.5 474.5 L 688.7 474.5 L 688.7 450.5 L
closepath clip newpath
0 0 0 setrgbcolor
matrix currentmatrix
[1 0 0 1 625.5 452.5] concat
/Times-Roman-SHOWISO findfont 20 scalefont setfont
0 0 0 setrgbcolor
0 3.63636 M ({0,1,1}) 59.2 S
setmatrix
grestore
gsave
gsave
matrix currentmatrix
[1 0 0 1 544.5 452.5] concat
newpath
0 0 M 0 20 L 61.2 20 L 61.2 0 L
closepath setmatrix
0 0 0 setrgbcolor
grestore
newpath
542.5 450.5 M 542.5 474.5 L 607.7 474.5 L 607.7 450.5 L
closepath clip newpath
0 0 0 setrgbcolor
matrix currentmatrix
[1 0 0 1 544.5 452.5] concat
/Times-Roman-SHOWISO findfont 20 scalefont setfont
0 0 0 setrgbcolor
0 3.63636 M ({4,5,5}) 59.2 S
setmatrix
grestore
gsave
gsave
matrix currentmatrix
[1 0 0 1 18 504] concat
newpath
0 0 M 0 18 L 58.988 18 L 58.988 0 L
closepath setmatrix
0 0 0 setrgbcolor
grestore
newpath
16 502 M 16 524.429 L 78.988 524.429 L 78.988 502 L
closepath clip newpath
0 0 0 setrgbcolor
matrix currentmatrix
[1 0 0 1 18 504] concat
/Times-Roman-SHOWISO findfont 18 scalefont setfont
0 0 0 setrgbcolor
0 3.42857 M (child[0]) 56.988 S
setmatrix
grestore
gsave
gsave
matrix currentmatrix
[1 0 0 1 112.5 549] concat
newpath
0 0 M 0 18 L 58.988 18 L 58.988 0 L
closepath setmatrix
0 0 0 setrgbcolor
grestore
newpath
110.5 547 M 110.5 569.429 L 173.488 569.429 L 173.488 547 L
closepath clip newpath
0 0 0 setrgbcolor
matrix currentmatrix
[1 0 0 1 112.5 549] concat
/Times-Roman-SHOWISO findfont 18 scalefont setfont
0 0 0 setrgbcolor
0 3.42857 M (child[1]) 56.988 S
setmatrix
grestore
grestore
showpage
saveit restore
grestore
%%EOF
