%!PS-Adobe-3.0 EPSF-3.0
%%Creator: GIMP PostScript file plugin V 1.16 by Peter Kirchgessner
%%Title: /home/dani/bilder/gallery/slave_1d.eps
%%CreationDate: Wed Nov 22 11:51:28 2006
%%DocumentData: Clean7Bit
%%LanguageLevel: 2
%%Pages: 1
%%BoundingBox: 14 14 585 579
%%EndComments
%%BeginProlog
% Use own dictionary to avoid conflicts
10 dict begin
%%EndProlog
%%Page: 1 1
% Translate for offset
14.173228346456694 14.173228346456694 translate
% Translate to begin of first scanline
0 564.48000000000002 translate
570.24000000000001 -564.48000000000002 scale
% Image geometry
792 784 8
% Transformation matrix
[ 792 0 0 784 0 0 ]
% Strings to hold RGB-samples per scanline
/rstr 792 string def
/gstr 792 string def
/bstr 792 string def
{currentfile /ASCII85Decode filter /RunLengthDecode filter rstr readstring pop}
{currentfile /ASCII85Decode filter /RunLengthDecode filter gstr readstring pop}
{currentfile /ASCII85Decode filter /RunLengthDecode filter bstr readstring pop}
true 3
%%BeginData:        75458 ASCII Bytes
colorimage
JcC<$JcC<$JcC<$l2Q8~>
JcC<$JcC<$JcC<$l2Q8~>
JcC<$JcC<$JcC<$l2Q8~>
JcC<$JcC<$JcC<$l2Q8~>
JcC<$JcC<$JcC<$l2Q8~>
JcC<$JcC<$JcC<$l2Q8~>
JcC<$JcC<$JcC<$l2Q8~>
JcC<$JcC<$JcC<$l2Q8~>
JcC<$JcC<$JcC<$l2Q8~>
JcC<$JcC<$JcC<$l2Q8~>
JcC<$JcC<$JcC<$l2Q8~>
JcC<$JcC<$JcC<$l2Q8~>
JcC<$JcC<$JcC<$l2Q8~>
JcC<$JcC<$JcC<$l2Q8~>
JcC<$JcC<$JcC<$l2Q8~>
JcC<$JcE%UrW)fpqZ)3IJcEgkJ,~>
JcC<$JcE%UrW)fpqZ)3IJcEgkJ,~>
JcC<$JcE%UrW)fpqZ)3IJcEgkJ,~>
JcC<$JcE%UrW)fpqZ)3IJcEgkJ,~>
JcC<$JcE%UrW)fpqZ)3IJcEgkJ,~>
JcC<$JcE%UrW)fpqZ)3IJcEgkJ,~>
JcC<$JcE+WquHWor;ZitrW%NLJcEjlJ,~>
JcC<$JcE+WquHWor;ZitrW%NLJcEjlJ,~>
JcC<$JcE+WquHWor;ZitrW%NLJcEjlJ,~>
JcC<$JcE%UrW)iqrW)uurW%NLJcEjlJ,~>
JcC<$JcE%UrW)iqrW)uurW%NLJcEjlJ,~>
JcC<$JcE%UrW)iqrW)uurW%NLJcEjlJ,~>
JcC<$JcE%UrW)iqrW)uurW%NLJcEjlJ,~>
JcC<$JcE%UrW)iqrW)uurW%NLJcEjlJ,~>
JcC<$JcE%UrW)iqrW)uurW%NLJcEjlJ,~>
JcC<$JcE%UrW)osrW%NLJcEUeJ,~>
JcC<$JcE%UrW)osrW%NLJcEUeJ,~>
JcC<$JcE%UrW)osrW%NLJcEUeJ,~>
JcC<$JcE%UrW)osrW)uur;_EKJcEgkJ,~>
JcC<$JcE%UrW)osrW)uur;_EKJcEgkJ,~>
JcC<$JcE%UrW)osrW)uur;_EKJcEgkJ,~>
JcC<$JcE%UrW)osqZ$WrrW%NLJcEjlJ,~>
JcC<$JcE%UrW)osqZ$WrrW%NLJcEjlJ,~>
JcC<$JcE%UrW)osqZ$WrrW%NLJcEjlJ,~>
JcC<$JcE%UrW)osqZ$WrrW%NLJcEjlJ,~>
JcC<$JcE%UrW)osqZ$WrrW%NLJcEjlJ,~>
JcC<$JcE%UrW)osqZ$WrrW%NLJcEjlJ,~>
JcC<$JcE%UrW)osrW)osrW%NLJcEjlJ,~>
JcC<$JcE%UrW)osrW)osrW%NLJcEjlJ,~>
JcC<$JcE%UrW)osrW)osrW%NLJcEjlJ,~>
JcC<$JcE%UrW)osrW)osrW%NLJcEjlJ,~>
JcC<$JcE%UrW)osrW)osrW%NLJcEjlJ,~>
JcC<$JcE%UrW)osrW)osrW%NLJcEjlJ,~>
JcC<$JcE%UrW)osrW)osrW%NLJcEjlJ,~>
JcC<$JcE%UrW)osrW)osrW%NLJcEjlJ,~>
JcC<$JcE%UrW)osrW)osrW%NLJcEjlJ,~>
JcC<$JcE%UrW)iqrVurur;_EKJcEjlJ,~>
JcC<$JcE%UrW)iqrVurur;_EKJcEjlJ,~>
JcC<$JcE%UrW)iqrVurur;_EKJcEjlJ,~>
JcC<$JcE%UrW)fpqZ)3IJcEgkJ,~>
JcC<$JcE%UrW)fpqZ)3IJcEgkJ,~>
JcC<$JcE%UrW)fpqZ)3IJcEgkJ,~>
JcC<$JcE@^q#H!GJcE4ZJ,~>
JcC<$JcE@^q#H!GJcE4ZJ,~>
JcC<$JcE@^q#H!GJcE4ZJ,~>
JcC<$JcE@^q#H!GJcE4ZJ,~>
JcC<$JcE@^q#H!GJcE4ZJ,~>
JcC<$JcE@^q#H!GJcE4ZJ,~>
JcC<$JcEUemf7q=JcE=]J,~>
JcC<$JcEUemf7q=JcE=]J,~>
JcC<$JcEUemf7q=JcE=]J,~>
JcC<$JcEgkoDn^eqZ)3IJcEF`J,~>
JcC<$JcEgkoDn^eqZ)3IJcEF`J,~>
JcC<$JcEgkoDn^eqZ)3IJcEF`J,~>
JcC<$JcF'roDn@[quD<JJcELbJ,~>
JcC<$JcF'roDn@[quD<JJcELbJ,~>
JcC<$JcF'roDn@[quD<JJcELbJ,~>
JcC<$JcF'roDn@[quD<JJcELbJ,~>
JcC<$JcF'roDn@[quD<JJcELbJ,~>
JcC<$JcF'roDn@[quD<JJcELbJ,~>
JcC<$JcF=$o)RqQq>c*HJcE[gJ,~>
JcC<$JcF=$o)RqQq>c*HJcE[gJ,~>
JcC<$JcF=$o)RqQq>c*HJcE[gJ,~>
JcC<$JcFR+o)RVHq>c*HJcEaiJ,~>
JcC<$JcFR+o)RVHq>c*HJcEaiJ,~>
JcC<$JcFR+o)RVHq>c*HJcEaiJ,~>
JcC<$JcFR+o)RVHq>c*HJcEaiJ,~>
JcC<$JcFR+o)RVHq>c*HJcEaiJ,~>
JcC<$JcFR+o)RVHq>c*HJcEaiJ,~>
JcC<$JcFg2o)R2<quD<JJcEjlJ,~>
JcC<$JcFg2o)R2<quD<JJcEjlJ,~>
JcC<$JcFg2o)R2<quD<JJcEjlJ,~>
JcC<$W;l\oqu?Tpe,T(@aT),;JcC<$bl<1~>
JcC<$W;l\oqu?Tpe,T(@aT),;JcC<$bl<1~>
JcC<$W;l\oqu?Tpe,T(@aT),;JcC<$bl<1~>
JcC<$WW2nsrr;rts8W&us8W*!g]-pH^An'1JcC<$ci8L~>
JcC<$WW2nsrr;rts8W&us8W*!g]-pH^An'1JcC<$ci8L~>
JcC<$WW2nsrr;rts8W&us8W*!g]-pH^An'1JcC<$ci8L~>
JcC<$WW2nsrr;rts8W&us8W*!g]-pH^An'1JcC<$ci8L~>
JcC<$WW2nsrr;rts8W&us8W*!g]-pH^An'1JcC<$ci8L~>
JcC<$WW2nsrr;rts8W&us8W*!g]-pH^An'1JcC<$ci8L~>
JcC<$WW2qtrVuis!<<#urVuisjT"fO[f?7*JcC<$dJn^~>
JcC<$WW2qtrVuis!<<#urVuisjT"fO[f?7*JcC<$dJn^~>
JcC<$WW2qtrVuis!<<#urVuisjT"fO[f?7*JcC<$dJn^~>
JcC<$U]:8m!<<#urVuisli6PVXT/+sJcC<$f)L7~>
JcC<$U]:8m!<<#urVuisli6PVXT/+sJcC<$f)L7~>
JcC<$U]:8m!<<#urVuisli6PVXT/+sJcC<$f)L7~>
JcC<$U]:8m!<<#urVuisli6PVXT/+sJcC<$f)L7~>
JcC<$U]:8m!<<#urVuisli6PVXT/+sJcC<$f)L7~>
JcC<$U]:8m!<<#urVuisli6PVXT/+sJcC<$f)L7~>
JcC<$U]:>orr;rtrVuisnc/4]U]:/jJcC<$f`-I~>
JcC<$U]:>orr;rtrVuisnc/4]U]:/jJcC<$f`-I~>
JcC<$U]:>orr;rtrVuisnc/4]U]:/jJcC<$f`-I~>
JcC<$VZ6SprVuisrVuisp]'mdQiHs`JcC<$g])d~>
JcC<$VZ6SprVuisrVuisp]'mdQiHs`JcC<$g])d~>
JcC<$VZ6SprVuisrVuisp]'mdQiHs`JcC<$g])d~>
JcC<$W;lbqr;Z`rrVuisrr;TjO8o(WJcC<$hZ&*~>
JcC<$W;lbqr;Z`rrVuisrr;TjO8o(WJcC<$hZ&*~>
JcC<$W;lbqr;Z`rrVuisrr;TjO8o(WJcC<$hZ&*~>
JcC<$W;lbqr;Z`rrVuisrr;TjO8o(WJcC<$hZ&*~>
JcC<$W;lbqr;Z`rrVuisrr;TjO8o(WJcC<$hZ&*~>
JcC<$W;lbqr;Z`rrVuisrr;TjO8o(WJcC<$hZ&*~>
JcC<$WW2nsqZ$Nprr;QiLB%,NJcC<$iW"E~>
JcC<$WW2nsqZ$Nprr;QiLB%,NJcC<$iW"E~>
JcC<$WW2nsqZ$Nprr;QiLB%,NJcC<$iW"E~>
JcC<$WW2qtqZ$-eJcGZJq>c*HJcFj3J,~>
JcC<$WW2qtqZ$-eJcGZJq>c*HJcFj3J,~>
JcC<$WW2qtqZ$-eJcGZJq>c*HJcFj3J,~>
JcC<$WW2qtqZ$-eJcGZJq>c*HJcFj3J,~>
JcC<$WW2qtqZ$-eJcGZJq>c*HJcFj3J,~>
JcC<$WW2qtqZ$-eJcGZJq>c*HJcFj3J,~>
JcC<$WW2DeJcG?Aq>c*HJcFs6J,~>
JcC<$WW2DeJcG?Aq>c*HJcFs6J,~>
JcC<$WW2DeJcG?Aq>c*HJcFs6J,~>
JcC<$XT.nmJcFp5quD<JJcG$8J,~>
JcC<$XT.nmJcFp5quD<JJcG$8J,~>
JcC<$XT.nmJcFp5quD<JJcG$8J,~>
JcC<$ZiBUsJcFU,quD<JJcG-;J,~>
JcC<$ZiBUsJcFU,quD<JJcG-;J,~>
JcC<$ZiBUsJcFU,quD<JJcG-;J,~>
JcC<$ZiBUsJcFU,quD<JJcG-;J,~>
JcC<$ZiBUsJcFU,quD<JJcG-;J,~>
JcC<$ZiBUsJcFU,quD<JJcG-;J,~>
JcC<$])V@%JcF:#qZ)3IJcG6>J,~>
JcC<$])V@%JcF:#qZ)3IJcG6>J,~>
JcC<$])V@%JcF:#qZ)3IJcG6>J,~>
JcC<$_>j*,JcEpnqZ)3IJcG?AJ,~>
JcC<$_>j*,JcEpnqZ)3IJcG?AJ,~>
JcC<$_>j*,JcEpnqZ)3IJcG?AJ,~>
JcC<$`rG]3JcERdq>c*HJcGKEJ,~>
JcC<$`rG]3JcERdq>c*HJcGKEJ,~>
JcC<$`rG]3JcERdq>c*HJcGKEJ,~>
JcC<$`rG]3JcERdq>c*HJcGKEJ,~>
JcC<$`rG]3JcERdq>c*HJcGKEJ,~>
JcC<$`rG]3JcERdq>c*HJcGKEJ,~>
JcC<$c2[G:JcE4Zq>c*HJcGTHJ,~>
JcC<$c2[G:JcE4Zq>c*HJcGTHJ,~>
JcC<$c2[G:JcE4Zq>c*HJcGTHJ,~>
JcC<$eGo+?JcDnQquD<JJcGZJJ,~>
JcC<$eGo+?JcDnQquD<JJcGZJJ,~>
JcC<$eGo+?JcDnQquD<JJcGZJJ,~>
JcC<$eGo+?JcDnQquD<JJcGZJJ,~>
JcC<$eGo+?JcDnQquD<JJcGZJJ,~>
JcC<$eGo+?JcDnQquD<JJcGZJJ,~>
JcD):rW)iqq>f(Go)O@AV#U>mJcC<$s8RT~>
JcD):rW)iqq>f(Go)O@AV#U>mJcC<$s8RT~>
JcD):rW)iqq>f(Go)O@AV#U>mJcC<$s8RT~>
JcD2=qZ-Tpr;cltr;b[Ro)O@AS,`?cJcC?%J,~>
JcD2=qZ-Tpr;cltr;b[Ro)O@AS,`?cJcC?%J,~>
JcD2=qZ-Tpr;cltr;b[Ro)O@AS,`?cJcC?%J,~>
JcD):rW)osrW)osrW)!YoDjIBOoP7XJcCK)J,~>
JcD):rW)osrW)osrW)!YoDjIBOoP7XJcCK)J,~>
JcD):rW)osrW)osrW)!YoDjIBOoP7XJcCK)J,~>
JcD):rW)osrW)osrW)!YoDjIBOoP7XJcCK)J,~>
JcD):rW)osrW)osrW)!YoDjIBOoP7XJcCK)J,~>
JcD):rW)osrW)osrW)!YoDjIBOoP7XJcCK)J,~>
JcD):rW)osrW)osrW)3_o`0RCL]@2NJcCT,J,~>
JcD):rW)osrW)osrW)3_o`0RCL]@2NJcCT,J,~>
JcD):rW)osrW)osrW)3_o`0RCL]@2NJcCT,J,~>
JcD):rW)osr;cisrW)HfoDjIBJcG]KqZ)3IN;nD~>
JcD):rW)osr;cisrW)HfoDjIBJcG]KqZ)3IN;nD~>
JcD):rW)osr;cisrW)HfoDjIBJcG]KqZ)3IN;nD~>
JcD):rW)osr;cisrW)HfoDjIBJcG]KqZ)3IN;nD~>
JcD):rW)osr;cisrW)HfoDjIBJcG]KqZ)3IN;nD~>
JcD):rW)osr;cisrW)HfoDjIBJcG]KqZ)3IN;nD~>
JcD):rW)iqq#L0ho)O@AJcGBBqZ)3IO8j_~>
JcD):rW)iqq#L0ho)O@AJcGBBqZ)3IO8j_~>
JcD):rW)iqq#L0ho)O@AJcGBBqZ)3IO8j_~>
JcD):rW)ZlrW)rto)O@AJcG$8quD<JOoKq~>
JcD):rW)ZlrW)rto)O@AJcG$8quD<JOoKq~>
JcD):rW)ZlrW)rto)O@AJcG$8quD<JOoKq~>
JcD):rW)osrW)osoDjIBJcF[.quD<JPlH7~>
JcD):rW)osrW)osoDjIBJcF[.quD<JPlH7~>
JcD):rW)osrW)osoDjIBJcF[.quD<JPlH7~>
JcD):rW)osrW)osoDjIBJcF[.quD<JPlH7~>
JcD):rW)osrW)osoDjIBJcF[.quD<JPlH7~>
JcD):rW)osrW)osoDjIBJcF[.quD<JPlH7~>
JcD):rW)osoDjIBJcF@%q>c*HR/_[~>
JcD):rW)osoDjIBJcF@%q>c*HR/_[~>
JcD):rW)osoDjIBJcF@%q>c*HR/_[~>
JcD):nGn.?JcF*sq>c*HS,\!~>
JcD):nGn.?JcF*sq>c*HS,\!~>
JcD):nGn.?JcF*sq>c*HS,\!~>
JcD):nGn.?JcF*sq>c*HS,\!~>
JcD):nGn.?JcF*sq>c*HS,\!~>
JcD):nGn.?JcF*sq>c*HS,\!~>
JcD>Ao)O@AJcEXfqZ)3IT)X<~>
JcD>Ao)O@AJcEXfqZ)3IT)X<~>
JcD>Ao)O@AJcEXfqZ)3IT)X<~>
JcDSHo)O@AJcE:\qZ)3IU&TW~>
JcDSHo)O@AJcE:\qZ)3IU&TW~>
JcDSHo)O@AJcE:\qZ)3IU&TW~>
JcDbMo`0RCJcDqRquD<JU]5i~>
JcDbMo`0RCJcDqRquD<JU]5i~>
JcDbMo`0RCJcDqRquD<JU]5i~>
JcDbMo`0RCJcDqRquD<JU]5i~>
JcDbMo`0RCJcDqRquD<JU]5i~>
JcDbMo`0RCJcDqRquD<JU]5i~>
JcE"To`0RCJcDSHq>c*HW;hA~>
JcE"To`0RCJcDSHq>c*HW;hA~>
JcE"To`0RCJcDSHq>c*HW;hA~>
JcE7[o)O@AJcD>Aq>c*HWrIS~>
JcE7[o)O@AJcD>Aq>c*HWrIS~>
JcE7[o)O@AJcD>Aq>c*HWrIS~>
JcELbo)O@AJcCo5quD<JXoEn~>
JcELbo)O@AJcCo5quD<JXoEn~>
JcELbo)O@AJcCo5quD<JXoEn~>
JcELbo)O@AJcCo5quD<JXoEn~>
JcELbo)O@AJcCo5quD<JXoEn~>
JcELbo)O@AJcCo5quD<JXoEn~>
JcEaio)O@AJcCT,qZ)3IYlB4~>
JcEaio)O@AJcCT,qZ)3IYlB4~>
JcEaio)O@AJcCT,qZ)3IYlB4~>
JcEsooDjIBJcC<$s8Vrrj8])YrVuTlJcFa0J,~>
JcEsooDjIBJcC<$s8Vrrj8])YrVuTlJcFa0J,~>
JcEsooDjIBJcC<$s8Vrrj8])YrVuTlJcFa0J,~>
JcEsooDjIBJcC<$s8Vrrj8])YrVuTlJcFa0J,~>
JcEsooDjIBJcC<$s8Vrrj8])YrVuTlJcFa0J,~>
JcEsooDjIBJcC<$s8Vrrj8])YrVuTlJcFa0J,~>
M?!PTqu?KmgAggGJcC<$JcGECquGs\qZ-?irW%NLir=N~>
M?!PTqu?KmgAggGJcC<$JcGECquGs\qZ-?irW%NLir=N~>
M?!PTqu?KmgAggGJcC<$JcGECquGs\qZ-?irW%NLir=N~>
MuW\TrVufrs8W#tirAWNJcC<$JcG*:q>fg\rW)]mrr@WMi;\<~>
MuW\TrVufrs8W#tirAWNJcC<$JcG*:q>fg\rW)]mrr@WMi;\<~>
MuW\TrVufrs8W#tirAWNJcC<$JcG*:q>fg\rW)]mrr@WMi;\<~>
M?!PTrVuisrVuisl2U>TJcC<$JcFg2q>fm^rW)]mrr@WMi;\<~>
M?!PTrVuisrVuisl2U>TJcC<$JcFg2q>fm^rW)]mrr@WMi;\<~>
M?!PTrVuisrVuisl2U>TJcC<$JcFg2q>fm^rW)]mrr@WMi;\<~>
M?!PTrVuisrVuisl2U>TJcC<$JcFg2q>fm^rW)]mrr@WMi;\<~>
M?!PTrVuisrVuisl2U>TJcC<$JcFg2q>fm^rW)]mrr@WMi;\<~>
M?!PTrVuisrVuisl2U>TJcC<$JcFg2q>fm^rW)]mrr@WMi;\<~>
M?!PTrVuisrVuisnGi([JcC<$JcFC&quH3crW)corW%NLhuA3~>
M?!PTrVuisrVuisnGi([JcC<$JcFC&quH3crW)corW%NLhuA3~>
M?!PTrVuisrVuisnGi([JcC<$JcFC&quH3crW)corW%NLhuA3~>
M?!PTqu?Kmp&FXaJcC<$JcF'rqZ-3erW)corW%NLhuA3~>
M?!PTqu?Kmp&FXaJcC<$JcF'rqZ-3erW)corW%NLhuA3~>
M?!PTqu?Kmp&FXaJcC<$JcF'rqZ-3erW)corW%NLhuA3~>
M?!PTqu?Kmp&FXaJcC<$JcF'rqZ-3erW)corW%NLhuA3~>
M?!PTqu?Kmp&FXaJcC<$JcF'rqZ-3erW)corW%NLhuA3~>
M?!PTqu?Kmp&FXaJcC<$JcF'rqZ-3erW)corW%NLhuA3~>
M?!PTrVufrs8W#trVuKiJcC<$JcE^hqZ-<hrW)fprW%NLhZ&*~>
M?!PTrVufrs8W#trVuKiJcC<$JcE^hqZ-<hrW)fprW%NLhZ&*~>
M?!PTrVufrs8W#trVuKiJcC<$JcE^hqZ-<hrW)fprW%NLhZ&*~>
M?!PTrVuisrVuHhJcC<$JcEC_q>g?krW)fprW%NLhZ&*~>
M?!PTrVuisrVuHhJcC<$JcEC_q>g?krW)fprW%NLhZ&*~>
M?!PTrVuisrVuHhJcC<$JcEC_q>g?krW)fprW%NLhZ&*~>
M?!PTrVuHhJcC<$JcE%Uq>gHnrW)iqrr@WMh#Dm~>
M?!PTrVuHhJcC<$JcE%Uq>gHnrW)iqrr@WMh#Dm~>
M?!PTrVuHhJcC<$JcE%Uq>gHnrW)iqrr@WMh#Dm~>
M?!PTrVuHhJcC<$JcE%Uq>gHnrW)iqrr@WMh#Dm~>
M?!PTrVuHhJcC<$JcE%Uq>gHnrW)iqrr@WMh#Dm~>
M?!PTrVuHhJcC<$JcE%Uq>gHnrW)iqrr@WMh#Dm~>
M?!&FJcC<$JcDbMquH`rrW)iqrr@WMh#Dm~>
M?!&FJcC<$JcDbMquH`rrW)iqrr@WMh#Dm~>
M?!&FJcC<$JcDbMquH`rrW)iqrr@WMh#Dm~>
NrSbPs8VoqJcC<$JcDVIquD<JdJn^~>
NrSbPs8VoqJcC<$JcDVIquD<JdJn^~>
NrSbPs8VoqJcC<$JcDVIquD<JdJn^~>
NrSbPs8VoqJcC<$JcDVIquD<JdJn^~>
NrSbPs8VoqJcC<$JcDVIquD<JdJn^~>
NrSbPs8VoqJcC<$JcDVIquD<JdJn^~>
Q2gLWJcC<$JcCu7qZ)3IeGk%~>
Q2gLWJcC<$JcCu7qZ)3IeGk%~>
Q2gLWJcC<$JcCu7qZ)3IeGk%~>
SH&0\JcC<$JcC]/qZ)3IfDg@~>
SH&0\JcC<$JcC]/qZ)3IfDg@~>
SH&0\JcC<$JcC]/qZ)3IfDg@~>
U]9ocJcC<$JcC?%q>c*Hg])d~>
U]9ocJcC<$JcC?%q>c*Hg])d~>
U]9ocJcC<$JcC?%q>c*Hg])d~>
U]9ocJcC<$JcC?%q>c*Hg])d~>
U]9ocJcC<$JcC?%q>c*Hg])d~>
U]9ocJcC<$JcC?%q>c*Hg])d~>
WrMYjJcC<$JcC<$q#C0jJcFU,J,~>
WrMYjJcC<$JcC<$q#C0jJcFU,J,~>
WrMYjJcC<$JcC<$q#C0jJcFU,J,~>
YlF=qJcC<$JcC<$mJm(aJcF[.J,~>
YlF=qJcC<$JcC<$mJm(aJcF[.J,~>
YlF=qJcC<$JcC<$mJm(aJcF[.J,~>
[f?"#JcC<$JcC<$j8]#WJcFd1J,~>
[f?"#JcC<$JcC<$j8]#WJcFd1J,~>
[f?"#JcC<$JcC<$j8]#WJcFd1J,~>
[f?"#JcC<$JcC<$j8]#WJcFd1J,~>
[f?"#JcC<$JcC<$j8]#WJcFd1J,~>
[f?"#JcC<$JcC<$j8]#WJcFd1J,~>
^&R^)JcC<$JcC<$g].-NJcFm4J,~>
^&R^)JcC<$JcC<$g].-NJcFm4J,~>
^&R^)JcC<$JcC<$g].-NJcFm4J,~>
qu?Wqqu?KmgAgaEJcC<$JcC<$df9.DJcG$8J,~>
qu?Wqqu?KmgAgaEJcC<$JcC<$df9.DJcG$8J,~>
qu?Wqqu?KmgAgaEJcC<$JcC<$df9.DJcG$8J,~>
qu?Wqqu?KmgAgaEJcC<$JcC<$df9.DJcG$8J,~>
qu?Wqqu?KmgAgaEJcC<$JcC<$df9.DJcG$8J,~>
qu?Wqqu?KmgAgaEJcC<$JcC<$df9.DJcG$8J,~>
rVucqrVuisrr;osirATMJcC<$JcC<$aT)):JcG-;J,~>
rVucqrVuisrr;osirATMJcC<$JcC<$aT)):JcG-;J,~>
rVucqrVuisrr;osirATMJcC<$JcC<$aT)):JcG-;J,~>
qu?WqrVuisrVuiskl:8TJcC<$JcC<$^&Rs0JcG6>J,~>
qu?WqrVuisrVuiskl:8TJcC<$JcC<$^&Rs0JcG6>J,~>
qu?WqrVuisrVuiskl:8TJcC<$JcC<$^&Rs0JcG6>J,~>
qu?WqpAb*ln,N"[JcC<$JcC<$ZiBn&JcG?AJ,~>
qu?WqpAb*ln,N"[JcC<$JcC<$ZiBn&JcG?AJ,~>
qu?WqpAb*ln,N"[JcC<$JcC<$ZiBn&JcG?AJ,~>
qu?WqpAb*ln,N"[JcC<$JcC<$ZiBn&JcG?AJ,~>
qu?WqpAb*ln,N"[JcC<$JcC<$ZiBn&JcG?AJ,~>
qu?WqpAb*ln,N"[JcC<$JcC<$ZiBn&JcG?AJ,~>
qu?WqqZ$Emp&FU`JcC<$JcC<$WrMtsJcGECJ,~>
qu?WqqZ$Emp&FU`JcC<$JcC<$WrMtsJcGECJ,~>
qu?WqqZ$Emp&FU`JcC<$JcC<$WrMtsJcGECJ,~>
qu?WqpAb*lrVuHhJcC<$JcC<$T`=oiJcGNFJ,~>
qu?WqpAb*lrVuHhJcC<$JcC<$T`=oiJcGNFJ,~>
qu?WqpAb*lrVuHhJcC<$JcC<$T`=oiJcGNFJ,~>
qu?WqpAb*lrVuHhJcC<$JcC<$T`=oiJcGNFJ,~>
qu?WqpAb*lrVuHhJcC<$JcC<$T`=oiJcGNFJ,~>
qu?WqpAb*lrVuHhJcC<$JcC<$T`=oiJcGNFJ,~>
qu?WqpAa^aJcC<$JcC<$QiHm^JcGZJJ,~>
qu?WqpAa^aJcC<$JcC<$QiHm^JcGZJJ,~>
qu?WqpAa^aJcC<$JcC<$QiHm^JcGZJJ,~>
qu?WqrVuHhJcC<$JcC<$NW8hTJcGcMJ,~>
qu?WqrVuHhJcC<$JcC<$NW8hTJcGcMJ,~>
qu?WqrVuHhJcC<$JcC<$NW8hTJcGcMJ,~>
qu?-cJcC<$JcC<$L&_#MK)^?~>
qu?-cJcC<$JcC<$L&_#MK)^?~>
qu?-cJcC<$JcC<$L&_#MK)^?~>
qu?-cJcC<$JcC<$L&_#MK)^?~>
qu?-cJcC<$JcC<$L&_#MK)^?~>
qu?-cJcC<$JcC<$L&_#MK)^?~>
s8VHdJcC<$JcC<$JcGTIL&ZZ~>
s8VHdJcC<$JcC<$JcGTIL&ZZ~>
s8VHdJcC<$JcC<$JcGTIL&ZZ~>
s8VrrJcC<$JcC<$JcG6>quDNPJ,~>
s8VrrJcC<$JcC<$JcG6>quDNPJ,~>
s8VrrJcC<$JcC<$JcG6>quDNPJ,~>
s8VrrJcC<$JcC<$JcG6>quDNPJ,~>
s8VrrJcC<$JcC<$JcG6>quDNPJ,~>
s8VrrJcC<$JcC<$JcG6>quDNPJ,~>
rVucqJcC<$JcC<$JcG0<q>cKSJ,~>
rVucqJcC<$JcC<$JcG0<q>cKSJ,~>
rVucqJcC<$JcC<$JcG0<q>cKSJ,~>
qu?NnJcC<$JcC<$JcG3=q>cQUJ,~>
qu?NnJcC<$JcC<$JcG3=q>cQUJ,~>
qu?NnJcC<$JcC<$JcG3=q>cQUJ,~>
q#C0jJcC<$JcC<$JcG0<quDlZJ,~>
q#C0jJcC<$JcC<$JcG0<quDlZJ,~>
q#C0jJcC<$JcC<$JcG0<quDlZJ,~>
q#C0jJcC<$JcC<$JcG0<quDlZJ,~>
q#C0jJcC<$JcC<$JcG0<quDlZJ,~>
q#C0jJcC<$JcC<$JcG0<quDlZJ,~>
p&FjgJcC<$JcC<$JcG3=qZ)l\J,~>
p&FjgJcC<$JcC<$JcG3=qZ)l\J,~>
p&FjgJcC<$JcC<$JcG3=qZ)l\J,~>
nc/IdJcC<$JcC<$JcG3=qZ)u_J,~>
nc/IdJcC<$JcC<$JcG3=qZ)u_J,~>
nc/IdJcC<$JcC<$JcG3=qZ)u_J,~>
mf3.aJcC<$JcC<$JcG3=quE/bJ,~>
mf3.aJcC<$JcC<$JcG3=quE/bJ,~>
mf3.aJcC<$JcC<$JcG3=quE/bJ,~>
mf3.aJcC<$JcC<$JcG3=quE/bJ,~>
mf3.aJcC<$JcC<$JcG3=quE/bJ,~>
mf3.aJcC<$JcC<$JcG3=quE/bJ,~>
li6k_JcC<$JcC<$JcG0<q>d,eJ,~>
li6k_JcC<$JcC<$JcG0<q>d,eJ,~>
li6k_JcC<$JcC<$JcG0<q>d,eJ,~>
kl:P\JcC<$JcC<$JcG3=q>d2gJ,~>
kl:P\JcC<$JcC<$JcG3=q>d2gJ,~>
kl:P\JcC<$JcC<$JcG3=q>d2gJ,~>
kl:P\JcC<$JcC<$JcG3=q>d2gJ,~>
kl:P\JcC<$JcC<$JcG3=q>d2gJ,~>
kl:P\JcC<$JcC<$JcG3=q>d2gJ,~>
k5Y8XJcC<$JcC<$JcG0<quEMlJ,~>
k5Y8XJcC<$JcC<$JcG0<quEMlJ,~>
k5Y8XJcC<$JcC<$JcG0<quEMlJ,~>
j8\rUJcC<$JcC<$JcG3=qZ*MnJ,~>
j8\rUJcC<$JcC<$JcG3=qZ*MnJ,~>
j8\rUJcC<$JcC<$JcG3=qZ*MnJ,~>
huEQRJcC<$JcC<$JcG3=qZ*VqJ,~>
huEQRJcC<$JcC<$JcG3=qZ*VqJ,~>
huEQRJcC<$JcC<$JcG3=qZ*VqJ,~>
huEQRJcC<$JcC<$JcG3=qZ*VqJ,~>
huEQRJcC<$JcC<$JcG3=qZ*VqJ,~>
huEQRJcC<$JcC<$JcG3=qZ*VqJ,~>
h#I6OJcC<$JcC<$JcG3=q>dYtJ,~>
h#I6OJcC<$JcC<$JcG3=q>dYtJ,~>
h#I6OJcC<$JcC<$JcG3=q>dYtJ,~>
g&LsMJcC<$JcC<$JcG0<q>dc"J,~>
g&LsMJcC<$JcC<$JcG0<q>dc"J,~>
g&LsMJcC<$JcC<$JcG0<q>dc"J,~>
g&LsMJcC<$JcC<$JcG0<q>dc"J,~>
g&LsMJcC<$JcC<$JcG0<q>dc"J,~>
g&LsMJcC<$JcC<$JcG0<q>dc"J,~>
f)PXJJcC<$JcC<$JcG-;quF&&J,~>
f)PXJJcC<$JcC<$JcG-;quF&&J,~>
f)PXJJcC<$JcC<$JcG-;quF&&J,~>
eGo@FirAuXr;ZTnJcC<$JcC<$SH&Ke[Jta~>
eGo@FirAuXr;ZTnJcC<$JcC<$SH&Ke[Jta~>
eGo@FirAuXr;ZTnJcC<$JcC<$SH&Ke[Jta~>
dJs%Ckl:M[rVufrrr;rtJcC<$JcC<$SH&Hd\Gq'~>
dJs%Ckl:M[rVufrrr;rtJcC<$JcC<$SH&Hd\Gq'~>
dJs%Ckl:M[rVufrrr;rtJcC<$JcC<$SH&Hd\Gq'~>
dJs%Ckl:M[rVufrrr;rtJcC<$JcC<$SH&Hd\Gq'~>
dJs%Ckl:M[rVufrrr;rtJcC<$JcC<$SH&Hd\Gq'~>
dJs%Ckl:M[rVufrrr;rtJcC<$JcC<$SH&Hd\Gq'~>
c2[Y@kl:V^rVuisrVuisJcC<$JcC<$RK*-a]DmB~>
c2[Y@kl:V^rVuisrVuisJcC<$JcC<$RK*-a]DmB~>
c2[Y@kl:V^rVuisrVuisJcC<$JcC<$RK*-a]DmB~>
b5_>=li6qaq#C6lJcC<$JcC<$QN-d]^]/f~>
b5_>=li6qaq#C6lJcC<$JcC<$QN-d]^]/f~>
b5_>=li6qaq#C6lJcC<$JcC<$QN-d]^]/f~>
b5_>=li6qaq#C6lJcC<$JcC<$QN-d]^]/f~>
b5_>=li6qaq#C6lJcC<$JcC<$QN-d]^]/f~>
b5_>=li6qaq#C6lJcC<$JcC<$QN-d]^]/f~>
a8c&;mJm.cq#C<nJcC<$JcC<$OoP7X_Z,,~>
a8c&;mJm.cq#C<nJcC<$JcC<$OoP7X_Z,,~>
a8c&;mJm.cq#C<nJcC<$JcC<$OoP7X_Z,,~>
`;fZ6o)J[hqZ$KoJcC<$JcC<$N;reU`;b>~>
`;fZ6o)J[hqZ$KoJcC<$JcC<$N;reU`;b>~>
`;fZ6o)J[hqZ$KoJcC<$JcC<$N;reU`;b>~>
_Z0H4o`+mjr;Z]qJcC<$JcC<$L]@8Pa8^Y~>
_Z0H4o`+mjr;Z]qJcC<$JcC<$L]@8Pa8^Y~>
_Z0H4o`+mjr;Z]qJcC<$JcC<$L]@8Pa8^Y~>
_Z0H4o`+mjr;Z]qJcC<$JcC<$L]@8Pa8^Y~>
_Z0H4o`+mjr;Z]qJcC<$JcC<$L]@8Pa8^Y~>
_Z0H4o`+mjr;Z]qJcC<$JcC<$L]@8Pa8^Y~>
^&S!1p](3mrVufrJcC<$JcC<$K`CoLb5Zt~>
^&S!1p](3mrVufrJcC<$JcC<$K`CoLb5Zt~>
^&S!1p](3mrVufrJcC<$JcC<$K`CoLb5Zt~>
]Dqa.qZ$NprVuisJcC<$JcC<$Jc>`Mq>fUVrW)]mr;ccqJ,~>
]Dqa.qZ$NprVuisJcC<$JcC<$Jc>`Mq>fUVrW)]mr;ccqJ,~>
]Dqa.qZ$NprVuisJcC<$JcC<$Jc>`Mq>fUVrW)]mr;ccqJ,~>
\GuF+rVuisrVuTlJcC<$JcC<$K`ClKl2UY]q>^<lr;V9~>
\GuF+rVuisrVuTlJcC<$JcC<$K`ClKl2UY]q>^<lr;V9~>
\GuF+rVuisrVuTlJcC<$JcC<$K`ClKl2UY]q>^<lr;V9~>
\GuF+rVuisrVuTlJcC<$JcC<$K`ClKl2UY]q>^<lr;V9~>
\GuF+rVuisrVuTlJcC<$JcC<$K`ClKl2UY]q>^<lr;V9~>
\GuF+rVuisrVuTlJcC<$JcC<$K`ClKl2UY]q>^<lr;V9~>
[K$.)JcC<$JcC<$JcG-;qZ,p]rW)fprVururW)lrJ,~>
[K$.)JcC<$JcC<$JcG-;qZ,p]rW)fprVururW)lrJ,~>
[K$.)JcC<$JcC<$JcG-;qZ,p]rW)fprVururW)lrJ,~>
ZN'b$JcC<$JcC<$JcG3=qZ-$`rW)iqrrE&urW)lrJ,~>
ZN'b$JcC<$JcC<$JcG3=qZ-$`rW)iqrrE&urW)lrJ,~>
ZN'b$JcC<$JcC<$JcG3=qZ-$`rW)iqrrE&urW)lrJ,~>
ZN'b$JcC<$JcC<$JcG3=qZ-$`rW)iqrrE&urW)lrJ,~>
ZN'b$JcC<$JcC<$JcG3=qZ-$`rW)iqrrE&urW)lrJ,~>
ZN'b$JcC<$JcC<$JcG3=qZ-$`rW)iqrrE&urW)lrJ,~>
YlFP"JcC<$JcC<$JcG0<quH3crW)osrW)osrW)lrJ,~>
YlFP"JcC<$JcC<$JcG0<quH3crW)osrW)osrW)lrJ,~>
YlFP"JcC<$JcC<$JcG0<quH3crW)osrW)osrW)lrJ,~>
X8i(tJcC<$JcC<$JcG0<quH<frW)osrW)osrW)lrJ,~>
X8i(tJcC<$JcC<$JcG0<quH<frW)osrW)osrW)lrJ,~>
X8i(tJcC<$JcC<$JcG0<quH<frW)osrW)osrW)lrJ,~>
WW2hqJcC<$JcC<$JcG3=q>g6hrW)osp&P'kJ,~>
WW2hqJcC<$JcC<$JcG3=q>g6hrW)osp&P'kJ,~>
WW2hqJcC<$JcC<$JcG3=q>g6hrW)osp&P'kJ,~>
WW2hqJcC<$JcC<$JcG3=q>g6hrW)osp&P'kJ,~>
WW2hqJcC<$JcC<$JcG3=q>g6hrW)osp&P'kJ,~>
WW2hqJcC<$JcC<$JcG3=q>g6hrW)osp&P'kJ,~>
VZ6MnJcC<$JcC<$JcG3=q>g?krW)ZlrW)lrJ,~>
VZ6MnJcC<$JcC<$JcG3=q>g?krW)ZlrW)lrJ,~>
VZ6MnJcC<$JcC<$JcG3=q>g?krW)ZlrW)lrJ,~>
U]:/jJcC<$JcC<$JcG3=qZ-QorW)ZlrW)lrJ,~>
U]:/jJcC<$JcC<$JcG3=qZ-QorW)ZlrW)lrJ,~>
U]:/jJcC<$JcC<$JcG3=qZ-QorW)ZlrW)lrJ,~>
U]:/jJcC<$JcC<$JcG3=qZ-QorW)ZlrW)lrJ,~>
U]:/jJcC<$JcC<$JcG3=qZ-QorW)ZlrW)lrJ,~>
U]:/jJcC<$JcC<$JcG3=qZ-QorW)ZlrW)lrJ,~>
T`=igJcC<$JcC<$JcG3=qZ-ZrrW)ZlrW)lrJ,~>
T`=igJcC<$JcC<$JcG3=qZ-ZrrW)ZlrW)lrJ,~>
T`=igJcC<$JcC<$JcG3=qZ-ZrrW)ZlrW)lrJ,~>
SH&KeJcC<$JcC<$JcG0<r;c-_J,~>
SH&KeJcC<$JcC<$JcG0<r;c-_J,~>
SH&KeJcC<$JcC<$JcG0<r;c-_J,~>
RK*0bJcC<$JcC<$JcG6>rW)6`J,~>
RK*0bJcC<$JcC<$JcG6>rW)6`J,~>
RK*0bJcC<$JcC<$JcG6>rW)6`J,~>
RK*0bJcC<$JcC<$JcG6>rW)6`J,~>
RK*0bJcC<$JcC<$JcG6>rW)6`J,~>
RK*0bJcC<$JcC<$JcG6>rW)6`J,~>
QiHp_JcC<$JcC<$JcG?ArW)6`J,~>
QiHp_JcC<$JcC<$JcG?ArW)6`J,~>
QiHp_JcC<$JcC<$JcG?ArW)6`J,~>
PlLU\JcC<$JcC<$JcGHDrW)6`J,~>
PlLU\JcC<$JcC<$JcGHDrW)6`J,~>
PlLU\JcC<$JcC<$JcGHDrW)6`J,~>
PlLU\JcC<$JcC<$JcGHDrW)6`J,~>
PlLU\JcC<$JcC<$JcGHDrW)6`J,~>
PlLU\JcC<$JcC<$JcGHDrW)6`J,~>
OoP7XJcC<$JcC<$JcGTHrW)6`J,~>
OoP7XJcC<$JcC<$JcGTHrW)6`J,~>
OoP7XJcC<$JcC<$JcGTHrW)6`J,~>
NrSqUJcC<$JcC<$JcG]KrW)6`J,~>
NrSqUJcC<$JcC<$JcG]KrW)6`J,~>
NrSqUJcC<$JcC<$JcG]KrW)6`J,~>
MZ<PRJcC<$JcC<$Jc>`MrW)6`J,~>
MZ<PRJcC<$JcC<$Jc>`MrW)6`J,~>
MZ<PRJcC<$JcC<$Jc>`MrW)6`J,~>
MZ<PRJcC<$JcC<$Jc>`MrW)6`J,~>
MZ<PRJcC<$JcC<$Jc>`MrW)6`J,~>
MZ<PRJcC<$JcC<$Jc>`MrW)6`J,~>
L]@8PJcC<$JcC<$K)bfMlMlA~>
L]@8PJcC<$JcC<$K)bfMlMlA~>
L]@8PJcC<$JcC<$K)bfMlMlA~>
K`CrMirB#Yq#C<nJcC<$JcC<$ZN'n(lMlA~>
K`CrMirB#Yq#C<nJcC<$JcC<$ZN'n(lMlA~>
K`CrMirB#Yq#C<nJcC<$JcC<$ZN'n(lMlA~>
K)bZIl2UY]qu?NnJcC<$JcC<$ZN'n(lMlA~>
K)bZIl2UY]qu?NnJcC<$JcC<$ZN'n(lMlA~>
K)bZIl2UY]qu?NnJcC<$JcC<$ZN'n(lMlA~>
K)bZIl2UY]qu?NnJcC<$JcC<$ZN'n(lMlA~>
K)bZIl2UY]qu?NnJcC<$JcC<$ZN'n(lMlA~>
K)bZIl2UY]qu?NnJcC<$JcC<$ZN'n(lMlA~>
JcGcMq>fd[rrDiorW%NLJcC<$JcE%UrW)6`J,~>
JcGcMq>fd[rrDiorW%NLJcC<$JcE%UrW)6`J,~>
JcGcMq>fd[rrDiorW%NLJcC<$JcE%UrW)6`J,~>
JcGWIqZ-!_rrDiorW%NLJcC<$JcE%UrW)6`J,~>
JcGWIqZ-!_rrDiorW%NLJcC<$JcE%UrW)6`J,~>
JcGWIqZ-!_rrDiorW%NLJcC<$JcE%UrW)6`J,~>
JcGWIqZ-!_rrDiorW%NLJcC<$JcE%UrW)6`J,~>
JcGWIqZ-!_rrDiorW%NLJcC<$JcE%UrW)6`J,~>
JcGWIqZ-!_rrDiorW%NLJcC<$JcE%UrW)6`J,~>
JcGNFqZ-*brrDiorW%NLJcC<$JcE%UrW)6`J,~>
JcGNFqZ-*brrDiorW%NLJcC<$JcE%UrW)6`J,~>
JcGNFqZ-*brrDiorW%NLJcC<$JcE%UrW)6`J,~>
JcGECquH9errDiorW%NLJcC<$JcE%UrW)6`J,~>
JcGECquH9errDiorW%NLJcC<$JcE%UrW)6`J,~>
JcGECquH9errDiorW%NLJcC<$JcE%UrW)6`J,~>
JcG<@quHBhrrDiorW%NLJcC<$JcE%UrW)6`J,~>
JcG<@quHBhrrDiorW%NLJcC<$JcE%UrW)6`J,~>
JcG<@quHBhrrDiorW%NLJcC<$JcE%UrW)6`J,~>
JcG<@quHBhrrDiorW%NLJcC<$JcE%UrW)6`J,~>
JcG<@quHBhrrDiorW%NLJcC<$JcE%UrW)6`J,~>
JcG<@quHBhrrDiorW%NLJcC<$JcE%UrW)6`J,~>
JcG6>q>g<jrrDiorW%NLJcC<$JcE%UrW)6`J,~>
JcG6>q>g<jrrDiorW%NLJcC<$JcE%UrW)6`J,~>
JcG6>q>g<jrrDiorW%NLJcC<$JcE%UrW)6`J,~>
JcG-;q>gEmrrDiorW%NLJcC<$JcE%UrW)6`J,~>
JcG-;q>gEmrrDiorW%NLJcC<$JcE%UrW)6`J,~>
JcG-;q>gEmrrDiorW%NLJcC<$JcE%UrW)6`J,~>
JcG-;q>gEmrrDiorW%NLJcC<$JcE%UrW)6`J,~>
JcG-;q>gEmrrDiorW%NLJcC<$JcE%UrW)6`J,~>
JcG-;q>gEmrrDiorW%NLJcC<$JcE%UrW)6`J,~>
JcG!7qZ-WqrrDiorW%NLJcC<$JcE%UrW)6`J,~>
JcG!7qZ-WqrrDiorW%NLJcC<$JcE%UrW)6`J,~>
JcG!7qZ-WqrrDiorW%NLJcC<$JcE%UrW)6`J,~>
JcFm4qZ)3IJcC<$JcDPGrW)6`J,~>
JcFm4qZ)3IJcC<$JcDPGrW)6`J,~>
JcFm4qZ)3IJcC<$JcDPGrW)6`J,~>
JcFd1quD<JJcC<$JcDVIrW)6`J,~>
JcFd1quD<JJcC<$JcDVIrW)6`J,~>
JcFd1quD<JJcC<$JcDVIrW)6`J,~>
JcFd1quD<JJcC<$JcDVIrW)6`J,~>
JcFd1quD<JJcC<$JcDVIrW)6`J,~>
JcFd1quD<JJcC<$JcDVIrW)6`J,~>
JcF[.quD<JJcC<$JcD_LrW)6`J,~>
JcF[.quD<JJcC<$JcD_LrW)6`J,~>
JcF[.quD<JJcC<$JcD_LrW)6`J,~>
JcFU,q>c*HJcC<$JcDkPrW)6`J,~>
JcFU,q>c*HJcC<$JcDkPrW)6`J,~>
JcFU,q>c*HJcC<$JcDkPrW)6`J,~>
JcFU,q>c*HJcC<$JcDkPrW)6`J,~>
JcFU,q>c*HJcC<$JcDkPrW)6`J,~>
JcFU,q>c*HJcC<$JcDkPrW)6`J,~>
JcFL)q>c*HJcC<$JcDtSrW)6`J,~>
JcFL)q>c*HJcC<$JcDtSrW)6`J,~>
JcFL)q>c*HJcC<$JcDtSrW)6`J,~>
JcF@%qZ)3IJcC<$JcE(VrW)6`J,~>
JcF@%qZ)3IJcC<$JcE(VrW)6`J,~>
JcF@%qZ)3IJcC<$JcE(VrW)6`J,~>
JcF7"qZ)3IJcC<$JcE1YrW)6`J,~>
JcF7"qZ)3IJcC<$JcE1YrW)6`J,~>
JcF7"qZ)3IJcC<$JcE1YrW)6`J,~>
JcF7"qZ)3IJcC<$JcE1YrW)6`J,~>
JcF7"qZ)3IJcC<$JcE1YrW)6`J,~>
JcF7"qZ)3IJcC<$JcE1YrW)6`J,~>
JcF-tquD<JJcC<$JcE7[rW)6`J,~>
JcF-tquD<JJcC<$JcE7[rW)6`J,~>
JcF-tquD<JJcC<$JcE7[rW)6`J,~>
JcF$qq>c*HJcC<$JcEF`rW)6`J,~>
JcF$qq>c*HJcC<$JcEF`rW)6`J,~>
JcF$qq>c*HJcC<$JcEF`rW)6`J,~>
JcEsoq>c*HJcC<$JcELbrW)6`J,~>
JcEsoq>c*HJcC<$JcELbrW)6`J,~>
JcEsoq>c*HJcC<$JcELbrW)6`J,~>
JcEsoq>c*HJcC<$JcELbrW)6`J,~>
JcEsoq>c*HJcC<$JcELbrW)6`J,~>
JcEsoq>c*HJcC<$JcELbrW)6`J,~>
JcEdjquD<JJcC<$JcEUerW)6`J,~>
JcEdjquD<JJcC<$JcEUerW)6`J,~>
JcEdjquD<JJcC<$JcEUerW)6`J,~>
JcE^hqZ)3IJcC<$JcE^hrW)6`J,~>
JcE^hqZ)3IJcC<$JcE^hrW)6`J,~>
JcE^hqZ)3IJcC<$JcE^hrW)6`J,~>
JcE^hqZ)3IJcC<$JcE^hrW)6`J,~>
JcE^hqZ)3IJcC<$JcE^hrW)6`J,~>
JcE^hqZ)3IJcC<$JcE^hrW)6`J,~>
JcEUeqZ)3IJcC<$JcEgkrW)6`J,~>
JcEUeqZ)3IJcC<$JcEgkrW)6`J,~>
JcEUeqZ)3IJcC<$JcEgkrW)6`J,~>
JcELbq>c*HJcC<$JcEsorW)6`J,~>
JcELbq>c*HJcC<$JcEsorW)6`J,~>
JcELbq>c*HJcC<$JcEsorW)6`J,~>
JcEC_q>c*HJcC<$JcF'rrW)6`J,~>
JcEC_q>c*HJcC<$JcF'rrW)6`J,~>
JcEC_q>c*HJcC<$JcF'rrW)6`J,~>
JcEC_q>c*HJcC<$JcF'rrW)6`J,~>
JcEC_q>c*HJcC<$JcF'rrW)6`J,~>
JcEC_q>c*HJcC<$JcF'rrW)6`J,~>
JcE7[quGaVrW)fpr;_EKJcC<$JcG`LrW)6`J,~>
JcE7[quGaVrW)fpr;_EKJcC<$JcG`LrW)6`J,~>
JcE7[quGaVrW)fpr;_EKJcC<$JcG`LrW)6`J,~>
JcE.XquGs\qZ-QorW)uurr@WMJcC<$JcGcMrW)6`J,~>
JcE.XquGs\qZ-QorW)uurr@WMJcC<$JcGcMrW)6`J,~>
JcE.XquGs\qZ-QorW)uurr@WMJcC<$JcGcMrW)6`J,~>
JcE.XquGs\qZ-QorW)uurr@WMJcC<$JcGcMrW)6`J,~>
JcE.XquGs\qZ-QorW)uurr@WMJcC<$JcGcMrW)6`J,~>
JcE.XquGs\qZ-QorW)uurr@WMJcC<$JcGcMrW)6`J,~>
JcE(VqZ,j[rW)osrW)osrW%NLJcC<$JcG]LlMlA~>
JcE(VqZ,j[rW)osrW)osrW%NLJcC<$JcG]LlMlA~>
JcE(VqZ,j[rW)osrW)osrW%NLJcC<$JcG]LlMlA~>
JcDtSqZ,s^rW)osrW)osrW%NLJcC<$JcG]LlMlA~>
JcDtSqZ,s^rW)osrW)osrW%NLJcC<$JcG]LlMlA~>
JcDtSqZ,s^rW)osrW)osrW%NLJcC<$JcG]LlMlA~>
JcDkPq>g!arW)osrW)osrW%NLJcC<$JcG]LlMlA~>
JcDkPq>g!arW)osrW)osrW%NLJcC<$JcG]LlMlA~>
JcDkPq>g!arW)osrW)osrW%NLJcC<$JcG]LlMlA~>
JcDkPq>g!arW)osrW)osrW%NLJcC<$JcG]LlMlA~>
JcDkPq>g!arW)osrW)osrW%NLJcC<$JcG]LlMlA~>
JcDkPq>g!arW)osrW)osrW%NLJcC<$JcG]LlMlA~>
JcDbMq>g*drW)osrW)osrW%NLJcC<$JcG]LlMlA~>
JcDbMq>g*drW)osrW)osrW%NLJcC<$JcG]LlMlA~>
JcDbMq>g*drW)osrW)osrW%NLJcC<$JcG]LlMlA~>
JcDVIqZ-<hrW)osrW)osrW%NLJcC<$JcG]LlMlA~>
JcDVIqZ-<hrW)osrW)osrW%NLJcC<$JcG]LlMlA~>
JcDVIqZ-<hrW)osrW)osrW%NLJcC<$JcG]LlMlA~>
JcDVIqZ-<hrW)osrW)osrW%NLJcC<$JcG]LlMlA~>
JcDVIqZ-<hrW)osrW)osrW%NLJcC<$JcG]LlMlA~>
JcDVIqZ-<hrW)osrW)osrW%NLJcC<$JcG]LlMlA~>
JcDMFquHKkrW)osrW)osrW%NLJcC<$JcG]LlMlA~>
JcDMFquHKkrW)osrW)osrW%NLJcC<$JcG]LlMlA~>
JcDMFquHKkrW)osrW)osrW%NLJcC<$JcG]LlMlA~>
JcDDCquHTnrW)lrrW)uurr@WMJcC<$JcGcMrW)6`J,~>
JcDDCquHTnrW)lrrW)uurr@WMJcC<$JcGcMrW)6`J,~>
JcDDCquHTnrW)lrrW)uurr@WMJcC<$JcGcMrW)6`J,~>
JcD>Aq>gNprW)fpr;_EKJcC<$JcG`LrW)6`J,~>
JcD>Aq>gNprW)fpr;_EKJcC<$JcG`LrW)6`J,~>
JcD>Aq>gNprW)fpr;_EKJcC<$JcG`LrW)6`J,~>
JcD>Aq>gNprW)fpr;_EKJcC<$JcG`LrW)6`J,~>
JcD>Aq>gNprW)fpr;_EKJcC<$JcG`LrW)6`J,~>
JcD>Aq>gNprW)fpr;_EKJcC<$JcG`LrW)6`J,~>
JcD5>q>c*HJcC<$JcG6>rW)6`J,~>
JcD5>q>c*HJcC<$JcG6>rW)6`J,~>
JcD5>q>c*HJcC<$JcG6>rW)6`J,~>
JcD):qZ)3IJcC<$JcG?ArW)6`J,~>
JcD):qZ)3IJcC<$JcG?ArW)6`J,~>
JcD):qZ)3IJcC<$JcG?ArW)6`J,~>
JcCu7qZ)3IJcC<$JcGHDrW)6`J,~>
JcCu7qZ)3IJcC<$JcGHDrW)6`J,~>
JcCu7qZ)3IJcC<$JcGHDrW)6`J,~>
JcCu7qZ)3IJcC<$JcGHDrW)6`J,~>
JcCu7qZ)3IJcC<$JcGHDrW)6`J,~>
JcCu7qZ)3IJcC<$JcGHDrW)6`J,~>
JcCl4quD<JJcC<$JcGNFrW)6`J,~>
JcCl4quD<JJcC<$JcGNFrW)6`J,~>
JcCl4quD<JJcC<$JcGNFrW)6`J,~>
JcCc1quD<JJcC<$JcGWIrW)6`J,~>
JcCc1quD<JJcC<$JcGWIrW)6`J,~>
JcCc1quD<JJcC<$JcGWIrW)6`J,~>
JcCc1quD<JJcC<$JcGWIrW)6`J,~>
JcCc1quD<JJcC<$JcGWIrW)6`J,~>
JcCc1quD<JJcC<$JcGWIrW)6`J,~>
JcC]/q>c*HJcC<$JcGcMrW)6`J,~>
JcC]/q>c*HJcC<$JcGcMrW)6`J,~>
JcC]/q>c*HJcC<$JcGcMrW)6`J,~>
JcCT,q>c*HJcC<$K)bfMlMlA~>
JcCT,q>c*HJcC<$K)bfMlMlA~>
JcCT,q>c*HJcC<$K)bfMlMlA~>
JcCH(qZ)3IJcC<$L&_,PlMlA~>
JcCH(qZ)3IJcC<$L&_,PlMlA~>
JcCH(qZ)3IJcC<$L&_,PlMlA~>
JcCH(qZ)3IJcC<$L&_,PlMlA~>
JcCH(qZ)3IJcC<$L&_,PlMlA~>
JcCH(qZ)3IJcC<$L&_,PlMlA~>
JcC?%qZ)3IJcC<$M#[GSlMlA~>
JcC?%qZ)3IJcC<$M#[GSlMlA~>
JcC?%qZ)3IJcC<$M#[GSlMlA~>
JcC<$s8VusJcC<$JcCW-rW)6`J,~>
JcC<$s8VusJcC<$JcCW-rW)6`J,~>
JcC<$s8VusJcC<$JcCW-rW)6`J,~>
JcC<$s8VusJcC<$JcCW-rW)6`J,~>
JcC<$s8VusJcC<$JcCW-rW)6`J,~>
JcC<$s8VusJcC<$JcCW-rW)6`J,~>
JcC<$r;ZTnJcC<$JcCf2rW)6`J,~>
JcC<$r;ZTnJcC<$JcCf2rW)6`J,~>
JcC<$r;ZTnJcC<$JcCf2rW)6`J,~>
JcC<$qZ$BlJcC<$JcCl4rW)6`J,~>
JcC<$qZ$BlJcC<$JcCl4rW)6`J,~>
JcC<$qZ$BlJcC<$JcCl4rW)6`J,~>
JcC<$p&FpiJcC<$JcCu7rW)6`J,~>
JcC<$p&FpiJcC<$JcCu7rW)6`J,~>
JcC<$p&FpiJcC<$JcCu7rW)6`J,~>
JcC<$p&FpiJcC<$JcCu7rW)6`J,~>
JcC<$p&FpiJcC<$JcCu7rW)6`J,~>
JcC<$p&FpiJcC<$JcCu7rW)6`J,~>
JcC<$oDe[fJcC<$JcD):rW)6`J,~>
JcC<$oDe[fJcC<$JcD):rW)6`J,~>
JcC<$oDe[fJcC<$JcD):rW)6`J,~>
JcC<$nGi@cJcC<$JcD2=rW)6`J,~>
JcC<$nGi@cJcC<$JcD2=rW)6`J,~>
JcC<$nGi@cJcC<$JcD2=rW)6`J,~>
JcC<$nGi@cJcC<$JcD2=rW)6`J,~>
JcC<$nGi@cJcC<$JcD2=rW)6`J,~>
JcC<$nGi@cJcC<$JcD2=rW)6`J,~>
JcC<$mJm(aj8\rUJcC<$JcERdrW)6`J,~>
JcC<$mJm(aj8\rUJcC<$JcERdrW)6`J,~>
JcC<$mJm(aj8\rUJcC<$JcERdrW)6`J,~>
JcC<$lMp\\lMpe_s8W#tJcC<$JcEUerW)6`J,~>
JcC<$lMp\\lMpe_s8W#tJcC<$JcEUerW)6`J,~>
JcC<$lMp\\lMpe_s8W#tJcC<$JcEUerW)6`J,~>
JcC<$kl:JZm/R%brVuisJcC<$JcEUerW)6`J,~>
JcC<$kl:JZm/R%brVuisJcC<$JcEUerW)6`J,~>
JcC<$kl:JZm/R%brVuisJcC<$JcEUerW)6`J,~>
JcC<$kl:JZm/R%brVuisJcC<$JcEUerW)6`J,~>
JcC<$kl:JZm/R%brVuisJcC<$JcEUerW)6`J,~>
JcC<$kl:JZm/R%brVuisJcC<$JcEUerW)6`J,~>
JcC<$j8]#Wn,N@erVuisJcC<$JcEUerW)6`J,~>
JcC<$j8]#Wn,N@erVuisJcC<$JcEUerW)6`J,~>
JcC<$j8]#Wn,N@erVuisJcC<$JcEUerW)6`J,~>
JcC<$iW&cTo)JXgrr;rtJcC<$JcEUerW)6`J,~>
JcC<$iW&cTo)JXgrr;rtJcC<$JcEUerW)6`J,~>
JcC<$iW&cTo)JXgrr;rtJcC<$JcEUerW)6`J,~>
JcC<$hZ*HQoDeUdJcC<$JcEUerW)6`J,~>
JcC<$hZ*HQoDeUdJcC<$JcEUerW)6`J,~>
JcC<$hZ*HQoDeUdJcC<$JcEUerW)6`J,~>
JcC<$hZ*HQoDeUdJcC<$JcEUerW)6`J,~>
JcC<$hZ*HQoDeUdJcC<$JcEUerW)6`J,~>
JcC<$hZ*HQoDeUdJcC<$JcEUerW)6`J,~>
JcC<$g].*Mo)J[hJcC<$JcEUerW)6`J,~>
JcC<$g].*Mo)J[hJcC<$JcEUerW)6`J,~>
JcC<$g].*Mo)J[hJcC<$JcEUerW)6`J,~>
JcC<$f`1dJr;Z`rrVuisJcC<$JcEUerW)6`J,~>
JcC<$f`1dJr;Z`rrVuisJcC<$JcEUerW)6`J,~>
JcC<$f`1dJr;Z`rrVuisJcC<$JcEUerW)6`J,~>
JcC<$f`1dJr;Z`rrVuisJcC<$JcEUerW)6`J,~>
JcC<$f`1dJr;Z`rrVuisJcC<$JcEUerW)6`J,~>
JcC<$f`1dJr;Z`rrVuisJcC<$JcEUerW)6`J,~>
JcC<$eGoFHrr;rtrr;osJcC<$JcEUerW)6`J,~>
JcC<$eGoFHrr;rtrr;osJcC<$JcEUerW)6`J,~>
JcC<$eGoFHrr;rtrr;osJcC<$JcEUerW)6`J,~>
JcC<$dJs+Es8VoqJcC<$JcERdrW)6`J,~>
JcC<$dJs+Es8VoqJcC<$JcERdrW)6`J,~>
JcC<$dJs+Es8VoqJcC<$JcERdrW)6`J,~>
JcC<$ci<kBJcC<$JcE@^rW)6`J,~>
JcC<$ci<kBJcC<$JcE@^rW)6`J,~>
JcC<$ci<kBJcC<$JcE@^rW)6`J,~>
JcC<$ci<kBJcC<$JcE@^rW)6`J,~>
JcC<$ci<kBJcC<$JcE@^rW)6`J,~>
JcC<$ci<kBJcC<$JcE@^rW)6`J,~>
JcC<$bl@YBJcC<$JcE@^rW)6`J,~>
JcC<$bl@YBJcC<$JcE@^rW)6`J,~>
JcC<$bl@YBJcC<$JcE@^rW)6`J,~>
JcC<$bl@YBJcC<$JcE@^rW)6`J,~>
JcC<$bl@YBJcC<$JcE@^rW)6`J,~>
JcC<$bl@YBJcC<$JcE@^rW)6`J,~>
JcC<$bl@YBJcC<$JcE@^rW)6`J,~>
JcC<$bl@YBJcC<$JcE@^rW)6`J,~>
JcC<$bl@YBJcC<$JcE@^rW)6`J,~>
JcC<$bl@YBJcC<$JcE@^rW)6`J,~>
JcC<$bl@YBJcC<$JcE@^rW)6`J,~>
JcC<$bl@YBJcC<$JcE@^rW)6`J,~>
JcC<$bl@YBJcC<$JcE@^rW)6`J,~>
JcC<$bl@YBJcC<$JcE@^rW)6`J,~>
JcC<$bl@YBJcC<$JcE@^rW)6`J,~>
JcC<$bl@YBJcC<$JcE@^rW)6`J,~>
JcC<$bl@YBJcC<$JcE@^rW)6`J,~>
JcC<$bl@YBJcC<$JcE@^rW)6`J,~>
JcC<$bl@YBJcC<$JcE@^rW)6`J,~>
JcC<$bl@YBJcC<$JcE@^rW)6`J,~>
JcC<$bl@YBJcC<$JcE@^rW)6`J,~>
JcC<$bl@YBJcC<$JcE@^rW)6`J,~>
JcC<$bl@YBJcC<$JcE@^rW)6`J,~>
JcC<$bl@YBJcC<$JcE@^rW)6`J,~>
JcC<$bl@YBJcC<$JcE@^rW)6`J,~>
JcC<$bl@YBJcC<$JcE@^rW)6`J,~>
JcC<$bl@YBJcC<$JcE@^rW)6`J,~>
JcC<$bl@YBJcC<$JcE@^rW)6`J,~>
JcC<$bl@YBJcC<$JcE@^rW)6`J,~>
JcC<$bl@YBJcC<$JcE@^rW)6`J,~>
JcC<$bl@YBJcC<$JcE@^rW)6`J,~>
JcC<$bl@YBJcC<$JcE@^rW)6`J,~>
JcC<$bl@YBJcC<$JcE@^rW)6`J,~>
JcC<$bl@YBJcC<$JcE@^rW)6`J,~>
JcC<$bl@YBJcC<$JcE@^rW)6`J,~>
JcC<$bl@YBJcC<$JcE@^rW)6`J,~>
JcC<$bl@YBJcC<$JcE@^rW)6`J,~>
JcC<$bl@YBJcC<$JcE@^rW)6`J,~>
JcC<$bl@YBJcC<$JcE@^rW)6`J,~>
JcC<$bl@YBJcC<$JcE@^rW)6`J,~>
JcC<$bl@YBJcC<$JcE@^rW)6`J,~>
JcC<$bl@YBJcC<$JcE@^rW)6`J,~>
JcC<$bl@YBJcC<$JcE@^rW)6`J,~>
JcC<$bl@YBJcC<$JcE@^rW)6`J,~>
JcC<$bl@YBJcC<$JcE@^rW)6`J,~>
JcC<$bl@YBJcC<$JcE@^rW)6`J,~>
JcC<$bl@YBJcC<$JcE@^rW)6`J,~>
JcC<$bl@YBJcC<$JcE@^rW)6`J,~>
JcC<$bl@YBJcC<$JcE@^rW)6`J,~>
JcC<$bl@YBJcC<$JcE@^rW)6`J,~>
JcC<$bl@YBJcC<$JcE@^rW)6`J,~>
JcC<$bl@YBJcC<$JcE@^rW)6`J,~>
JcC<$bl@YBJcC<$JcE@^rW)6`J,~>
JcC<$bl@YBJcC<$JcE@^rW)6`J,~>
JcC<$bl@YBJcC<$JcE@^rW)6`J,~>
JcC<$bl@YBJcC<$JcE@^rW)6`J,~>
JcC<$bl@YBJcC<$JcE@^rW)6`J,~>
JcC<$bl@YBJcC<$JcE@^rW)6`J,~>
JcC<$bl@YBJcC<$JcE@^rW)6`J,~>
JcC<$bl@YBJcC<$JcE@^rW)6`J,~>
JcC<$bl@YBJcC<$JcE@^rW)6`J,~>
JcC<$bl@YBJcC<$JcE@^rW)6`J,~>
JcC<$bl@YBJcC<$JcE@^rW)6`J,~>
JcC<$bl@YBJcC<$JcE@^rW)6`J,~>
JcC<$bl@YBJcC<$JcE@^rW)6`J,~>
JcC<$bl@YBJcC<$JcE@^rW)6`J,~>
JcC<$bl@YBJcC<$JcE@^rW)6`J,~>
JcC<$bl@YBJcC<$JcE@^rW)6`J,~>
JcC<$bl@YBJcC<$JcE@^rW)6`J,~>
JcC<$bl@YBJcC<$JcE@^rW)6`J,~>
JcC<$bl@YBJcC<$JcE@^rW)6`J,~>
JcC<$bl@YBJcC<$JcE@^rW)6`J,~>
JcC<$bl@YBJcC<$JcE@^rW)6`J,~>
JcC<$bl@YBJcC<$JcE@^rW)6`J,~>
JcC<$bl@YBJcC<$JcE@^rW)6`J,~>
JcC<$bl@YBJcC<$JcE@^rW)6`J,~>
JcC<$bl@YBJcC<$JcE@^rW)6`J,~>
JcC<$bl@YBJcC<$JcE@^rW)6`J,~>
JcC<$bl@YBJcC<$JcE@^rW)6`J,~>
JcC<$bl@YBJcC<$JcE@^rW)6`J,~>
JcC<$bl@YBJcC<$JcE@^rW)6`J,~>
JcC<$bl@YBJcC<$JcE@^rW)6`J,~>
JcC<$bl@YBJcC<$JcE@^rW)6`J,~>
JcC<$bl@YBJcC<$JcE@^rW)6`J,~>
JcC<$bl@YBJcC<$JcE@^rW)6`J,~>
JcC<$bl@YBJcC<$JcE@^rW)6`J,~>
JcC<$bl@YBJcC<$JcE@^rW)6`J,~>
JcC<$bl@YBJcC<$JcE@^rW)6`J,~>
JcC<$bl@YBJcC<$JcE@^rW)6`J,~>
JcC<$bl@YBJcC<$JcE@^rW)6`J,~>
JcC<$bl@YBJcC<$JcE@^rW)6`J,~>
JcC<$bl@YBJcC<$JcE@^rW)6`J,~>
JcC<$bl@YBJcC<$JcE@^rW)6`J,~>
JcC<$bl@YBJcC<$JcE@^rW)6`J,~>
JcC<$bl@YBJcC<$JcE@^rW)6`J,~>
JcC<$bl@YBJcC<$JcE@^rW)6`J,~>
JcC<$bl@YBJcC<$JcE@^rW)6`J,~>
JcC<$bl@YBJcC<$JcE@^rW)6`J,~>
JcC<$bl@YBJcC<$JcE@^rW)6`J,~>
JcC<$bl@YBJcC<$JcE@^rW)6`J,~>
JcC<$bl@YBJcC<$JcE@^rW)6`J,~>
JcC<$bl@YBJcC<$JcE@^rW)6`J,~>
JcC<$bl@YBJcC<$JcE@^rW)6`J,~>
JcC<$bl@YBJcC<$JcE@^rW)6`J,~>
JcC<$bl@YBJcC<$JcE@^rW)6`J,~>
JcC<$bl@YBJcC<$JcE@^rW)6`J,~>
JcC<$bl@YBJcC<$JcE@^rW)6`J,~>
JcC<$bl@YBJcC<$JcE@^rW)6`J,~>
JcC<$bl@YBJcC<$JcE@^rW)6`J,~>
JcC<$bl@YBJcC<$JcE@^rW)6`J,~>
JcC<$bl@YBJcC<$JcE@^rW)6`J,~>
JcC<$bl@YBJcC<$JcE@^rW)6`J,~>
JcC<$bl@YBJcC<$JcE@^rW)6`J,~>
JcC<$bl@YBJcC<$JcE@^rW)6`J,~>
JcC<$bl@YBJcC<$JcE@^rW)6`J,~>
JcC<$bl@YBJcC<$JcE@^rW)6`J,~>
JcC<$bl@YBJcC<$JcE@^rW)6`J,~>
JcC<$bl@YBJcC<$JcE@^rW)6`J,~>
JcC<$bl@YBJcC<$JcE@^rW)6`J,~>
JcC<$bl@YBJcC<$JcE@^rW)6`J,~>
JcC<$bl@YBJcC<$JcE@^rW)6`J,~>
JcC<$bl@YBJcC<$JcE@^rW)6`J,~>
JcC<$bl@YBJcC<$JcE@^rW)6`J,~>
JcC<$bl@YBJcC<$JcE@^rW)6`J,~>
JcC<$bl@YBJcC<$JcE@^rW)6`J,~>
JcC<$bl@YBJcC<$JcE@^rW)6`J,~>
JcC<$bl@YBJcC<$JcE@^rW)6`J,~>
JcC<$bl@YBJcC<$JcE@^rW)6`J,~>
JcC<$bl@YBJcC<$JcE@^rW)6`J,~>
JcC<$bl@YBJcC<$JcE@^rW)6`J,~>
JcC<$bl@YBJcC<$JcE@^rW)6`J,~>
JcC<$bl@YBJcC<$JcE@^rW)6`J,~>
JcC<$bl@YBJcC<$JcE@^rW)6`J,~>
JcC<$bl@YBJcC<$JcE@^rW)6`J,~>
JcC<$bl@YBJcC<$JcE@^rW)6`J,~>
JcC<$bl@YBJcC<$JcE@^rW)6`J,~>
JcC<$bl@YBJcC<$JcE@^rW)6`J,~>
JcC<$bl@YBJcC<$JcE@^rW)6`J,~>
JcC<$bl@YBJcC<$JcE@^rW)6`J,~>
JcC<$bl@YBJcC<$JcE@^rW)6`J,~>
JcC<$bl@YBJcC<$JcE@^rW)6`J,~>
JcC<$bl@YBJcC<$JcE@^rW)6`J,~>
JcC<$bl@YBJcC<$JcE@^rW)6`J,~>
JcC<$bl@YBJcC<$JcE@^rW)6`J,~>
JcC<$bl@YBJcC<$JcE@^rW)6`J,~>
JcC<$bl@YBJcC<$JcE@^rW)6`J,~>
JcC<$bl@YBJcC<$JcE@^rW)6`J,~>
JcC<$bl@YBJcC<$JcE@^rW)6`J,~>
JcC<$bl@YBJcC<$JcE@^rW)6`J,~>
JcC<$bl@YBJcC<$JcE@^rW)6`J,~>
JcC<$bl@YBJcC<$JcE@^rW)6`J,~>
JcC<$bl@YBJcC<$JcE@^rW)6`J,~>
JcC<$bl@YBJcC<$JcE@^rW)6`J,~>
JcC<$bl@YBJcC<$JcE@^rW)6`J,~>
JcC<$bl@YBJcC<$JcE@^rW)6`J,~>
JcC<$bl@YBJcC<$JcE@^rW)6`J,~>
JcC<$bl@YBJcC<$JcE@^rW)6`J,~>
JcC<$bl@YBJcC<$JcE@^rW)6`J,~>
JcC<$bl@YBJcC<$JcE@^rW)6`J,~>
JcC<$bl@YBJcC<$JcE@^rW)6`J,~>
JcC<$bl@YBJcC<$JcE@^rW)6`J,~>
JcC<$bl@YBJcC<$JcE@^rW)6`J,~>
JcC<$bl@YBJcC<$JcE@^rW)6`J,~>
JcC<$bl@YBJcC<$JcE@^rW)6`J,~>
JcC<$bl@YBJcC<$JcE@^rW)6`J,~>
JcC<$bl@YBJcC<$JcE@^rW)6`J,~>
JcC<$bl@YBJcC<$JcE@^rW)6`J,~>
JcC<$bl@YBJcC<$JcE@^rW)6`J,~>
JcC<$bl@YBJcC<$JcE@^rW)6`J,~>
JcC<$bl@YBJcC<$JcE@^rW)6`J,~>
JcC<$bl@YBJcC<$JcE@^rW)6`J,~>
JcC<$bl@YBJcC<$JcE@^rW)6`J,~>
JcC<$bl@YBJcC<$JcE@^rW)6`J,~>
JcC<$bl@YBJcC<$JcE@^rW)6`J,~>
JcC<$bl@YBJcC<$JcE@^rW)6`J,~>
JcC<$bl@YBJcC<$JcE@^rW)6`J,~>
JcC<$bl@YBJcC<$JcE@^rW)6`J,~>
JcC<$bl@YBJcC<$JcE@^rW)6`J,~>
JcC<$bl@YBJcC<$JcE@^rW)6`J,~>
JcC<$bl@YBJcC<$JcE@^rW)6`J,~>
JcC<$bl@YBJcC<$JcE@^rW)6`J,~>
JcC<$bl@YBJcC<$JcE@^rW)6`J,~>
JcC<$bl@YBJcC<$JcE@^rW)6`J,~>
JcC<$bl@YBJcC<$JcE@^rW)6`J,~>
JcC<$bl@YBJcC<$JcE@^rW)6`J,~>
JcC<$bl@YBJcC<$JcE@^rW)6`J,~>
JcC<$bl@YBJcC<$JcE@^rW)6`J,~>
JcC<$bl@YBJcC<$JcE@^rW)6`J,~>
JcC<$bl@YBJcC<$JcE@^rW)6`J,~>
JcC<$bl@YBJcC<$JcE@^rW)6`J,~>
JcC<$bl@YBJcC<$JcE@^rW)6`J,~>
JcC<$bl@YBJcC<$JcE@^rW)6`J,~>
JcC<$bl@YBJcC<$JcE@^rW)6`J,~>
JcC<$bl@YBJcC<$JcE@^rW)6`J,~>
JcC<$bl@YBJcC<$JcE@^rW)6`J,~>
JcC<$bl@YBJcC<$JcE@^rW)6`J,~>
JcC<$bl@YBJcC<$JcE@^rW)6`J,~>
JcC<$bl@YBJcC<$JcE@^rW)6`J,~>
JcC<$bl@YBJcC<$JcE@^rW)6`J,~>
JcC<$bl@YBJcC<$JcE@^rW)6`J,~>
JcC<$bl@YBJcC<$JcE@^rW)6`J,~>
JcC<$bl@YBJcC<$JcE@^rW)6`J,~>
JcC<$bl@YBJcC<$JcE@^rW)6`J,~>
JcC<$bl@YBJcC<$JcE@^rW)6`J,~>
JcC<$bl@YBJcC<$JcE@^rW)6`J,~>
JcC<$bl@YBJcC<$JcE@^rW)6`J,~>
JcC<$bl@YBJcC<$JcE@^rW)6`J,~>
JcC<$bl@YBJcC<$JcE@^rW)6`J,~>
JcC<$bl@YBJcC<$JcE@^rW)6`J,~>
JcC<$bl@YBJcC<$JcE@^rW)6`J,~>
JcC<$bl@YBJcC<$JcE@^rW)6`J,~>
JcC<$bl@YBJcC<$JcE@^rW)6`J,~>
JcC<$bl@YBJcC<$JcE@^rW)6`J,~>
JcC<$bl@YBJcC<$JcE@^rW)6`J,~>
JcC<$bl@YBJcC<$JcE@^rW)6`J,~>
JcC<$bl@YBJcC<$JcE@^rW)6`J,~>
JcC<$bl@YBJcC<$JcE@^rW)6`J,~>
JcC<$bl@YBJcC<$JcE@^rW)6`J,~>
JcC<$bl@YBJcC<$JcE@^rW)6`J,~>
JcC<$bl@YBJcC<$JcE@^rW)6`J,~>
JcC<$bl@YBJcC<$JcE@^rW)6`J,~>
JcC<$bl@YBJcC<$JcE@^rW)6`J,~>
JcC<$bl@YBJcC<$JcE@^rW)6`J,~>
JcC<$bl@YBJcC<$JcE@^rW)6`J,~>
JcC<$bl@YBJcC<$JcE@^rW)6`J,~>
JcC<$bl@YBJcC<$JcE@^rW)6`J,~>
JcC<$bl@YBJcC<$JcE@^rW)6`J,~>
JcC<$bl@YBJcC<$JcE@^rW)6`J,~>
JcC<$bl@YBJcC<$JcE@^rW)6`J,~>
JcC<$bl@YBJcC<$JcE@^rW)6`J,~>
JcC<$bl@YBJcC<$JcE@^rW)6`J,~>
JcC<$bl@YBJcC<$JcE@^rW)6`J,~>
JcC<$bl@YBJcC<$JcE@^rW)6`J,~>
JcC<$bl@YBJcC<$JcE@^rW)6`J,~>
JcC<$bl@YBJcC<$JcE@^rW)6`J,~>
JcC<$bl@YBJcC<$JcE@^rW)6`J,~>
JcC<$bl@YBJcC<$JcE@^rW)6`J,~>
JcC<$bl@YBJcC<$JcE@^rW)6`J,~>
JcC<$bl@YBJcC<$JcE@^rW)6`J,~>
JcC<$bl@YBJcC<$JcE@^rW)6`J,~>
JcC<$bl@YBJcC<$JcE@^rW)6`J,~>
JcC<$bl@YBJcC<$JcE@^rW)6`J,~>
JcC<$bl@YBJcC<$JcE@^rW)6`J,~>
JcC<$bl@YBJcC<$JcE@^rW)6`J,~>
JcC<$bl@YBJcC<$JcE@^rW)6`J,~>
JcC<$bl@YBJcC<$JcE@^rW)6`J,~>
JcC<$bl@YBJcC<$JcE@^rW)6`J,~>
JcC<$bl@YBJcC<$JcE@^rW)6`J,~>
JcC<$bl@YBJcC<$JcE@^rW)6`J,~>
JcC<$bl@YBJcC<$JcE@^rW)6`J,~>
JcC<$bl@YBJcC<$JcE@^rW)6`J,~>
JcC<$bl@YBJcC<$JcE@^rW)6`J,~>
JcC<$bl@YBJcC<$JcE@^rW)6`J,~>
JcC<$bl@YBJcC<$JcE@^rW)6`J,~>
JcC<$bl@YBJcC<$JcE@^rW)6`J,~>
JcC<$bl@YBJcC<$JcE@^rW)6`J,~>
JcC<$bl@YBJcC<$JcE@^rW)6`J,~>
JcC<$bl@YBJcC<$JcE@^rW)6`J,~>
JcC<$bl@YBJcC<$JcE@^rW)6`J,~>
JcC<$bl@YBJcC<$JcE@^rW)6`J,~>
JcC<$bl@YBJcC<$JcE@^rW)6`J,~>
JcC<$bl@YBJcC<$JcE@^rW)6`J,~>
JcC<$bl@YBJcC<$JcE@^rW)6`J,~>
JcC<$bl@YBJcC<$JcE@^rW)6`J,~>
JcC<$bl@YBJcC<$JcE@^rW)6`J,~>
JcC<$bl@YBJcC<$JcE@^rW)6`J,~>
JcC<$bl@YBJcC<$JcE@^rW)6`J,~>
JcC<$bl@YBJcC<$JcE@^rW)6`J,~>
JcC<$bl@YBJcC<$JcE@^rW)6`J,~>
JcC<$bl@YBJcC<$JcE@^rW)6`J,~>
JcC<$bl@YBJcC<$JcE@^rW)6`J,~>
JcC<$bl@YBJcC<$JcE@^rW)6`J,~>
JcC<$bl@YBJcC<$JcE@^rW)6`J,~>
JcC<$bl@YBJcC<$JcE@^rW)6`J,~>
JcC<$bl@YBJcC<$JcE@^rW)6`J,~>
JcC<$bl@YBJcC<$JcE@^rW)6`J,~>
JcC<$bl@YBJcC<$JcE@^rW)6`J,~>
JcC<$bl@YBJcC<$JcE@^rW)6`J,~>
JcC<$bl@YBJcC<$JcE@^rW)6`J,~>
JcC<$bl@YBJcC<$JcE@^rW)6`J,~>
JcC<$bl@YBJcC<$JcE@^rW)6`J,~>
JcC<$bl@YBJcC<$JcE@^rW)6`J,~>
JcC<$bl@YBJcC<$JcE@^rW)6`J,~>
JcC<$bl@YBJcC<$JcE@^rW)6`J,~>
JcC<$bl@YBJcC<$JcE@^rW)6`J,~>
JcC<$bl@YBJcC<$JcE@^rW)6`J,~>
JcC<$bl@YBJcC<$JcE@^rW)6`J,~>
JcC<$bl@YBJcC<$JcE@^rW)6`J,~>
JcC<$bl@YBJcC<$JcE@^rW)6`J,~>
JcC<$bl@YBJcC<$JcE@^rW)6`J,~>
JcC<$bl@YBJcC<$JcE@^rW)6`J,~>
JcC<$bl@YBJcC<$JcE@^rW)6`J,~>
JcC<$bl@YBJcC<$JcE@^rW)6`J,~>
JcC<$bl@YBJcC<$JcE@^rW)6`J,~>
JcC<$bl@YBJcC<$JcE@^rW)6`J,~>
JcC<$bl@YBJcC<$JcE@^rW)6`J,~>
JcC<$bl@YBJcC<$JcE@^rW)6`J,~>
JcC<$bl@YBJcC<$JcE@^rW)6`J,~>
JcC<$bl@YBJcC<$JcE@^rW)6`J,~>
JcC<$bl@YBJcC<$JcE@^rW)6`J,~>
JcC<$bl@YBJcC<$JcE@^rW)6`J,~>
JcC<$bl@YBJcC<$JcE@^rW)6`J,~>
JcC<$bl@YBJcC<$JcE@^rW)6`J,~>
JcC<$bl@YBJcC<$JcE@^rW)6`J,~>
JcC<$bl@YBJcC<$JcE@^rW)6`J,~>
JcC<$bl@YBJcC<$JcE@^rW)6`J,~>
JcC<$bl@YBJcC<$JcE@^rW)6`J,~>
JcC<$bl@YBJcC<$JcE@^rW)6`J,~>
JcC<$bl@YBJcC<$JcE@^rW)6`J,~>
JcC<$bl@YBJcC<$JcE@^rW)6`J,~>
JcC<$bl@YBJcC<$JcE@^rW)6`J,~>
JcC<$bl@YBJcC<$JcE@^rW)6`J,~>
JcC<$bl@YBJcC<$JcE@^rW)6`J,~>
JcC<$bl@YBJcC<$JcE@^rW)6`J,~>
JcC<$bl@YBJcC<$JcE@^rW)6`J,~>
JcC<$bl@YBJcC<$JcE@^rW)6`J,~>
JcC<$bl@YBJcC<$JcE@^rW)6`J,~>
JcC<$bl@YBJcC<$JcE@^rW)6`J,~>
JcC<$bl@YBJcC<$JcE@^rW)6`J,~>
JcC<$bl@YBJcC<$JcE@^rW)6`J,~>
JcC<$bl@YBJcC<$JcE@^rW)6`J,~>
JcC<$bl@YBJcC<$JcE@^rW)6`J,~>
JcC<$bl@YBJcC<$JcE@^rW)6`J,~>
JcC<$bl@YBJcC<$JcE@^rW)6`J,~>
JcC<$bl@YBJcC<$JcE@^rW)6`J,~>
JcC<$bl@YBJcC<$JcE@^rW)6`J,~>
JcC<$bl@YBJcC<$JcE@^rW)6`J,~>
JcC<$bl@YBJcC<$JcE@^rW)6`J,~>
JcC<$bl@YBJcC<$JcE@^rW)6`J,~>
JcC<$bl@YBJcC<$JcE@^rW)6`J,~>
JcC<$bl@YBJcC<$JcE@^rW)6`J,~>
JcC<$bl@YBJcC<$JcE@^rW)6`J,~>
JcC<$bl@YBJcC<$JcE@^rW)6`J,~>
JcC<$bl@YBJcC<$JcE@^rW)6`J,~>
JcC<$bl@YBJcC<$JcE@^rW)6`J,~>
JcC<$bl@YBJcC<$JcE@^rW)6`J,~>
JcC<$bl@YBJcC<$JcE@^rW)6`J,~>
JcC<$bl@YBJcC<$JcE@^rW)6`J,~>
JcC<$bl@YBJcC<$JcE@^rW)6`J,~>
JcC<$bl@YBJcC<$JcE@^rW)6`J,~>
JcC<$bl@YBJcC<$JcE@^rW)6`J,~>
JcC<$bl@YBJcC<$JcE@^rW)6`J,~>
JcC<$bl@YBJcC<$JcE@^rW)6`J,~>
JcC<$bl@YBJcC<$JcE@^rW)6`J,~>
JcC<$bl@YBJcC<$JcE@^rW)6`J,~>
JcC<$bl@YBJcC<$JcE@^rW)6`J,~>
JcC<$bl@YBJcC<$JcE@^rW)6`J,~>
JcC<$bl@YBJcC<$JcE@^rW)6`J,~>
JcC<$bl@G<JcC<$JcERdrW)6`J,~>
JcC<$bl@G<JcC<$JcERdrW)6`J,~>
JcC<$bl@G<JcC<$JcERdrW)6`J,~>
JcC<$bl@G<JcC<$JcERdrW)6`J,~>
JcC<$bl@G<JcC<$JcERdrW)6`J,~>
JcC<$bl@G<JcC<$JcERdrW)6`J,~>
JcC<$bl@VAs8W#tJcC<$JcEUerW)6`J,~>
JcC<$bl@VAs8W#tJcC<$JcEUerW)6`J,~>
JcC<$bl@VAs8W#tJcC<$JcEUerW)6`J,~>
JcC<$bl@YBrVuisJcC<$JcEUerW)6`J,~>
JcC<$bl@YBrVuisJcC<$JcEUerW)6`J,~>
JcC<$bl@YBrVuisJcC<$JcEUerW)6`J,~>
JcC<$bl@YBrVuisJcC<$JcEUerW)6`J,~>
JcC<$bl@YBrVuisJcC<$JcEUerW)6`J,~>
JcC<$bl@YBrVuisJcC<$JcEUerW)6`J,~>
JcC<$bl@YBrVuisJcC<$JcEUerW)6`J,~>
JcC<$bl@YBrVuisJcC<$JcEUerW)6`J,~>
JcC<$bl@YBrVuisJcC<$JcEUerW)6`J,~>
JcC<$bl@G<JcC<$JcERdrW)6`J,~>
JcC<$bl@G<JcC<$JcERdrW)6`J,~>
JcC<$bl@G<JcC<$JcERdrW)6`J,~>
JcC<$bl@VAs8W#tJcC<$JcEUerW)6`J,~>
JcC<$bl@VAs8W#tJcC<$JcEUerW)6`J,~>
JcC<$bl@VAs8W#tJcC<$JcEUerW)6`J,~>
JcC<$bl@VAs8W#tJcC<$JcEUerW)6`J,~>
JcC<$bl@VAs8W#tJcC<$JcEUerW)6`J,~>
JcC<$bl@VAs8W#tJcC<$JcEUerW)6`J,~>
JcC<$bl@YBrVuisJcC<$JcEUerW)6`J,~>
JcC<$bl@YBrVuisJcC<$JcEUerW)6`J,~>
JcC<$bl@YBrVuisJcC<$JcEUerW)6`J,~>
JcC<$bl@YBrVuisJcC<$JcEUerW)6`J,~>
JcC<$bl@YBrVuisJcC<$JcEUerW)6`J,~>
JcC<$bl@YBrVuisJcC<$JcEUerW)6`J,~>
JcC<$bl@YBrVuisJcC<$JcEUerW)6`J,~>
JcC<$bl@YBrVuisJcC<$JcEUerW)6`J,~>
JcC<$bl@YBrVuisJcC<$JcEUerW)6`J,~>
JcC<$bl@YBrVuisJcC<$JcEUerW)6`J,~>
JcC<$bl@YBrVuisJcC<$JcEUerW)6`J,~>
JcC<$bl@YBrVuisJcC<$JcEUerW)6`J,~>
JcC<$bl@G<JcC<$JcERdrW)6`J,~>
JcC<$bl@G<JcC<$JcERdrW)6`J,~>
JcC<$bl@G<JcC<$JcERdrW)6`J,~>
JcC<$bl@YBJcC<$JcE@^rW)6`J,~>
JcC<$bl@YBJcC<$JcE@^rW)6`J,~>
JcC<$bl@YBJcC<$JcE@^rW)6`J,~>
JcC<$bl@YBJcC<$JcE@^rW)6`J,~>
JcC<$bl@YBJcC<$JcE@^rW)6`J,~>
JcC<$bl@YBJcC<$JcE@^rW)6`J,~>
JcC<$bl@YBJcC<$JcE@^rW)6`J,~>
JcC<$bl@YBJcC<$JcE@^rW)6`J,~>
JcC<$bl@YBJcC<$JcE@^rW)6`J,~>
JcC<$bl@YBJcC<$JcE@^rW)6`J,~>
JcC<$bl@YBJcC<$JcE@^rW)6`J,~>
JcC<$bl@YBJcC<$JcE@^rW)6`J,~>
JcC<$bl@YBJcC<$JcE@^rW)6`J,~>
JcC<$bl@YBJcC<$JcE@^rW)6`J,~>
JcC<$bl@YBJcC<$JcE@^rW)6`J,~>
JcC<$bl@YBJcC<$JcE@^rW)6`J,~>
JcC<$bl@YBJcC<$JcE@^rW)6`J,~>
JcC<$bl@YBJcC<$JcE@^rW)6`J,~>
JcC<$bl@YBJcC<$JcE@^rW)6`J,~>
JcC<$bl@YBJcC<$JcE@^rW)6`J,~>
JcC<$bl@YBJcC<$JcE@^rW)6`J,~>
JcC<$bl@YBJcC<$JcE@^rW)6`J,~>
JcC<$bl@YBJcC<$JcE@^rW)6`J,~>
JcC<$bl@YBJcC<$JcE@^rW)6`J,~>
JcC<$bl@YBJcC<$JcE@^rW)6`J,~>
JcC<$bl@YBJcC<$JcE@^rW)6`J,~>
JcC<$bl@YBJcC<$JcE@^rW)6`J,~>
JcC<$bl@YBJcC<$JcE@^rW)6`J,~>
JcC<$bl@YBJcC<$JcE@^rW)6`J,~>
JcC<$bl@YBJcC<$JcE@^rW)6`J,~>
JcC<$bl@YBJcC<$JcE@^rW)6`J,~>
JcC<$bl@YBJcC<$JcE@^rW)6`J,~>
JcC<$bl@YBJcC<$JcE@^rW)6`J,~>
JcC<$bl@YBJcC<$JcE@^rW)6`J,~>
JcC<$bl@YBJcC<$JcE@^rW)6`J,~>
JcC<$bl@YBJcC<$JcE@^rW)6`J,~>
JcC<$bl@YBJcC<$JcE@^rW)6`J,~>
JcC<$bl@YBJcC<$JcE@^rW)6`J,~>
JcC<$bl@YBJcC<$JcE@^rW)6`J,~>
JcC<$bl@YBJcC<$JcE@^rW)6`J,~>
JcC<$bl@YBJcC<$JcE@^rW)6`J,~>
JcC<$bl@YBJcC<$JcE@^rW)6`J,~>
JcC<$bl@YBJcC<$JcE@^rW)6`J,~>
JcC<$bl@YBJcC<$JcE@^rW)6`J,~>
JcC<$bl@YBJcC<$JcE@^rW)6`J,~>
JcC<$bl@YBJcC<$JcE@^rW)6`J,~>
JcC<$bl@YBJcC<$JcE@^rW)6`J,~>
JcC<$bl@YBJcC<$JcE@^rW)6`J,~>
JcC<$bl@YBJcC<$JcE@^rW)6`J,~>
JcC<$bl@YBJcC<$JcE@^rW)6`J,~>
JcC<$bl@YBJcC<$JcE@^rW)6`J,~>
JcC<$bl@YBJcC<$JcE@^rW)6`J,~>
JcC<$bl@YBJcC<$JcE@^rW)6`J,~>
JcC<$bl@YBJcC<$JcE@^rW)6`J,~>
JcC<$bl@YBJcC<$JcE@^rW)6`J,~>
JcC<$bl@YBJcC<$JcE@^rW)6`J,~>
JcC<$bl@YBJcC<$JcE@^rW)6`J,~>
JcC<$bl@YBJcC<$JcE@^rW)6`J,~>
JcC<$bl@YBJcC<$JcE@^rW)6`J,~>
JcC<$bl@YBJcC<$JcE@^rW)6`J,~>
JcC<$bl@YBJcC<$JcE@^rW)6`J,~>
JcC<$bl@YBJcC<$JcE@^rW)6`J,~>
JcC<$bl@YBJcC<$JcE@^rW)6`J,~>
JcC<$bl@YBJcC<$JcE@^rW)6`J,~>
JcC<$bl@YBJcC<$JcE@^rW)6`J,~>
JcC<$bl@YBJcC<$JcE@^rW)6`J,~>
JcC<$bl@YBJcC<$JcE@^rW)6`J,~>
JcC<$bl@YBJcC<$JcE@^rW)6`J,~>
JcC<$bl@YBJcC<$JcE@^rW)6`J,~>
JcC<$bl@YBJcC<$JcE@^rVururW)iqq#L?mJ,~>
JcC<$bl@YBJcC<$JcE@^rVururW)iqq#L?mJ,~>
JcC<$bl@YBJcC<$JcE@^rVururW)iqq#L?mJ,~>
JcC<$bl@YBJcC<$JcE@^q>gEmrrDcmJ,~>
JcC<$bl@YBJcC<$JcE@^q>gEmrrDcmJ,~>
JcC<$bl@YBJcC<$JcE@^q>gEmrrDcmJ,~>
JcC<$bl@YBJcC<$JcE@^rVururW)osrW)WkJ,~>
JcC<$bl@YBJcC<$JcE@^rVururW)osrW)WkJ,~>
JcC<$bl@YBJcC<$JcE@^rVururW)osrW)WkJ,~>
JcC<$bl@YBJcC<$JcE@^rVururW)osrW)WkJ,~>
JcC<$bl@YBJcC<$JcE@^rVururW)osrW)WkJ,~>
JcC<$bl@YBJcC<$JcE@^rVururW)osrW)WkJ,~>
JcC<$bl@YBJcC<$JcE@^rVururW)osq>g?kJ,~>
JcC<$bl@YBJcC<$JcE@^rVururW)osq>g?kJ,~>
JcC<$bl@YBJcC<$JcE@^rVururW)osq>g?kJ,~>
JcC<$bl@YBJcC<$JcE@^rVururW)coquHWoJ,~>
JcC<$bl@YBJcC<$JcE@^rVururW)coquHWoJ,~>
JcC<$bl@YBJcC<$JcE@^rVururW)coquHWoJ,~>
JcC<$bl@YBJcC<$JcE@^rVururW)coquHWoJ,~>
JcC<$bl@YBJcC<$JcE@^rVururW)coquHWoJ,~>
JcC<$bl@YBJcC<$JcE@^rVururW)coquHWoJ,~>
JcC<$bl@YBJcC<$JcE@^rVururW)ZlrW)lrJ,~>
JcC<$bl@YBJcC<$JcE@^rVururW)ZlrW)lrJ,~>
JcC<$bl@YBJcC<$JcE@^rVururW)ZlrW)lrJ,~>
JcC<$bl@YBJcC<$JcE@^rVururW)ZlrW)lrJ,~>
JcC<$bl@YBJcC<$JcE@^rVururW)ZlrW)lrJ,~>
JcC<$bl@YBJcC<$JcE@^rVururW)ZlrW)lrJ,~>
JcC<$bl@YBJcC<$JcE@^rVururW)osrW)osrW)lrJ,~>
JcC<$bl@YBJcC<$JcE@^rVururW)osrW)osrW)lrJ,~>
JcC<$bl@YBJcC<$JcE@^rVururW)osrW)osrW)lrJ,~>
JcC<$bl@YBJcC<$JcE@^rVururW)osrW)osrW)lrJ,~>
JcC<$bl@YBJcC<$JcE@^rVururW)osrW)osrW)lrJ,~>
JcC<$bl@YBJcC<$JcE@^rVururW)osrW)osrW)lrJ,~>
JcC<$bl@YBJcC<$JcE@^rVururW)osr;cltrW)iqJ,~>
JcC<$bl@YBJcC<$JcE@^rVururW)osr;cltrW)iqJ,~>
JcC<$bl@YBJcC<$JcE@^rVururW)osr;cltrW)iqJ,~>
JcC<$bl@YBJcC<$JcE@^rVururW)iqquHQmJ,~>
JcC<$bl@YBJcC<$JcE@^rVururW)iqquHQmJ,~>
JcC<$bl@YBJcC<$JcE@^rVururW)iqquHQmJ,~>
JcC<$bl@YBJcC<$JcE@^rW)6`J,~>
JcC<$bl@YBJcC<$JcE@^rW)6`J,~>
JcC<$bl@YBJcC<$JcE@^rW)6`J,~>
JcC<$bl@YBJcC<$JcE@^rW)6`J,~>
JcC<$bl@YBJcC<$JcE@^rW)6`J,~>
JcC<$bl@YBJcC<$JcE@^rW)6`J,~>
JcC<$bl@YBJcC<$JcE@^rW)6`J,~>
JcC<$bl@YBJcC<$JcE@^rW)6`J,~>
JcC<$bl@YBJcC<$JcE@^rW)6`J,~>
JcC<$bl@YBJcC<$JcE@^rW)6`J,~>
JcC<$bl@YBJcC<$JcE@^rW)6`J,~>
JcC<$bl@YBJcC<$JcE@^rW)6`J,~>
JcC<$bl@YBJcC<$JcE@^rW)6`J,~>
JcC<$bl@YBJcC<$JcE@^rW)6`J,~>
JcC<$bl@YBJcC<$JcE@^rW)6`J,~>
JcC<$bl@YBJcC<$JcE@^rW)6`J,~>
JcC<$bl@YBJcC<$JcE@^rW)6`J,~>
JcC<$bl@YBJcC<$JcE@^rW)6`J,~>
JcC<$bl@YBJcC<$JcE@^rW)6`J,~>
JcC<$bl@YBJcC<$JcE@^rW)6`J,~>
JcC<$bl@YBJcC<$JcE@^rW)6`J,~>
JcC<$bl@YBJcC<$JcE@^rW)6`J,~>
JcC<$bl@YBJcC<$JcE@^rW)6`J,~>
JcC<$bl@YBJcC<$JcE@^rW)6`J,~>
JcC<$bl@YBJcC<$JcE@^rW)6`J,~>
JcC<$bl@YBJcC<$JcE@^rW)6`J,~>
JcC<$bl@YBJcC<$JcE@^rW)6`J,~>
JcC<$bl@YBJcC<$JcE@^rW)6`J,~>
JcC<$bl@YBJcC<$JcE@^rW)6`J,~>
JcC<$bl@YBJcC<$JcE@^rW)6`J,~>
JcC<$bl@YBJcC<$JcE@^rW)6`J,~>
JcC<$bl@YBJcC<$JcE@^rW)6`J,~>
JcC<$bl@YBJcC<$JcE@^rW)6`J,~>
JcC<$bl@YBJcC<$JcE@^rW)6`J,~>
JcC<$bl@YBJcC<$JcE@^rW)6`J,~>
JcC<$bl@YBJcC<$JcE@^rW)6`J,~>
JcC<$bl@YBJcC<$JcE@^rW)6`J,~>
JcC<$bl@YBJcC<$JcE@^rW)6`J,~>
JcC<$bl@YBJcC<$JcE@^rW)6`J,~>
JcC<$bl@YBJcC<$JcE@^rW)6`J,~>
JcC<$bl@YBJcC<$JcE@^rW)6`J,~>
JcC<$bl@YBJcC<$JcE@^rW)6`J,~>
JcC<$bl@YBJcC<$JcE@^rW)6`J,~>
JcC<$bl@YBJcC<$JcE@^rW)6`J,~>
JcC<$bl@YBJcC<$JcE@^rW)6`J,~>
JcC<$bl@YBJcC<$JcE@^rW)6`J,~>
JcC<$bl@YBJcC<$JcE@^rW)6`J,~>
JcC<$bl@YBJcC<$JcE@^rW)6`J,~>
JcC<$bl@YBJcC<$JcE@^rW)6`J,~>
JcC<$bl@YBJcC<$JcE@^rW)6`J,~>
JcC<$bl@YBJcC<$JcE@^rW)6`J,~>
JcC<$bl@YBJcC<$JcE@^rW)6`J,~>
JcC<$bl@YBJcC<$JcE@^rW)6`J,~>
JcC<$bl@YBJcC<$JcE@^rW)6`J,~>
JcC<$bl@YBJcC<$JcE@^rW)6`J,~>
JcC<$bl@YBJcC<$JcE@^rW)6`J,~>
JcC<$bl@YBJcC<$JcE@^rW)6`J,~>
JcC<$bl@YBJcC<$JcE@^rW)6`J,~>
JcC<$bl@YBJcC<$JcE@^rW)6`J,~>
JcC<$bl@YBJcC<$JcE@^rW)6`J,~>
JcC<$bl@YBJcC<$JcE@^rW)6`J,~>
JcC<$bl@YBJcC<$JcE@^rW)6`J,~>
JcC<$bl@YBJcC<$JcE@^rW)6`J,~>
JcC<$bl@YBJcC<$JcE@^rW)6`J,~>
JcC<$bl@YBJcC<$JcE@^rW)6`J,~>
JcC<$bl@YBJcC<$JcE@^rW)6`J,~>
JcC<$bl@YBJcC<$JcE@^rW)6`J,~>
JcC<$bl@YBJcC<$JcE@^rW)6`J,~>
JcC<$bl@YBJcC<$JcE@^rW)6`J,~>
JcC<$bl@YBJcC<$JcE@^rW)6`J,~>
JcC<$bl@YBJcC<$JcE@^rW)6`J,~>
JcC<$bl@YBJcC<$JcE@^rW)6`J,~>
JcC<$bl@YBJcC<$JcE@^rW)6`J,~>
JcC<$bl@YBJcC<$JcE@^rW)6`J,~>
JcC<$bl@YBJcC<$JcE@^rW)6`J,~>
JcC<$bl@YBJcC<$JcE@^rW)6`J,~>
JcC<$bl@YBJcC<$JcE@^rW)6`J,~>
JcC<$bl@YBJcC<$JcE@^rW)6`J,~>
JcC<$bl@YBJcC<$JcE@^rW)6`J,~>
JcC<$bl@YBJcC<$JcE@^rW)6`J,~>
JcC<$bl@YBJcC<$JcE@^rW)6`J,~>
JcC<$bl@YBJcC<$JcE@^rW)6`J,~>
JcC<$bl@YBJcC<$JcE@^rW)6`J,~>
JcC<$bl@YBJcC<$JcE@^rW)6`J,~>
JcC<$bl@YBJcC<$JcE@^rW)6`J,~>
JcC<$bl@YBJcC<$JcE@^rW)6`J,~>
JcC<$bl@YBJcC<$JcE@^rW)6`J,~>
JcC<$bl@YBJcC<$JcE@^rW)6`J,~>
JcC<$bl@YBJcC<$JcE@^rW)6`J,~>
JcC<$bl@YBJcC<$JcE@^rW)6`J,~>
JcC<$bl@YBJcC<$JcE@^rW)6`J,~>
JcC<$bl@YBJcC<$JcE@^rW)6`J,~>
JcC<$bl@YBJcC<$JcE@^rW)6`J,~>
JcC<$bl@YBJcC<$JcE@^rW)6`J,~>
JcC<$bl@YBJcC<$JcE@^rW)6`J,~>
JcC<$bl@YBJcC<$JcE@^rW)6`J,~>
JcC<$bl@YBJcC<$JcE@^rW)6`J,~>
JcC<$bl@YBJcC<$JcE@^rW)6`J,~>
JcC<$bl@YBJcC<$JcE@^rW)6`J,~>
JcC<$bl@YBJcC<$JcE@^rW)6`J,~>
JcC<$bl@YBJcC<$JcE@^rW)6`J,~>
JcC<$bl@YBJcC<$JcE@^rW)6`J,~>
JcC<$bl@YBJcC<$JcE@^rW)6`J,~>
JcC<$bl@YBJcC<$JcE@^rW)6`J,~>
JcC<$bl@YBJcC<$JcE@^rW)6`J,~>
JcC<$bl@YBJcC<$JcE@^rW)6`J,~>
JcC<$bl@YBJcC<$JcE@^rW)6`J,~>
JcC<$bl@YBJcC<$JcE@^rW)6`J,~>
JcC<$bl@YBJcC<$JcE@^rW)6`J,~>
JcC<$bl@YBJcC<$JcE@^rW)6`J,~>
JcC<$bl@YBJcC<$JcE@^rW)6`J,~>
JcC<$bl@YBJcC<$JcE@^rW)6`J,~>
JcC<$bl@YBJcC<$JcE@^rW)6`J,~>
JcC<$bl@YBJcC<$JcE@^rW)6`J,~>
JcC<$bl@YBJcC<$JcE@^rW)6`J,~>
JcC<$bl@YBJcC<$JcE@^rW)6`J,~>
JcC<$bl@YBJcC<$JcE@^rW)6`J,~>
JcC<$bl@YBJcC<$JcE@^rW)6`J,~>
JcC<$bl@YBJcC<$JcE@^rW)6`J,~>
JcC<$bl@YBJcC<$JcE@^rW)6`J,~>
JcC<$bl@YBJcC<$JcE@^rW)6`J,~>
JcC<$bl@YBJcC<$JcE@^rW)6`J,~>
JcC<$bl@YBJcC<$JcE@^rW)6`J,~>
JcC<$bl@YBJcC<$JcE@^rW)6`J,~>
JcC<$bl@YBJcC<$JcE@^rW)6`J,~>
JcC<$bl@YBJcC<$JcE@^rW)6`J,~>
JcC<$bl@YBJcC<$JcE@^rW)6`J,~>
JcC<$bl@YBJcC<$JcE@^rW)6`J,~>
JcC<$bl@YBJcC<$JcE@^rW)6`J,~>
JcC<$bl@YBJcC<$JcE@^rW)6`J,~>
JcC<$bl@YBJcC<$JcE@^rW)6`J,~>
JcC<$bl@YBJcC<$JcE@^rW)6`J,~>
JcC<$bl@YBJcC<$JcE@^rW)6`J,~>
JcC<$bl@YBJcC<$JcE@^rW)6`J,~>
JcC<$bl@YBJcC<$JcE@^rW)6`J,~>
JcC<$bl@YBJcC<$JcE@^rW)6`J,~>
JcC<$bl@YBJcC<$JcE@^rW)6`J,~>
JcC<$bl@YBJcC<$JcE@^rW)6`J,~>
JcC<$bl@YBJcC<$JcE@^rW)6`J,~>
JcC<$bl@YBJcC<$JcE@^rW)6`J,~>
JcC<$bl@YBJcC<$JcE@^rW)6`J,~>
JcC<$bl@YBJcC<$JcE@^rW)6`J,~>
JcC<$bl@YBJcC<$JcE@^rW)6`J,~>
JcC<$bl@YBJcC<$JcE@^rW)6`J,~>
JcC<$bl@YBJcC<$JcE@^rW)6`J,~>
JcC<$bl@YBJcC<$JcE@^rW)6`J,~>
JcC<$bl@YBJcC<$JcE@^rW)6`J,~>
JcC<$bl@YBJcC<$JcE@^rW)6`J,~>
JcC<$bl@YBJcC<$JcE@^rW)6`J,~>
JcC<$bl@YBJcC<$JcE@^rW)6`J,~>
JcC<$bl@YBJcC<$JcE@^rW)6`J,~>
JcC<$bl@YBJcC<$JcE@^rW)6`J,~>
JcC<$bl@YBJcC<$JcE@^rW)6`J,~>
JcC<$bl@YBJcC<$JcE@^rW)6`J,~>
JcC<$bl@YBJcC<$JcE@^rW)6`J,~>
JcC<$bl@YBJcC<$JcE@^rW)6`J,~>
JcC<$bl@YBJcC<$JcE@^rW)6`J,~>
JcC<$bl@YBJcC<$JcE@^rW)6`J,~>
JcC<$bl@YBJcC<$JcE@^rW)6`J,~>
JcC<$bl@YBJcC<$JcE@^rW)6`J,~>
JcC<$bl@YBJcC<$JcE@^rW)6`J,~>
JcC<$bl@YBJcC<$JcE@^rW)6`J,~>
JcC<$bl@YBJcC<$JcE@^rW)6`J,~>
JcC<$bl@YBJcC<$JcE@^rW)6`J,~>
JcC<$bl@YBJcC<$JcE@^rW)6`J,~>
JcC<$bl@YBJcC<$JcE@^rW)6`J,~>
JcC<$bl@YBJcC<$JcE@^rW)6`J,~>
JcC<$bl@YBJcC<$JcE@^rW)6`J,~>
JcC<$bl@YBJcC<$JcE@^rW)6`J,~>
JcC<$bl@YBJcC<$JcE@^rW)6`J,~>
JcC<$bl@YBJcC<$JcE@^rW)6`J,~>
JcC<$bl@YBJcC<$JcE@^rW)6`J,~>
JcC<$bl@YBJcC<$JcE@^rW)6`J,~>
JcC<$bl@YBJcC<$JcE@^rW)6`J,~>
JcC<$bl@YBJcC<$JcE@^rW)6`J,~>
JcC<$bl@YBJcC<$JcE@^rW)6`J,~>
JcC<$bl@YBJcC<$JcE@^rW)6`J,~>
JcC<$bl@YBJcC<$JcE@^rW)6`J,~>
JcC<$bl@YBJcC<$JcE@^rW)6`J,~>
JcC<$bl@YBJcC<$JcE@^rW)6`J,~>
JcC<$bl@YBJcC<$JcE@^rW)6`J,~>
JcC<$bl@YBJcC<$JcE@^rW)6`J,~>
JcC<$bl@YBJcC<$JcE@^rW)6`J,~>
JcC<$bl@YBJcC<$JcE@^rW)6`J,~>
JcC<$bl@YBJcC<$JcE@^rW)6`J,~>
JcC<$bl@YBJcC<$JcE@^rW)6`J,~>
JcC<$bl@YBJcC<$JcE@^rW)6`J,~>
JcC<$bl@YBJcC<$JcE@^rW)6`J,~>
JcC<$bl@YBJcC<$JcE@^rW)6`J,~>
JcC<$bl@YBJcC<$JcE@^rW)6`J,~>
JcC<$bl@YBJcC<$JcE@^rW)6`J,~>
JcC<$bl@YBJcC<$JcE@^rW)6`J,~>
JcC<$bl@YBJcC<$JcE@^rW)6`J,~>
JcC<$bl@YBJcC<$JcE@^rW)6`J,~>
JcC<$bl@YBJcC<$JcE@^rW)6`J,~>
JcC<$bl@YBJcC<$JcE@^rW)6`J,~>
JcC<$bl@YBJcC<$JcE@^rW)6`J,~>
JcC<$bl@YBJcC<$JcE@^rW)6`J,~>
JcC<$bl@YBJcC<$JcE@^rW)6`J,~>
JcC<$bl@YBJcC<$JcE@^rW)6`J,~>
JcC<$bl@YBJcC<$JcE@^rW)6`J,~>
JcC<$bl@YBJcC<$JcE@^rW)6`J,~>
JcC<$bl@YBJcC<$JcE@^rW)6`J,~>
JcC<$bl@YBJcC<$JcE@^rW)6`J,~>
JcC<$bl@YBJcC<$JcE@^rW)6`J,~>
JcC<$bl@YBJcC<$JcE@^rW)6`J,~>
JcC<$bl@YBJcC<$JcE@^rW)6`J,~>
JcC<$bl@YBJcC<$JcE@^rW)6`J,~>
JcC<$bl@YBJcC<$JcE@^rW)6`J,~>
JcC<$bl@YBJcC<$JcE@^rW)6`J,~>
JcC<$bl@YBJcC<$JcE@^rW)6`J,~>
JcC<$bl@YBJcC<$JcE@^rW)6`J,~>
JcC<$bl@YBJcC<$JcE@^rW)6`J,~>
JcC<$bl@YBJcC<$JcE@^rW)6`J,~>
JcC<$bl@YBJcC<$JcE@^rW)6`J,~>
JcC<$bl@YBJcC<$JcE@^rW)6`J,~>
JcC<$bl@YBJcC<$JcE@^rW)6`J,~>
JcC<$bl@YBJcC<$JcE@^rW)6`J,~>
JcC<$bl@YBJcC<$JcE@^rW)6`J,~>
JcC<$bl@YBJcC<$JcE@^rW)6`J,~>
JcC<$bl@YBJcC<$JcE@^rW)6`J,~>
JcC<$bl@YBJcC<$JcE@^rW)6`J,~>
JcC<$bl@YBJcC<$JcE@^rW)6`J,~>
JcC<$bl@YBJcC<$JcE@^rW)6`J,~>
JcC<$bl@YBJcC<$JcE@^rW)6`J,~>
JcC<$bl@YBJcC<$JcE@^rW)6`J,~>
JcC<$bl@YBJcC<$JcE@^rW)6`J,~>
JcC<$bl@YBJcC<$JcE@^rW)6`J,~>
JcC<$bl@YBJcC<$JcE@^rW)6`J,~>
JcC<$bl@YBJcC<$JcE@^rW)6`J,~>
JcC<$bl@YBJcC<$JcE@^rW)6`J,~>
JcC<$bl@YBJcC<$JcE@^rW)6`J,~>
JcC<$bl@YBJcC<$JcE@^rW)6`J,~>
JcC<$bl@YBJcC<$JcE@^rW)6`J,~>
JcC<$bl@YBJcC<$JcE@^rW)6`J,~>
JcC<$bl@YBJcC<$JcE@^rW)6`J,~>
JcC<$bl@YBJcC<$JcE@^rW)6`J,~>
JcC<$bl@YBJcC<$JcE@^rW)6`J,~>
JcC<$bl@YBJcC<$JcE@^rW)6`J,~>
JcC<$bl@YBJcC<$JcE@^rW)6`J,~>
JcC<$bl@YBJcC<$JcE@^rW)6`J,~>
JcC<$bl@YBJcC<$JcE@^rW)6`J,~>
JcC<$bl@YBJcC<$JcE@^rW)6`J,~>
JcC<$bl@D;JcC<$JcEUerW)6`J,~>
JcC<$bl@D;JcC<$JcEUerW)6`J,~>
JcC<$bl@D;JcC<$JcEUerW)6`J,~>
JcC<$bl@YBrVuisJcC<$JcEUerW)6`J,~>
JcC<$bl@YBrVuisJcC<$JcEUerW)6`J,~>
JcC<$bl@YBrVuisJcC<$JcEUerW)6`J,~>
JcC<$bl@YBrVuisJcC<$JcEUerW)6`J,~>
JcC<$bl@YBrVuisJcC<$JcEUerW)6`J,~>
JcC<$bl@YBrVuisJcC<$JcEUerW)6`J,~>
JcC<$bl@YBrr;rtJcC<$JcERdrW)6`J,~>
JcC<$bl@YBrr;rtJcC<$JcERdrW)6`J,~>
JcC<$bl@YBrr;rtJcC<$JcERdrW)6`J,~>
JcC<$bl@YBrr;rtJcC<$JcERdrW)6`J,~>
JcC<$bl@YBrr;rtJcC<$JcERdrW)6`J,~>
JcC<$bl@YBrr;rtJcC<$JcERdrW)6`J,~>
JcC<$bl@YBrr;rtJcC<$JcERdrW)6`J,~>
JcC<$bl@YBrr;rtJcC<$JcERdrW)6`J,~>
JcC<$bl@YBrr;rtJcC<$JcERdrW)6`J,~>
JcC<$bl@YB!<<#uJcC<$JcELbrW)6`J,~>
JcC<$bl@YB!<<#uJcC<$JcELbrW)6`J,~>
JcC<$bl@YB!<<#uJcC<$JcELbrW)6`J,~>
JcC<$bl@YB!<<#uJcC<$JcELbrW)6`J,~>
JcC<$bl@YB!<<#uJcC<$JcELbrW)6`J,~>
JcC<$bl@YB!<<#uJcC<$JcELbrW)6`J,~>
JcC<$bl@P?JcC<$JcEIarW)6`J,~>
JcC<$bl@P?JcC<$JcEIarW)6`J,~>
JcC<$bl@P?JcC<$JcEIarW)6`J,~>
JcC<$bl@P?JcC<$JcEIarW)6`J,~>
JcC<$bl@P?JcC<$JcEIarW)6`J,~>
JcC<$bl@P?JcC<$JcEIarW)6`J,~>
JcC<$bl@P?JcC<$JcEIarW)6`J,~>
JcC<$bl@P?JcC<$JcEIarW)6`J,~>
JcC<$bl@P?JcC<$JcEIarW)6`J,~>
JcC<$bl@VAJcC<$JcEC_rW)6`J,~>
JcC<$bl@VAJcC<$JcEC_rW)6`J,~>
JcC<$bl@VAJcC<$JcEC_rW)6`J,~>
JcC<$bl@VAJcC<$JcEC_rW)6`J,~>
JcC<$bl@VAJcC<$JcEC_rW)6`J,~>
JcC<$bl@VAJcC<$JcEC_rW)6`J,~>
JcC<$bl@VAJcC<$JcEC_rW)6`J,~>
JcC<$bl@VAJcC<$JcEC_rW)6`J,~>
JcC<$bl@VAJcC<$JcEC_rW)6`J,~>
JcC<$bl@YBJcC<$JcE@^rW)6`J,~>
JcC<$bl@YBJcC<$JcE@^rW)6`J,~>
JcC<$bl@YBJcC<$JcE@^rW)6`J,~>
JcC<$bl@YBJcC<$JcE@^rW)6`J,~>
JcC<$bl@YBJcC<$JcE@^rW)6`J,~>
JcC<$bl@YBJcC<$JcE@^rW)6`J,~>
JcC<$bl@YBJcC<$JcE@^rW)6`J,~>
JcC<$bl@YBJcC<$JcE@^rW)6`J,~>
JcC<$bl@YBJcC<$JcE@^rW)6`J,~>
JcC<$bl@YBJcC<$JcE@^rW)6`J,~>
JcC<$bl@YBJcC<$JcE@^rW)6`J,~>
JcC<$bl@YBJcC<$JcE@^rW)6`J,~>
JcC<$bl@YBJcC<$JcE@^rW)6`J,~>
JcC<$bl@YBJcC<$JcE@^rW)6`J,~>
JcC<$bl@YBJcC<$JcE@^rW)6`J,~>
JcC<$bl@YBJcC<$JcE@^rW)6`J,~>
JcC<$bl@YBJcC<$JcE@^rW)6`J,~>
JcC<$bl@YBJcC<$JcE@^rW)6`J,~>
JcC<$bl@YBJcC<$JcE@^rW)6`J,~>
JcC<$bl@YBJcC<$JcE@^rW)6`J,~>
JcC<$bl@YBJcC<$JcE@^rW)6`J,~>
JcC<$bl@YBJcC<$JcE@^rW)6`J,~>
JcC<$bl@YBJcC<$JcE@^rW)6`J,~>
JcC<$bl@YBJcC<$JcE@^rW)6`J,~>
JcC<$bl@YBJcC<$JcE@^rW)6`J,~>
JcC<$bl@YBJcC<$JcE@^rW)6`J,~>
JcC<$bl@YBJcC<$JcE@^rW)6`J,~>
JcC<$bl@YBJcC<$JcE@^rW)6`J,~>
JcC<$bl@YBJcC<$JcE@^rW)6`J,~>
JcC<$bl@YBJcC<$JcE@^rW)6`J,~>
JcC<$bl@YBJcC<$JcE@^rW)6`J,~>
JcC<$bl@YBJcC<$JcE@^rW)6`J,~>
JcC<$bl@YBJcC<$JcE@^rW)6`J,~>
JcC<$bl@YBJcC<$JcE@^rW)6`J,~>
JcC<$bl@YBJcC<$JcE@^rW)6`J,~>
JcC<$bl@YBJcC<$JcE@^rW)6`J,~>
JcC<$bl@YBJcC<$JcE@^rW)6`J,~>
JcC<$bl@YBJcC<$JcE@^rW)6`J,~>
JcC<$bl@YBJcC<$JcE@^rW)6`J,~>
JcC<$bl@YBJcC<$JcE@^rW)6`J,~>
JcC<$bl@YBJcC<$JcE@^rW)6`J,~>
JcC<$bl@YBJcC<$JcE@^rW)6`J,~>
JcC<$bl@YBJcC<$JcE@^rW)6`J,~>
JcC<$bl@YBJcC<$JcE@^rW)6`J,~>
JcC<$bl@YBJcC<$JcE@^rW)6`J,~>
JcC<$bl@YBJcC<$JcE@^rW)6`J,~>
JcC<$bl@YBJcC<$JcE@^rW)6`J,~>
JcC<$bl@YBJcC<$JcE@^rW)6`J,~>
JcC<$bl@YBJcC<$JcE@^rW)6`J,~>
JcC<$bl@YBJcC<$JcE@^rW)6`J,~>
JcC<$bl@YBJcC<$JcE@^rW)6`J,~>
JcC<$bl@YBJcC<$JcE@^rW)6`J,~>
JcC<$bl@YBJcC<$JcE@^rW)6`J,~>
JcC<$bl@YBJcC<$JcE@^rW)6`J,~>
JcC<$bl@YBJcC<$JcE@^rW)6`J,~>
JcC<$bl@YBJcC<$JcE@^rW)6`J,~>
JcC<$bl@YBJcC<$JcE@^rW)6`J,~>
JcC<$bl@YBJcC<$JcE@^rW)6`J,~>
JcC<$bl@YBJcC<$JcE@^rW)6`J,~>
JcC<$bl@YBJcC<$JcE@^rW)6`J,~>
JcC<$bl@YBJcC<$JcE@^rW)6`J,~>
JcC<$bl@YBJcC<$JcE@^rW)6`J,~>
JcC<$bl@YBJcC<$JcE@^rW)6`J,~>
JcC<$bl@YBJcC<$JcE@^rW)6`J,~>
JcC<$bl@YBJcC<$JcE@^rW)6`J,~>
JcC<$bl@YBJcC<$JcE@^rW)6`J,~>
JcC<$bl@YBJcC<$JcE@^rW)6`J,~>
JcC<$bl@YBJcC<$JcE@^rW)6`J,~>
JcC<$bl@YBJcC<$JcE@^rW)6`J,~>
JcC<$bl@YBJcC<$JcE@^rW)6`J,~>
JcC<$bl@YBJcC<$JcE@^rW)6`J,~>
JcC<$bl@YBJcC<$JcE@^rW)6`J,~>
JcC<$bl@YBJcC<$JcE@^rW)6`J,~>
JcC<$bl@YBJcC<$JcE@^rW)6`J,~>
JcC<$bl@YBJcC<$JcE@^rW)6`J,~>
JcC<$bl@YBJcC<$JcE@^rW)6`J,~>
JcC<$bl@YBJcC<$JcE@^rW)6`J,~>
JcC<$bl@YBJcC<$JcE@^rW)6`J,~>
JcC<$bl@YBJcC<$JcE@^rW)6`J,~>
JcC<$bl@YBJcC<$JcE@^rW)6`J,~>
JcC<$bl@YBJcC<$JcE@^rW)6`J,~>
JcC<$bl@YBJcC<$JcE@^rW)6`J,~>
JcC<$bl@YBJcC<$JcE@^rW)6`J,~>
JcC<$bl@YBJcC<$JcE@^rW)6`J,~>
JcC<$bl@YBJcC<$JcE@^rW)6`J,~>
JcC<$bl@YBJcC<$JcE@^rW)6`J,~>
JcC<$bl@YBJcC<$JcE@^rW)6`J,~>
JcC<$bl@YBJcC<$JcE@^rW)6`J,~>
JcC<$bl@YBJcC<$JcE@^rW)6`J,~>
JcC<$bl@YBJcC<$JcE@^rW)6`J,~>
JcC<$bl@YBJcC<$JcE@^rW)6`J,~>
JcC<$bl@YBJcC<$JcE@^rW)6`J,~>
JcC<$bl@YBJcC<$JcE@^rW)6`J,~>
JcC<$bl@YBJcC<$JcE@^rW)6`J,~>
JcC<$bl@YBJcC<$JcE@^rW)6`J,~>
JcC<$bl@YBJcC<$JcE@^rW)6`J,~>
JcC<$bl@YBJcC<$JcE@^rW)6`J,~>
JcC<$bl@YBJcC<$JcE@^rW)6`J,~>
JcC<$bl@YBJcC<$JcE@^rW)6`J,~>
JcC<$bl@YBJcC<$JcE@^rW)6`J,~>
JcC<$bl@YBJcC<$JcE@^rW)6`J,~>
JcC<$bl@YBJcC<$JcE@^rW)6`J,~>
JcC<$bl@YBJcC<$JcE@^rW)6`J,~>
JcC<$bl@YBJcC<$JcE@^rW)6`J,~>
JcC<$bl@YBJcC<$JcE@^rW)6`J,~>
JcC<$bl@YBJcC<$JcE@^rW)6`J,~>
JcC<$bl@YBJcC<$JcE@^rW)6`J,~>
JcC<$bl@YBJcC<$JcE@^rW)6`J,~>
JcC<$bl@YBJcC<$JcE@^rW)6`J,~>
JcC<$bl@YBJcC<$JcE@^rW)6`J,~>
JcC<$bl@YBJcC<$JcE@^rW)6`J,~>
JcC<$bl@YBJcC<$JcE@^rW)6`J,~>
JcC<$bl@YBJcC<$JcE@^rW)6`J,~>
JcC<$bl@YBJcC<$JcE@^rW)6`J,~>
JcC<$bl@YBJcC<$JcE@^rW)6`J,~>
JcC<$bl@YBJcC<$JcE@^rW)6`J,~>
JcC<$bl@YBJcC<$JcE@^rW)6`J,~>
JcC<$bl@YBJcC<$JcE@^rW)6`J,~>
JcC<$bl@YBJcC<$JcE@^rW)6`J,~>
JcC<$bl@YBJcC<$JcE@^rW)6`J,~>
JcC<$bl@YBJcC<$JcE@^rW)6`J,~>
JcC<$bl@YBJcC<$JcE@^rW)6`J,~>
JcC<$bl@YBJcC<$JcE@^rW)6`J,~>
JcC<$bl@YBJcC<$JcE@^rW)6`J,~>
JcC<$bl@YBJcC<$JcE@^rW)6`J,~>
JcC<$bl@YBJcC<$JcE@^rW)6`J,~>
JcC<$bl@YBJcC<$JcE@^rW)6`J,~>
JcC<$bl@YBJcC<$JcE@^rW)6`J,~>
JcC<$bl@YBJcC<$JcE@^rW)6`J,~>
JcC<$bl@YBJcC<$JcE@^rW)6`J,~>
JcC<$bl@YBJcC<$JcE@^rW)6`J,~>
JcC<$bl@YBJcC<$JcE@^rW)6`J,~>
JcC<$bl@YBJcC<$JcE@^rW)6`J,~>
JcC<$bl@YBJcC<$JcE@^rW)6`J,~>
JcC<$bl@YBJcC<$JcE@^rW)6`J,~>
JcC<$bl@YBJcC<$JcE@^rW)6`J,~>
JcC<$bl@YBJcC<$JcE@^rW)6`J,~>
JcC<$bl@YBJcC<$JcE@^rW)6`J,~>
JcC<$bl@YBJcC<$JcE@^rW)6`J,~>
JcC<$bl@YBJcC<$JcE@^rW)6`J,~>
JcC<$bl@YBJcC<$JcE@^rW)6`J,~>
JcC<$bl@YBJcC<$JcE@^rW)6`J,~>
JcC<$bl@YBJcC<$JcE@^rW)6`J,~>
JcC<$bl@YBJcC<$JcE@^rW)6`J,~>
JcC<$bl@YBJcC<$JcE@^rW)6`J,~>
JcC<$bl@YBJcC<$JcE@^rW)6`J,~>
JcC<$bl@YBJcC<$JcE@^rW)6`J,~>
JcC<$bl@YBJcC<$JcE@^rW)6`J,~>
JcC<$bl@YBJcC<$JcE@^rW)6`J,~>
JcC<$bl@YBJcC<$JcE@^rW)6`J,~>
JcC<$bl@YBJcC<$JcE@^rW)6`J,~>
JcC<$bl@YBJcC<$JcE@^rW)6`J,~>
JcC<$bl@YBJcC<$JcE@^rW)6`J,~>
JcC<$bl@YBJcC<$JcE@^rW)6`J,~>
JcC<$bl@YBJcC<$JcE@^rW)6`J,~>
JcC<$bl@YBJcC<$JcE@^rW)6`J,~>
JcC<$bl@YBJcC<$JcE@^rW)6`J,~>
JcC<$bl@YBJcC<$JcE@^rW)6`J,~>
JcC<$bl@YBJcC<$JcE@^rW)6`J,~>
JcC<$bl@YBJcC<$JcE@^rW)6`J,~>
JcC<$bl@YBJcC<$JcE@^rW)6`J,~>
JcC<$bl@YBJcC<$JcE@^rW)6`J,~>
JcC<$bl@YBJcC<$JcE@^rW)6`J,~>
JcC<$bl@YBJcC<$JcE@^rW)6`J,~>
JcC<$bl@YBJcC<$JcE@^rW)6`J,~>
JcC<$bl@YBJcC<$JcE@^rW)6`J,~>
JcC<$bl@YBJcC<$JcE@^rW)6`J,~>
JcC<$bl@YBJcC<$JcE@^rW)6`J,~>
JcC<$bl@YBJcC<$JcE@^rW)6`J,~>
JcC<$bl@YBJcC<$JcE@^rW)6`J,~>
JcC<$bl@YBJcC<$JcE@^rW)6`J,~>
JcC<$bl@YBJcC<$JcE@^rW)6`J,~>
JcC<$bl@YBJcC<$JcE@^rW)6`J,~>
JcC<$bl@YBJcC<$JcE@^rW)6`J,~>
JcC<$bl@YBJcC<$JcE@^rW)6`J,~>
JcC<$bl@YBJcC<$JcE@^rW)6`J,~>
JcC<$bl@YBJcC<$JcE@^rW)6`J,~>
JcC<$bl@YBJcC<$JcE@^rW)6`J,~>
JcC<$bl@YBJcC<$JcE@^rW)6`J,~>
JcC<$bl@YBJcC<$JcE@^rW)6`J,~>
JcC<$bl@YBJcC<$JcE@^rW)6`J,~>
JcC<$bl@YBJcC<$JcE@^rW)6`J,~>
JcC<$bl@YBJcC<$JcE@^rW)6`J,~>
JcC<$bl@YBJcC<$JcE@^rW)6`J,~>
JcC<$bl@YBJcC<$JcE@^rW)6`J,~>
JcC<$bl@YBJcC<$JcE@^rW)6`J,~>
JcC<$bl@YBJcC<$JcE@^rW)6`J,~>
JcC<$bl@YBJcC<$JcE@^rW)6`J,~>
JcC<$bl@YBJcC<$JcE@^rW)6`J,~>
JcC<$bl@YBJcC<$JcE@^rW)6`J,~>
JcC<$bl@YBJcC<$JcE@^rW)6`J,~>
JcC<$bl@YBJcC<$JcE@^rW)6`J,~>
JcC<$bl@YBJcC<$JcE@^rW)6`J,~>
JcC<$bl@YBJcC<$JcE@^rW)6`J,~>
JcC<$bl@YBJcC<$JcE@^rW)6`J,~>
JcC<$bl@YBJcC<$JcE@^rW)6`J,~>
JcC<$bl@YBJcC<$JcE@^rW)6`J,~>
JcC<$bl@YBJcC<$JcE@^rW)6`J,~>
JcC<$bl@YBJcC<$JcE@^rW)6`J,~>
JcC<$bl@YBJcC<$JcE@^rW)6`J,~>
JcC<$bl@YBJcC<$JcE@^rW)6`J,~>
JcC<$bl@YBJcC<$JcE@^rW)6`J,~>
JcC<$bl@YBJcC<$JcE@^rW)6`J,~>
JcC<$bl@YBJcC<$JcE@^rW)6`J,~>
JcC<$bl@YBJcC<$JcE@^rW)6`J,~>
JcC<$bl@YBJcC<$JcE@^rW)6`J,~>
JcC<$bl@YBJcC<$JcE@^rW)6`J,~>
JcC<$bl@YBJcC<$JcE@^rW)6`J,~>
JcC<$bl@YBJcC<$JcE@^rW)6`J,~>
JcC<$bl@YBJcC<$JcE@^rW)6`J,~>
JcC<$bl@YBJcC<$JcE@^rW)6`J,~>
JcC<$bl@YBJcC<$JcE@^rW)6`J,~>
JcC<$bl@YBJcC<$JcE@^rW)6`J,~>
JcC<$bl@YBJcC<$JcE@^rW)6`J,~>
JcC<$bl@YBJcC<$JcE@^rW)6`J,~>
JcC<$bl@YBJcC<$JcE@^rW)6`J,~>
JcC<$bl@YBJcC<$JcE@^rW)6`J,~>
JcC<$bl@YBJcC<$JcE@^rW)6`J,~>
JcC<$bl@YBJcC<$JcE@^rW)6`J,~>
JcC<$bl@YBJcC<$JcE@^rW)6`J,~>
JcC<$bl@YBJcC<$JcE@^rW)6`J,~>
JcC<$bl@YBJcC<$JcE@^rW)6`J,~>
JcC<$bl@YBJcC<$JcE@^rW)6`J,~>
JcC<$bl@YBJcC<$JcE@^rW)6`J,~>
JcC<$bl@YBJcC<$JcE@^rW)6`J,~>
JcC<$bl@YBJcC<$JcE@^rW)6`J,~>
JcC<$bl@YBJcC<$JcE@^rW)6`J,~>
JcC<$bl@YBJcC<$JcE@^rW)6`J,~>
JcC<$bl@YBJcC<$JcE@^rW)6`J,~>
JcC<$bl@YBJcC<$JcE@^rW)6`J,~>
JcC<$bl@YBJcC<$JcE@^rW)6`J,~>
JcC<$bl@YBJcC<$JcE@^rW)6`J,~>
JcC<$bl@YBJcC<$JcE@^rW)6`J,~>
JcC<$bl@YBJcC<$JcE@^rW)6`J,~>
JcC<$bl@YBJcC<$JcE@^rW)6`J,~>
JcC<$bl@YBJcC<$JcE@^rW)6`J,~>
JcC<$bl@YBJcC<$JcE@^rW)6`J,~>
JcC<$bl@YBJcC<$JcE@^rW)6`J,~>
JcC<$bl@YBJcC<$JcE@^rW)6`J,~>
JcC<$bl@YBJcC<$JcE@^rW)6`J,~>
JcC<$bl@YBJcC<$JcE@^rW)6`J,~>
JcC<$bl@YBJcC<$JcE@^rW)6`J,~>
JcC<$bl@YBJcC<$JcE@^rW)6`J,~>
JcC<$bl@YBJcC<$JcE@^rW)6`J,~>
JcC<$bl@YBJcC<$JcE@^rW)6`J,~>
JcC<$bl@YBJcC<$JcE@^rW)6`J,~>
JcC<$bl@YBJcC<$JcE@^rW)6`J,~>
JcC<$bl@YBJcC<$JcE@^rW)6`J,~>
JcC<$bl@YBJcC<$JcE@^rW)6`J,~>
JcC<$bl@YBJcC<$JcE@^rW)6`J,~>
JcC<$bl@YBJcC<$JcE@^rW)6`J,~>
JcC<$bl@YBJcC<$JcE@^rW)6`J,~>
JcC<$bl@YBJcC<$JcE@^rW)6`J,~>
JcC<$bl@YBJcC<$JcE@^rW)6`J,~>
JcC<$bl@YBJcC<$JcE@^rW)6`J,~>
JcC<$bl@YBJcC<$JcE@^rW)6`J,~>
JcC<$bl@YBJcC<$JcE@^rW)6`J,~>
JcC<$bl@YBJcC<$JcE@^rW)6`J,~>
JcC<$bl@YBJcC<$JcE@^rW)6`J,~>
JcC<$bl@YBJcC<$JcE@^rW)6`J,~>
JcC<$bl@YBJcC<$JcE@^rW)6`J,~>
JcC<$bl@YBJcC<$JcE@^rW)6`J,~>
JcC<$bl@YBJcC<$JcE@^rW)6`J,~>
JcC<$bl@YBJcC<$JcE@^rW)6`J,~>
JcC<$bl@YBJcC<$JcE@^rW)6`J,~>
JcC<$bl@YBJcC<$JcE@^rW)6`J,~>
JcC<$bl@YBJcC<$JcE@^rW)6`J,~>
JcC<$bl@YBJcC<$JcE@^rW)6`J,~>
JcC<$bl@YBJcC<$JcE@^rW)6`J,~>
JcC<$bl@YBJcC<$JcE@^rW)6`J,~>
JcC<$bl@YBJcC<$JcE@^rW)6`J,~>
JcC<$bl@YBJcC<$JcE@^rW)6`J,~>
JcC<$bl@YBJcC<$JcE@^rW)6`J,~>
JcC<$bl@YBJcC<$JcE@^rW)6`J,~>
JcC<$bl@YBJcC<$JcE@^rW)6`J,~>
JcC<$bl@YBJcC<$JcE@^rW)6`J,~>
JcC<$bl@YBJcC<$JcE@^rW)6`J,~>
JcC<$bl@YBJcC<$JcE@^rW)6`J,~>
JcC<$bl@YBJcC<$JcE@^rW)6`J,~>
JcC<$bl@YBJcC<$JcE@^rW)6`J,~>
JcC<$bl@YBJcC<$JcE@^rW)6`J,~>
JcC<$bl@YBJcC<$JcE@^rW)6`J,~>
JcC<$bl@YBJcC<$JcE@^rW)6`J,~>
JcC<$bl@YBJcC<$JcE@^rW)6`J,~>
JcC<$bl@YBJcC<$JcE@^rW)6`J,~>
JcC<$bl@YBJcC<$JcE@^rW)6`J,~>
JcC<$bl@YBJcC<$JcE@^rW)6`J,~>
JcC<$bl@YBJcC<$JcE@^rW)6`J,~>
JcC<$bl@YBJcC<$JcE@^rW)6`J,~>
JcC<$bl@YBJcC<$JcE@^rW)6`J,~>
JcC<$bl@YBJcC<$JcE@^rW)6`J,~>
JcC<$bl@YBJcC<$JcE@^rW)6`J,~>
JcC<$bl@YBJcC<$JcE@^rW)6`J,~>
JcC<$bl@YBJcC<$JcE@^rW)6`J,~>
JcC<$bl@YBJcC<$JcE@^rW)6`J,~>
JcC<$bl@YBJcC<$JcE@^rW)6`J,~>
JcC<$bl@YBJcC<$JcE@^rW)6`J,~>
JcC<$bl@YBJcC<$JcE@^rW)6`J,~>
JcC<$bl@YBJcC<$JcE@^rW)6`J,~>
JcC<$bl@YBJcC<$JcE@^rW)6`J,~>
JcC<$bl@YBJcC<$JcE@^rW)6`J,~>
JcC<$bl@YBJcC<$JcE@^rW)6`J,~>
JcC<$bl@YBJcC<$JcE@^rW)6`J,~>
JcC<$bl@YBJcC<$JcE@^rW)6`J,~>
JcC<$bl@YBJcC<$JcE@^rW)6`J,~>
JcC<$bl@YBJcC<$JcE@^rW)6`J,~>
JcC<$bl@YBJcC<$JcE@^rW)6`J,~>
JcC<$bl@YBJcC<$JcE@^rW)6`J,~>
JcC<$bl@YBJcC<$JcE@^rW)6`J,~>
JcC<$bl@YBJcC<$JcE@^rW)6`J,~>
JcC<$bl@YBJcC<$JcE@^rW)6`J,~>
JcC<$bl@YBJcC<$JcE@^rW)6`J,~>
JcC<$bl@YBJcC<$JcE@^rW)6`J,~>
JcC<$bl@YBJcC<$JcE@^rW)6`J,~>
JcC<$bl@YBJcC<$JcE@^rW)6`J,~>
JcC<$bl@YBJcC<$JcE@^rW)6`J,~>
JcC<$bl@YBJcC<$JcE@^rW)6`J,~>
JcC<$bl@YBJcC<$JcE@^rW)6`J,~>
JcC<$bl@YBJcC<$JcE@^rW)6`J,~>
JcC<$bl@YBJcC<$JcE@^rW)6`J,~>
JcC<$bl@YBJcC<$JcE@^rW)6`J,~>
JcC<$bl@YBJcC<$JcE@^rW)6`J,~>
JcC<$bl@YBJcC<$JcE@^rW)6`J,~>
JcC<$bl@YBJcC<$JcE@^rW)6`J,~>
JcC<$bl@YBJcC<$JcE@^rW)6`J,~>
JcC<$bl@YBJcC<$JcE@^rW)6`J,~>
JcC<$bl@YBJcC<$JcE@^rW)6`J,~>
JcC<$bl@YBJcC<$JcE@^rW)6`J,~>
JcC<$bl@YBJcC<$JcE@^rW)6`J,~>
JcC<$bl@YBJcC<$JcE@^rW)6`J,~>
JcC<$bl@YBJcC<$JcE@^rW)6`J,~>
JcC<$bl@YBJcC<$JcE@^rW)6`J,~>
JcC<$bl@YBJcC<$JcE@^rW)6`J,~>
JcC<$bl@YBJcC<$JcE@^rW)6`J,~>
JcC<$bl@YBJcC<$JcE@^rW)6`J,~>
JcC<$bl@YBJcC<$JcE@^rW)6`J,~>
JcC<$bl@YBJcC<$JcE@^rW)6`J,~>
JcC<$bl@YBJcC<$JcE@^rW)6`J,~>
JcC<$bl@YBJcC<$JcE@^rW)6`J,~>
JcC<$bl@YBJcC<$JcE@^rW)6`J,~>
JcC<$bl@YBJcC<$JcE@^rW)6`J,~>
JcC<$bl@YBJcC<$JcE@^rW)6`J,~>
JcC<$bl@YBJcC<$JcE@^rW)6`J,~>
JcC<$bl@YBJcC<$JcE@^rW)6`J,~>
JcC<$bl@YBJcC<$JcE@^rW)6`J,~>
JcC<$bl@YBJcC<$JcE@^rW)6`J,~>
JcC<$bl@YBJcC<$JcE@^rW)6`J,~>
JcC<$bl@YBJcC<$JcE@^rW)6`J,~>
JcC<$bl@YBJcC<$JcE@^rW)6`J,~>
JcC<$bl@YBJcC<$JcE@^rW)6`J,~>
JcC<$bl@YBJcC<$JcE@^rW)6`J,~>
JcC<$bl@G<JcC<$JcERdrW)6`J,~>
JcC<$bl@G<JcC<$JcERdrW)6`J,~>
JcC<$bl@G<JcC<$JcERdrW)6`J,~>
JcC<$bl@P?!<<#uJcC<$JcEUerW)6`J,~>
JcC<$bl@P?!<<#uJcC<$JcEUerW)6`J,~>
JcC<$bl@P?!<<#uJcC<$JcEUerW)6`J,~>
JcC<$bl@VArr;rtJcC<$JcEUerW)6`J,~>
JcC<$bl@VArr;rtJcC<$JcEUerW)6`J,~>
JcC<$bl@VArr;rtJcC<$JcEUerW)6`J,~>
JcC<$bl@VArr;rtJcC<$JcEUerW)6`J,~>
JcC<$bl@VArr;rtJcC<$JcEUerW)6`J,~>
JcC<$bl@VArr;rtJcC<$JcEUerW)6`J,~>
JcC<$bl@YBJcC<$JcE@^rW)6`J,~>
JcC<$bl@YBJcC<$JcE@^rW)6`J,~>
JcC<$bl@YBJcC<$JcE@^rW)6`J,~>
JcC<$bl@YB!<;rsJcC<$JcERdrW)6`J,~>
JcC<$bl@YB!<;rsJcC<$JcERdrW)6`J,~>
JcC<$bl@YB!<;rsJcC<$JcERdrW)6`J,~>
JcC<$bl@YB!<;rsJcC<$JcERdrW)6`J,~>
JcC<$bl@YB!<;rsJcC<$JcERdrW)6`J,~>
JcC<$bl@YB!<;rsJcC<$JcERdrW)6`J,~>
JcC<$bl@P?!<<#uJcC<$JcEUerW)6`J,~>
JcC<$bl@P?!<<#uJcC<$JcEUerW)6`J,~>
JcC<$bl@P?!<<#uJcC<$JcEUerW)6`J,~>
JcC<$bl@YBrVuisJcC<$JcEUerW)6`J,~>
JcC<$bl@YBrVuisJcC<$JcEUerW)6`J,~>
JcC<$bl@YBrVuisJcC<$JcEUerW)6`J,~>
JcC<$bl@YBrVuisJcC<$JcEUerW)6`J,~>
JcC<$bl@YBrVuisJcC<$JcEUerW)6`J,~>
JcC<$bl@YBrVuisJcC<$JcEUerW)6`J,~>
JcC<$bl@YBrVuisJcC<$JcEUerW)6`J,~>
JcC<$bl@YBrVuisJcC<$JcEUerW)6`J,~>
JcC<$bl@YBrVuisJcC<$JcEUerW)6`J,~>
JcC<$bl@VAs8W#tJcC<$JcEUerW)6`J,~>
JcC<$bl@VAs8W#tJcC<$JcEUerW)6`J,~>
JcC<$bl@VAs8W#tJcC<$JcEUerW)6`J,~>
JcC<$bl@G<JcC<$JcERdrW)6`J,~>
JcC<$bl@G<JcC<$JcERdrW)6`J,~>
JcC<$bl@G<JcC<$JcERdrW)6`J,~>
JcC<$bl@YBJcC<$JcE@^rW)6`J,~>
JcC<$bl@YBJcC<$JcE@^rW)6`J,~>
JcC<$bl@YBJcC<$JcE@^rW)6`J,~>
JcC<$bl@YBJcC<$JcE@^rW)6`J,~>
JcC<$bl@YBJcC<$JcE@^rW)6`J,~>
JcC<$bl@YBJcC<$JcE@^rW)6`J,~>
JcC<$bl@YBJcC<$JcE@^rW)6`J,~>
JcC<$bl@YBJcC<$JcE@^rW)6`J,~>
JcC<$bl@YBJcC<$JcE@^rW)6`J,~>
JcC<$bl@YBJcC<$JcE@^rW)6`J,~>
JcC<$bl@YBJcC<$JcE@^rW)6`J,~>
JcC<$bl@YBJcC<$JcE@^rW)6`J,~>
JcC<$bl@YBJcC<$JcE@^rW)6`J,~>
JcC<$bl@YBJcC<$JcE@^rW)6`J,~>
JcC<$bl@YBJcC<$JcE@^rW)6`J,~>
JcC<$bl@YBJcC<$JcE@^rW)6`J,~>
JcC<$bl@YBJcC<$JcE@^rW)6`J,~>
JcC<$bl@YBJcC<$JcE@^rW)6`J,~>
JcC<$bl@YBJcC<$JcE@^rW)6`J,~>
JcC<$bl@YBJcC<$JcE@^rW)6`J,~>
JcC<$bl@YBJcC<$JcE@^rW)6`J,~>
JcC<$bl@YBJcC<$JcE@^rW)6`J,~>
JcC<$bl@YBJcC<$JcE@^rW)6`J,~>
JcC<$bl@YBJcC<$JcE@^rW)6`J,~>
JcC<$bl@YBJcC<$JcE@^rW)6`J,~>
JcC<$bl@YBJcC<$JcE@^rW)6`J,~>
JcC<$bl@YBJcC<$JcE@^rW)6`J,~>
JcC<$bl@YBJcC<$JcE@^rW)6`J,~>
JcC<$bl@YBJcC<$JcE@^rW)6`J,~>
JcC<$bl@YBJcC<$JcE@^rW)6`J,~>
JcC<$bl@YBJcC<$JcE@^rW)6`J,~>
JcC<$bl@YBJcC<$JcE@^rW)6`J,~>
JcC<$bl@YBJcC<$JcE@^rW)6`J,~>
JcC<$bl@YBJcC<$JcE@^rW)6`J,~>
JcC<$bl@YBJcC<$JcE@^rW)6`J,~>
JcC<$bl@YBJcC<$JcE@^rW)6`J,~>
JcC<$bl@YBJcC<$JcE@^rW)6`J,~>
JcC<$bl@YBJcC<$JcE@^rW)6`J,~>
JcC<$bl@YBJcC<$JcE@^rW)6`J,~>
JcC<$bl@YBJcC<$JcE@^rW)6`J,~>
JcC<$bl@YBJcC<$JcE@^rW)6`J,~>
JcC<$bl@YBJcC<$JcE@^rW)6`J,~>
JcC<$bl@YBJcC<$JcE@^rW)6`J,~>
JcC<$bl@YBJcC<$JcE@^rW)6`J,~>
JcC<$bl@YBJcC<$JcE@^rW)6`J,~>
JcC<$bl@YBJcC<$JcE@^rW)6`J,~>
JcC<$bl@YBJcC<$JcE@^rW)6`J,~>
JcC<$bl@YBJcC<$JcE@^rW)6`J,~>
JcC<$bl@YBJcC<$JcE@^rW)6`J,~>
JcC<$bl@YBJcC<$JcE@^rW)6`J,~>
JcC<$bl@YBJcC<$JcE@^rW)6`J,~>
JcC<$bl@YBJcC<$JcE@^rW)6`J,~>
JcC<$bl@YBJcC<$JcE@^rW)6`J,~>
JcC<$bl@YBJcC<$JcE@^rW)6`J,~>
JcC<$bl@YBJcC<$JcE@^rW)6`J,~>
JcC<$bl@YBJcC<$JcE@^rW)6`J,~>
JcC<$bl@YBJcC<$JcE@^rW)6`J,~>
JcC<$bl@YBJcC<$JcE@^rW)6`J,~>
JcC<$bl@YBJcC<$JcE@^rW)6`J,~>
JcC<$bl@YBJcC<$JcE@^rW)6`J,~>
JcC<$bl@YBJcC<$JcE@^rW)6`J,~>
JcC<$bl@YBJcC<$JcE@^rW)6`J,~>
JcC<$bl@YBJcC<$JcE@^rW)6`J,~>
JcC<$bl@YBJcC<$JcE@^rW)6`J,~>
JcC<$bl@YBJcC<$JcE@^rW)6`J,~>
JcC<$bl@YBJcC<$JcE@^rW)6`J,~>
JcC<$bl@YBJcC<$JcE@^rW)6`J,~>
JcC<$bl@YBJcC<$JcE@^rW)6`J,~>
JcC<$bl@YBJcC<$JcE@^rW)6`J,~>
JcC<$bl@YBJcC<$JcE@^rVururW)BdJ,~>
JcC<$bl@YBJcC<$JcE@^rVururW)BdJ,~>
JcC<$bl@YBJcC<$JcE@^rVururW)BdJ,~>
JcC<$bl@YBJcC<$JcE@^q>fs`J,~>
JcC<$bl@YBJcC<$JcE@^q>fs`J,~>
JcC<$bl@YBJcC<$JcE@^q>fs`J,~>
JcC<$bl@YBJcC<$JcE@^rVururW)BdJ,~>
JcC<$bl@YBJcC<$JcE@^rVururW)BdJ,~>
JcC<$bl@YBJcC<$JcE@^rVururW)BdJ,~>
JcC<$bl@YBJcC<$JcE@^rVururW)BdJ,~>
JcC<$bl@YBJcC<$JcE@^rVururW)BdJ,~>
JcC<$bl@YBJcC<$JcE@^rVururW)BdJ,~>
JcC<$bl@YBJcC<$JcE@^rVururW)BdJ,~>
JcC<$bl@YBJcC<$JcE@^rVururW)BdJ,~>
JcC<$bl@YBJcC<$JcE@^rVururW)BdJ,~>
JcC<$bl@YBJcC<$JcE@^rVururW)BdJ,~>
JcC<$bl@YBJcC<$JcE@^rVururW)BdJ,~>
JcC<$bl@YBJcC<$JcE@^rVururW)BdJ,~>
JcC<$bl@YBJcC<$JcE@^rVururW)BdJ,~>
JcC<$bl@YBJcC<$JcE@^rVururW)BdJ,~>
JcC<$bl@YBJcC<$JcE@^rVururW)BdJ,~>
JcC<$bl@YBJcC<$JcE@^rVururW)BdJ,~>
JcC<$bl@YBJcC<$JcE@^rVururW)BdJ,~>
JcC<$bl@YBJcC<$JcE@^rVururW)BdJ,~>
JcC<$bl@YBJcC<$JcE@^rVururW)BdJ,~>
JcC<$bl@YBJcC<$JcE@^rVururW)BdJ,~>
JcC<$bl@YBJcC<$JcE@^rVururW)BdJ,~>
JcC<$bl@YBJcC<$JcE@^rVururW)BdJ,~>
JcC<$bl@YBJcC<$JcE@^rVururW)BdJ,~>
JcC<$bl@YBJcC<$JcE@^rVururW)BdJ,~>
JcC<$bl@YBJcC<$JcE@^rVururW)BdJ,~>
JcC<$bl@YBJcC<$JcE@^rVururW)BdJ,~>
JcC<$bl@YBJcC<$JcE@^rVururW)BdJ,~>
JcC<$bl@YBJcC<$JcE@^rVururW)BdJ,~>
JcC<$bl@YBJcC<$JcE@^rVururW)BdJ,~>
JcC<$bl@YBJcC<$JcE@^rVururW)BdJ,~>
JcC<$bl@YBJcC<$JcE@^rVururW)BdJ,~>
JcC<$bl@YBJcC<$JcE@^rVururW)BdJ,~>
JcC<$bl@YBJcC<$JcE@^rVururW)BdJ,~>
JcC<$bl@YBJcC<$JcE@^rVururW)BdJ,~>
JcC<$bl@YBJcC<$JcE@^rVururW)BdJ,~>
JcC<$bl@YBJcC<$JcE@^rVururW)BdJ,~>
JcC<$bl@YBJcC<$JcELbq>fg\J,~>
JcC<$bl@YBJcC<$JcELbq>fg\J,~>
JcC<$bl@YBJcC<$JcELbq>fg\J,~>
JcC<$bl@YBJcC<$JcEaioDn.UJ,~>
JcC<$bl@YBJcC<$JcEaioDn.UJ,~>
JcC<$bl@YBJcC<$JcEaioDn.UJ,~>
JcC<$bl@YBJcC<$JcEpno`4%PJ,~>
JcC<$bl@YBJcC<$JcEpno`4%PJ,~>
JcC<$bl@YBJcC<$JcEpno`4%PJ,~>
JcC<$bl@YBJcC<$JcEpno`4%PJ,~>
JcC<$bl@YBJcC<$JcEpno`4%PJ,~>
JcC<$bl@YBJcC<$JcEpno`4%PJ,~>
JcC<$bl@YBJcC<$JcF0uo`3eIJ,~>
JcC<$bl@YBJcC<$JcF0uo`3eIJ,~>
JcC<$bl@YBJcC<$JcF0uo`3eIJ,~>
JcC<$bl@YBJcC<$JcFF'o)RDBJ,~>
JcC<$bl@YBJcC<$JcFF'o)RDBJ,~>
JcC<$bl@YBJcC<$JcFF'o)RDBJ,~>
JcC<$bl@YBJcC<$JcFF'o)RDBJ,~>
JcC<$bl@YBJcC<$JcFF'o)RDBJ,~>
JcC<$bl@YBJcC<$JcFF'o)RDBJ,~>
JcC<$bl@YBJcC<$JcF[.o)R/;J,~>
JcC<$bl@YBJcC<$JcF[.o)R/;J,~>
JcC<$bl@YBJcC<$JcF[.o)R/;J,~>
JcC<$bl@YBJcC<$JcFp5o)Qo4J,~>
JcC<$bl@YBJcC<$JcFp5o)Qo4J,~>
JcC<$bl@YBJcC<$JcFp5o)Qo4J,~>
JcC<$bl@YBJcC<$X8i"rb5_)6_Z,,~>
JcC<$bl@YBJcC<$X8i"rb5_)6_Z,,~>
JcC<$bl@YBJcC<$X8i"rb5_)6_Z,,~>
JcC<$bl@YBJcC<$X8i"rb5_)6_Z,,~>
JcC<$bl@YBJcC<$X8i"rb5_)6_Z,,~>
JcC<$bl@YBJcC<$X8i"rb5_)6_Z,,~>
JcC<$bl@YBJcC<$XoJ>"rr;rtdf8q>]DmB~>
JcC<$bl@YBJcC<$XoJ>"rr;rtdf8q>]DmB~>
JcC<$bl@YBJcC<$XoJ>"rr;rtdf8q>]DmB~>
JcC<$bl@YBJcC<$XoJA#rVuisg&LXD[Jta~>
JcC<$bl@YBJcC<$XoJA#rVuisg&LXD[Jta~>
JcC<$bl@YBJcC<$XoJA#rVuisg&LXD[Jta~>
JcC<$bl@YBJcC<$VuQ\qi;`BKY5a"~>
JcC<$bl@YBJcC<$VuQ\qi;`BKY5a"~>
JcC<$bl@YBJcC<$VuQ\qi;`BKY5a"~>
JcC<$bl@YBJcC<$VuQ\qi;`BKY5a"~>
JcC<$bl@YBJcC<$VuQ\qi;`BKY5a"~>
JcC<$bl@YBJcC<$VuQ\qi;`BKY5a"~>
JcC<$bl@YBJcC<$VuQ_rk5Y#QVuM8~>
JcC<$bl@YBJcC<$VuQ_rk5Y#QVuM8~>
JcC<$bl@YBJcC<$VuQ_rk5Y#QVuM8~>
JcC<$bl@YBJcC<$WrN"tl2UDVT`9N~>
JcC<$bl@YBJcC<$WrN"tl2UDVT`9N~>
JcC<$bl@YBJcC<$WrN"tl2UDVT`9N~>
JcC<$bl@YBJcC<$WrN"tl2UDVT`9N~>
JcC<$bl@YBJcC<$WrN"tl2UDVT`9N~>
JcC<$bl@YBJcC<$WrN"tl2UDVT`9N~>
JcC<$bl@YBJcC<$X8i+un,N%\RK%d~>
JcC<$bl@YBJcC<$X8i+un,N%\RK%d~>
JcC<$bl@YBJcC<$X8i+un,N%\RK%d~>
JcC<$bl@YBJcC<$XoJ>"o`+L_PlH7~>
JcC<$bl@YBJcC<$XoJ>"o`+L_PlH7~>
JcC<$bl@YBJcC<$XoJ>"o`+L_PlH7~>
JcC<$bl@YBJcC<$XoJA#qZ$-eNW4M~>
JcC<$bl@YBJcC<$XoJA#qZ$-eNW4M~>
JcC<$bl@YBJcC<$XoJA#qZ$-eNW4M~>
JcC<$bl@YBJcC<$XoJA#qZ$-eNW4M~>
JcC<$bl@YBJcC<$XoJA#qZ$-eNW4M~>
JcC<$bl@YBJcC<$XoJA#qZ$-eNW4M~>
JcC<$bl@YBJcC<$XoIkjLAuc~>
JcC<$bl@YBJcC<$XoIkjLAuc~>
JcC<$bl@YBJcC<$XoIkjLAuc~>
JcC<$bl@YBJcC<$YQ+7qJcGcMJ,~>
JcC<$bl@YBJcC<$YQ+7qJcGcMJ,~>
JcC<$bl@YBJcC<$YQ+7qJcGcMJ,~>
JcC<$bl@YBJcC<$YQ+7qJcGcMJ,~>
JcC<$bl@YBJcC<$YQ+7qJcGcMJ,~>
JcC<$bl@YBJcC<$YQ+7qJcGcMJ,~>
JcC<$bl@YBJcC<$[f?"#JcGNFJ,~>
JcC<$bl@YBJcC<$[f?"#JcGNFJ,~>
JcC<$bl@YBJcC<$[f?"#JcGNFJ,~>
JcC<$bl@YBJcC<$^&R[(JcG?AJ,~>
JcC<$bl@YBJcC<$^&R[(JcG?AJ,~>
JcC<$bl@YBJcC<$^&R[(JcG?AJ,~>
JcC<$bl@YBJcC<$`;fE/JcG*:J,~>
JcC<$bl@YBJcC<$`;fE/JcG*:J,~>
JcC<$bl@YBJcC<$`;fE/JcG*:J,~>
JcC<$bl@YBJcC<$`;fE/JcG*:J,~>
JcC<$bl@YBJcC<$`;fE/JcG*:J,~>
JcC<$bl@YBJcC<$`;fE/JcG*:J,~>
JcC<$bl@YBJcC<$bQ%/6JcFj3J,~>
JcC<$bl@YBJcC<$bQ%/6JcFj3J,~>
JcC<$bl@YBJcC<$bQ%/6JcFj3J,~>
JcC<$bl@YBJcC<$dJrh=JcFU,J,~>
JcC<$bl@YBJcC<$dJrh=JcFU,J,~>
JcC<$bl@YBJcC<$dJrh=JcFU,J,~>
JcC<$bl@YBJcC<$dJrh=JcFU,J,~>
JcC<$bl@YBJcC<$dJrh=JcFU,J,~>
JcC<$bl@YBJcC<$dJrh=JcFU,J,~>
JcC<$bl@YBJcC<$f`1RDJcF@%J,~>
JcC<$bl@YBJcC<$f`1RDJcF@%J,~>
JcC<$bl@YBJcC<$f`1RDJcF@%J,~>
JcC<$bl@YBJcC<$huE9JJcF-tJ,~>
JcC<$bl@YBJcC<$huE9JJcF-tJ,~>
JcC<$bl@YBJcC<$huE9JJcF-tJ,~>
JcC<$bl@YBJcD;@q>eqCo)O@Ab5Zt~>
JcC<$bl@YBJcD;@q>eqCo)O@Ab5Zt~>
JcC<$bl@YBJcD;@q>eqCo)O@Ab5Zt~>
JcC<$bl@YBJcD;@q>eqCo)O@Ab5Zt~>
JcC<$bl@YBJcD;@q>eqCo)O@Ab5Zt~>
JcC<$bl@YBJcD;@q>eqCo)O@Ab5Zt~>
JcC<$bl@YBJcDABrW)rtr;bONo)O@A_uG5~>
JcC<$bl@YBJcDABrW)rtr;bONo)O@A_uG5~>
JcC<$bl@YBJcDABrW)rtr;bONo)O@A_uG5~>
JcC<$bl@YBJcDABrW)osrW(gTo`0RC]`3K~>
JcC<$bl@YBJcDABrW)osrW(gTo`0RC]`3K~>
JcC<$bl@YBJcDABrW)osrW(gTo`0RC]`3K~>
JcC<$bl@YBJcD,;rW)'[o`0RC[Jta~>
JcC<$bl@YBJcD,;rW)'[o`0RC[Jta~>
JcC<$bl@YBJcD,;rW)'[o`0RC[Jta~>
JcC<$bl@YBJcD,;rW)'[o`0RC[Jta~>
JcC<$bl@YBJcD,;rW)'[o`0RC[Jta~>
JcC<$bl@YBJcD,;rW)'[o`0RC[Jta~>
JcC<$bl@YBJcD8?qZ,s^o)O@AYlB4~>
JcC<$bl@YBJcD8?qZ,s^o)O@AYlB4~>
JcC<$bl@YBJcD8?qZ,s^o)O@AYlB4~>
JcC<$bl@YBJcD,;rW)Qio)O@AWW.J~>
JcC<$bl@YBJcD,;rW)Qio)O@AWW.J~>
JcC<$bl@YBJcD,;rW)Qio)O@AWW.J~>
JcC<$bl@YBJcD,;rW)Qio)O@AWW.J~>
JcC<$bl@YBJcD,;rW)Qio)O@AWW.J~>
JcC<$bl@YBJcD,;rW)Qio)O@AWW.J~>
JcC<$bl@YBJcD,;rW)fpo)O@AUAo`~>
JcC<$bl@YBJcD,;rW)fpo)O@AUAo`~>
JcC<$bl@YBJcD,;rW)fpo)O@AUAo`~>
JcC<$bl@YBJcDABrW)osrW)uuo`0RCS,\!~>
JcC<$bl@YBJcDABrW)osrW)uuo`0RCS,\!~>
JcC<$bl@YBJcDABrW)osrW)uuo`0RCS,\!~>
JcC<$bl@YBJcDABrW)uuo`0RCPlH7~>
JcC<$bl@YBJcDABrW)uuo`0RCPlH7~>
JcC<$bl@YBJcDABrW)uuo`0RCPlH7~>
JcC<$bl@YBJcDABrW)uuo`0RCPlH7~>
JcC<$bl@YBJcDABrW)uuo`0RCPlH7~>
JcC<$bl@YBJcDABrW)uuo`0RCPlH7~>
JcC<$bl@YBJcDGDo)O@AO8j_~>
JcC<$bl@YBJcDGDo)O@AO8j_~>
JcC<$bl@YBJcDGDo)O@AO8j_~>
JcC<$bl@YBJcD\Ko)O@AM#Vu~>
JcC<$bl@YBJcD\Ko)O@AM#Vu~>
JcC<$bl@YBJcD\Ko)O@AM#Vu~>
JcC<$bl@YBJcD\Ko)O@AM#Vu~>
JcC<$bl@YBJcD\Ko)O@AM#Vu~>
JcC<$bl@YBJcD\Ko)O@AM#Vu~>
JcC<$bl@YBJcDqRo)O@AJcC6~>
JcC<$bl@YBJcDqRo)O@AJcC6~>
JcC<$bl@YBJcDqRo)O@AJcC6~>
JcC<$bl@YBJcE.XoDjIBJcGTHJ,~>
JcC<$bl@YBJcE.XoDjIBJcGTHJ,~>
JcC<$bl@YBJcE.XoDjIBJcGTHJ,~>
JcC<$bl@YBJcEC_oDjIBJcG?AJ,~>
JcC<$bl@YBJcEC_oDjIBJcG?AJ,~>
JcC<$bl@YBJcEC_oDjIBJcG?AJ,~>
JcC<$bl@YBJcEC_oDjIBJcG?AJ,~>
JcC<$bl@YBJcEC_oDjIBJcG?AJ,~>
JcC<$bl@YBJcEC_oDjIBJcG?AJ,~>
JcC<$bl@YBJcEXfo)O@AJcG-;J,~>
JcC<$bl@YBJcEXfo)O@AJcG-;J,~>
JcC<$bl@YBJcEXfo)O@AJcG-;J,~>
JcC<$bl@YBJcEmmo)O@AJcFm4J,~>
JcC<$bl@YBJcEmmo)O@AJcFm4J,~>
JcC<$bl@YBJcEmmo)O@AJcFm4J,~>
JcC<$bl@YBJcEmmo)O@AJcFm4J,~>
JcC<$bl@YBJcEmmo)O@AJcFm4J,~>
JcC<$bl@YBJcEmmo)O@AJcFm4J,~>
JcC<$bl@YBJcF-to)O@AJcFX-J,~>
JcC<$bl@YBJcF-to)O@AJcFX-J,~>
JcC<$bl@YBJcF-to)O@AJcFX-J,~>
JcC<$bl@YBMuW_Ud/Wb=JcC<$f`-I~>
JcC<$bl@YBMuW_Ud/Wb=JcC<$f`-I~>
JcC<$bl@YBMuW_Ud/Wb=JcC<$f`-I~>
JcC<$bl@YBN;reUfDkLDJcC<$dJn^~>
JcC<$bl@YBN;reUfDkLDJcC<$dJn^~>
JcC<$bl@YBN;reUfDkLDJcC<$dJn^~>
JcC<$bl@YBN;reUfDkLDJcC<$dJn^~>
JcC<$bl@YBN;reUfDkLDJcC<$dJn^~>
JcC<$bl@YBN;reUfDkLDJcC<$dJn^~>
JcC<$bl@YBNrT(Y!<<#uhZ*0IJcC<$bl<1~>
JcC<$bl@YBNrT(Y!<<#uhZ*0IJcC<$bl<1~>
JcC<$bl@YBNrT(Y!<<#uhZ*0IJcC<$bl<1~>
JcC<$bl@YBO8o1Zs8W&ujo=oPJcC<$`W(G~>
JcC<$bl@YBO8o1Zs8W&ujo=oPJcC<$`W(G~>
JcC<$bl@YBO8o1Zs8W&ujo=oPJcC<$`W(G~>
JcC<$bl@YBOT5=\rVuism/QYWJcC<$^Ai]~>
JcC<$bl@YBOT5=\rVuism/QYWJcC<$^Ai]~>
JcC<$bl@YBOT5=\rVuism/QYWJcC<$^Ai]~>
JcC<$bl@YBOT5=\rVuism/QYWJcC<$^Ai]~>
JcC<$bl@YBOT5=\rVuism/QYWJcC<$^Ai]~>
JcC<$bl@YBOT5=\rVuism/QYWJcC<$^Ai]~>
JcC<$bl@YBOT5=\rVuisnc/7^JcC<$\,Us~>
JcC<$bl@YBOT5=\rVuisnc/7^JcC<$\,Us~>
JcC<$bl@YBOT5=\rVuisnc/7^JcC<$\,Us~>
JcC<$bl@YBOT5"SqZ$3gJcC<$YlB4~>
JcC<$bl@YBOT5"SqZ$3gJcC<$YlB4~>
JcC<$bl@YBOT5"SqZ$3gJcC<$YlB4~>
JcC<$bl@YBOT5"SqZ$3gJcC<$YlB4~>
JcC<$bl@YBOT5"SqZ$3gJcC<$YlB4~>
JcC<$bl@YBOT5"SqZ$3gJcC<$YlB4~>
JcC<$bl@YBMZ<YUs8VZjJcC<$X8d\~>
JcC<$bl@YBMZ<YUs8VZjJcC<$X8d\~>
JcC<$bl@YBMZ<YUs8VZjJcC<$X8d\~>
JcC<$bl@YBN;rJLJcC<$V#Pr~>
JcC<$bl@YBN;rJLJcC<$V#Pr~>
JcC<$bl@YBN;rJLJcC<$V#Pr~>
JcC<$bl@YBPQ14SJcC<$Sc=3~>
JcC<$bl@YBPQ14SJcC<$Sc=3~>
JcC<$bl@YBPQ14SJcC<$Sc=3~>
JcC<$bl@YBPQ14SJcC<$Sc=3~>
JcC<$bl@YBPQ14SJcC<$Sc=3~>
JcC<$bl@YBPQ14SJcC<$Sc=3~>
JcC<$bl@YBRK)mZJcC<$QN)I~>
JcC<$bl@YBRK)mZJcC<$QN)I~>
JcC<$bl@YBRK)mZJcC<$QN)I~>
JcC<$bl@YBT`=WaJcC<$O8j_~>
JcC<$bl@YBT`=WaJcC<$O8j_~>
JcC<$bl@YBT`=WaJcC<$O8j_~>
JcC<$bl@YBT`=WaJcC<$O8j_~>
JcC<$bl@YBT`=WaJcC<$O8j_~>
JcC<$bl@YBT`=WaJcC<$O8j_~>
JcC<$bl@YBVuQ>gJcC<$M>r)~>
JcC<$bl@YBVuQ>gJcC<$M>r)~>
JcC<$bl@YBVuQ>gJcC<$M>r)~>
JcC<$bl@YBY5e(nJcC<$K)^?~>
JcC<$bl@YBY5e(nJcC<$K)^?~>
JcC<$bl@YBY5e(nJcC<$K)^?~>
JcC<$bl@YBZiB[uJcC<$JcGWIJ,~>
JcC<$bl@YBZiB[uJcC<$JcGWIJ,~>
JcC<$bl@YBZiB[uJcC<$JcGWIJ,~>
JcC<$bl@YBZiB[uJcC<$JcGWIJ,~>
JcC<$bl@YBZiB[uJcC<$JcGWIJ,~>
JcC<$bl@YBZiB[uJcC<$JcGWIJ,~>
JcC<$bl@YB])VF'JcC<$JcGBBJ,~>
JcC<$bl@YB])VF'JcC<$JcGBBJ,~>
JcC<$bl@YB])VF'JcC<$JcGBBJ,~>
JcC<$bl@YB_>j*,JcC<$JcG3=J,~>
JcC<$bl@YB_>j*,JcC<$JcG3=J,~>
JcC<$bl@YB_>j*,JcC<$JcG3=J,~>
JcC<$bl@YB_>j*,JcC<$JcG3=J,~>
JcC<$bl@YB_>j*,JcC<$JcG3=J,~>
JcC<$bl@YB_>j*,JcC<$JcG3=J,~>
JcC<$bl@D;ci<S:JcC<$JcFs6J,~>
JcC<$bl@D;ci<S:JcC<$JcFs6J,~>
JcC<$bl@D;ci<S:JcC<$JcFs6J,~>
JcC<$bl@VAd/W\;JcC<$JcF^/J,~>
JcC<$bl@VAd/W\;JcC<$JcF^/J,~>
JcC<$bl@VAd/W\;JcC<$JcF^/J,~>
JcC<$bl@YBec57AJcC<$JcFI(J,~>
JcC<$bl@YBec57AJcC<$JcFI(J,~>
JcC<$bl@YBec57AJcC<$JcFI(J,~>
JcC<$bl@YBec57AJcC<$JcFI(J,~>
JcC<$bl@YBec57AJcC<$JcFI(J,~>
JcC<$bl@YBec57AJcC<$JcFI(J,~>
JcC<$bl@M>huE?LJcC<$JcF4!J,~>
JcC<$bl@M>huE?LJcC<$JcF4!J,~>
JcC<$bl@M>huE?LJcC<$JcF4!J,~>
JcC<$bl@YB!<;rskl:8TJcC<$JcF!pJ,~>
JcC<$bl@YB!<;rskl:8TJcC<$JcF!pJ,~>
JcC<$bl@YB!<;rskl:8TJcC<$JcF!pJ,~>
JcC<$bl@YBrVuisnGi([JcC<$JcEdjJ,~>
JcC<$bl@YBrVuisnGi([JcC<$JcEdjJ,~>
JcC<$bl@YBrVuisnGi([JcC<$JcEdjJ,~>
JcC<$bl@YBrVuisnGi([JcC<$JcEdjJ,~>
JcC<$bl@YBrVuisnGi([JcC<$JcEdjJ,~>
JcC<$bl@YBrVuisnGi([JcC<$JcEdjJ,~>
JcC<$bl@YBrVuispAaabJcC<$JcEOcJ,~>
JcC<$bl@YBrVuispAaabJcC<$JcEOcJ,~>
JcC<$bl@YBrVuispAaabJcC<$JcEOcJ,~>
JcC<$bl@YBrVuisrVuKiJcC<$JcE:\J,~>
JcC<$bl@YBrVuisrVuKiJcC<$JcE:\J,~>
JcC<$bl@YBrVuisrVuKiJcC<$JcE:\J,~>
JcC<$bl@YBrVuisrVuKiJcC<$JcE:\J,~>
JcC<$bl@YBrVuisrVuKiJcC<$JcE:\J,~>
JcC<$bl@YBrVuisrVuKiJcC<$JcE:\J,~>
JcC<$bl@VAs8VWiJcC<$JcE(VJ,~>
JcC<$bl@VAs8VWiJcC<$JcE(VJ,~>
JcC<$bl@VAs8VWiJcC<$JcE(VJ,~>
JcC<$bl@87JcC<$JcDhOJ,~>
JcC<$bl@87JcC<$JcDhOJ,~>
JcC<$bl@87JcC<$JcDhOJ,~>
JcC<$bl@M>JcC<$JcDSHJ,~>
JcC<$bl@M>JcC<$JcDSHJ,~>
JcC<$bl@M>JcC<$JcDSHJ,~>
JcC<$bl@M>JcC<$JcDSHJ,~>
JcC<$bl@M>JcC<$JcDSHJ,~>
JcC<$bl@M>JcC<$JcDSHJ,~>
JcC<$JcC<$JcC<$l2Q8~>
JcC<$JcC<$JcC<$l2Q8~>
JcC<$JcC<$JcC<$l2Q8~>
JcC<$JcC<$JcC<$l2Q8~>
JcC<$JcC<$JcC<$l2Q8~>
JcC<$JcC<$JcC<$l2Q8~>
%%EndData
showpage
%%Trailer
end
%%EOF
