%!PS-Adobe-2.0 EPSF-2.0
% % BoundingBox: 45 395 587 580
%%BoundingBox: 22.5 197.5 293.5 290
%%Title: /usr/people/alfred/TeX/ALBERTA/standard.eps
%%CreationDate: 4:25 PM July 20, 1996
%%Pages: 1
%%EndComments
%%BeginProlog
%%BeginResource ShowcaseResource
1 setlinejoin
/M  { moveto } bind def /S { show  } bind def
/R { rmoveto } bind def /L { lineto } bind def
/B { newpath 0 0 M 0 1 L 1 1 L 1 0 L closepath } bind def
/CS { closepath stroke } bind def
/S {
    /fixwidth exch def
    dup length /nchars exch def
    dup stringwidth pop
    fixwidth exch sub nchars div
    exch 0 exch ashow
} def
/bwproc {
	rgbproc
	dup length 3 idiv string 0 3 0
	5 -1 roll {
	add 2 1 roll 1 sub dup 0 eq
	{ pop 3 idiv 3 -1 roll dup 4 -1 roll dup
	  3 1 roll 5 -1 roll put 1 add 3 0 }
	{ 2 1 roll } ifelse
	} forall
	pop pop pop
} def
systemdict /colorimage known not {
	/colorimage {
		pop
		pop
		/rgbproc exch def
		{ bwproc } image
	} def
} if
1 1 scale
0.5 0.5 scale
0 setlinewidth
/drawtri {
/y3 exch def
/x3 exch def
/y2 exch def
/x2 exch def
/y1 exch def
/x1 exch def
0 setgray
newpath
x1 y1 moveto
x2 y2 lineto
x3 y3 lineto
closepath
stroke
} bind def
/filltri {
/y3 exch def
/x3 exch def
/y2 exch def
/x2 exch def
/y1 exch def
/x1 exch def
newpath
x1 y1 moveto
x2 y2 lineto
x3 y3 lineto
closepath
fill
} bind def
/cliptri {
/y3 exch def
/x3 exch def
/y2 exch def
/x2 exch def
/y1 exch def
/x1 exch def
0 setgray
newpath
x1 y1 moveto
x2 y2 lineto
x3 y3 lineto
closepath
clip
} bind def
/imgscanrgb {
gsave
translate
/scandy exch def
/scandx exch def
/istr scandx 3 mul string def
scandx scandy scale
scandx scandy 8
[scandx 0 0 scandy neg 0 scandy]
{currentfile istr readhexstring pop}
false 3
colorimage
grestore
} bind def
/imgscanbw {
gsave
translate
/scandy exch def
/scandx exch def
/istr scandx string def
scandx scandy scale
scandx scandy 8
[scandx 0 0 scandy neg 0 scandy]
{currentfile istr readhexstring pop}
image
grestore
} bind def
/showcaseisoencoding [
/.notdef /.notdef /.notdef /.notdef
/.notdef /.notdef /.notdef /.notdef
/.notdef /.notdef /.notdef /.notdef
/.notdef /.notdef /.notdef /.notdef
/.notdef /.notdef /.notdef /.notdef
/.notdef /.notdef /.notdef /.notdef
/.notdef /.notdef /.notdef /.notdef
/.notdef /.notdef /.notdef /.notdef
/space /exclam /quotedbl /numbersign
/dollar /percent /ampersand /quoteright
/parenleft /parenright /asterisk /plus
/comma /minus /period /slash
/zero /one /two /three /four /five /six /seven
/eight /nine /colon /semicolon
/less /equal /greater /question
/at /A /B /C /D /E /F /G
/H /I /J /K /L /M /N /O
/P /Q /R /S /T /U /V /W
/X /Y /Z /bracketleft
/backslash /bracketright /asciicircum /underscore
/quoteleft /a /b /c /d /e /f /g
/h /i /j /k /l /m /n /o
/p /q /r /s /t /u /v /w
/x /y /z /braceleft
/bar /braceright /asciitilde /guilsinglright
/fraction /florin /quotesingle /quotedblleft
/guilsinglleft /fi /fl /endash
/dagger /daggerdbl /bullet /quotesinglbase
/quotedblbase /quotedblright /ellipsis /trademark
/dotlessi /grave /acute /circumflex
/tilde /macron /breve /dotaccent
/dieresis /perthousand /ring /cedilla
/Ydieresis /hungarumlaut /ogonek /caron
/emdash /exclamdown /cent /sterling
/currency /yen /brokenbar /section
/dieresis /copyright /ordfeminine /guillemotleft
/logicalnot /hyphen /registered /macron
/degree /plusminus /twosuperior /threesuperior
/acute /mu /paragraph /periodcentered
/cedilla /onesuperior /ordmasculine /guillemotright
/onequarter /onehalf /threequarters /questiondown
/Agrave /Aacute /Acircumflex /Atilde
/Adieresis /Aring /AE /Ccedilla
/Egrave /Eacute /Ecircumflex /Edieresis
/Igrave /Iacute /Icircumflex /Idieresis
/Eth /Ntilde /Ograve /Oacute
/Ocircumflex /Otilde /Odieresis /multiply
/Oslash /Ugrave /Uacute /Ucircumflex
/Udieresis /Yacute /Thorn /germandbls
/agrave /aacute /acircumflex /atilde
/adieresis /aring /ae /ccedilla
/egrave /eacute /ecircumflex /edieresis
/igrave /iacute /icircumflex /idieresis
/eth /ntilde /ograve /oacute
/ocircumflex /otilde /odieresis /divide
/oslash /ugrave /uacute /ucircumflex
/udieresis /yacute /thorn /ydieresis ] def
/showcasedingbatencoding [
/.notdef /.notdef /.notdef /.notdef
/.notdef /.notdef /.notdef /.notdef
/.notdef /.notdef /.notdef /.notdef
/.notdef /.notdef /.notdef /.notdef
/.notdef /.notdef /.notdef /.notdef
/.notdef /.notdef /.notdef /.notdef
/.notdef /.notdef /.notdef /.notdef
/.notdef /.notdef /.notdef /.notdef
/.notdef /a1 /a2 /a202 /a3 /a4 /a5 /a119 /a118 /a117
/a11 /a12 /a13 /a14 /a15 /a16 /a105 /a17 /a18 /a19
/a20 /a21 /a22 /a23 /a24 /a25 /a26 /a27 /a28 /a6 /a7
/a8 /a9 /a10 /a29
/a30 /a31 /a32 /a33 /a34 /a35 /a36 /a37 /a38 /a39
/a40 /a41 /a42 /a43 /a44 /a45 /a46 /a47 /a48 /a49
/a50 /a51 /a52 /a53 /a54 /a55 /a56 /a57 /a58 /a59
/a60 /a61 /a62 /a63 /a64 /a65 /a66 /a67 /a68 /a69
/a70 /a71 /a72 /a73 /a74 /a203 /a75 /a204 /a76 /a77 /a78
/a79 /a81 /a82 /a83 /a84 /a97 /a98 /a99 /a100 /.notdef
/a205 /a85 /a206 /a86 /a87 /a88 /a89 /a90 /a91 /a92 /a93
/a94 /a95 /a96
/.notdef /.notdef /.notdef /.notdef /.notdef /.notdef
/.notdef /.notdef /.notdef /.notdef /.notdef /.notdef
/.notdef /.notdef /.notdef /.notdef /.notdef /.notdef
/.notdef /a101 /a102 /a103 /a104 /a106 /a107 /a108
/a112 /a111 /a110 /a109
/a120 /a121 /a122 /a123 /a124 /a125 /a126 /a127 /a128 /a129
/a130 /a131 /a132 /a133 /a134 /a135 /a136 /a137 /a138 /a139
/a140 /a141 /a142 /a143 /a144 /a145 /a146 /a147 /a148 /a149
/a150 /a151 /a152 /a153 /a154 /a155 /a156 /a157 /a158 /a159
/a160 /a161 /a163 /a164 /a196 /a165 /a192 /a166 /a167 /a168
/a169 /a170 /a171 /a172 /a173 /a162 /a174 /a175 /a176 /a177
/a178 /a179 /a193 /a180 /a199 /a181 /a200 /a182 /.notdef
/a201 /a183 /a184 /a197 /a185 /a194 /a198 /a186 /a195 /a187
/a188 /a189 /a190 /a191 /.notdef
] def
/Times-Roman findfont
dup length dict begin
  {1 index /FID ne {def} {pop pop} ifelse} forall
  /Encoding showcaseisoencoding def
  currentdict
end
/Times-Roman-SHOWISO exch definefont pop
/Courier findfont
dup length dict begin
  {1 index /FID ne {def} {pop pop} ifelse} forall
  /Encoding showcaseisoencoding def
  currentdict
end
/Courier-SHOWISO exch definefont pop
/newfont 10 dict def
newfont begin

 /FontType 3 def
 /FontMatrix [1 0 0 1 0 0] def
 /FontBBox [0 0 1 1] def
 /Encoding 256 array def
 0 1 255 {Encoding exch /.notdef put} for

 /CharProcs 1 dict def
 CharProcs begin
 /.notdef {} def

end

 /BuildChar {
  1 0
  0 0 1 1
  setcachedevice
  exch begin
  Encoding exch get
  CharProcs exch get
  end
  exec
 } def
end
/PatternFont newfont definefont pop

%%EndResource
%%EndProlog
%%BeginSetup
%%EndSetup
%%Page: label 1
gsave
/saveit save def
gsave
gsave
0 0 0 setrgbcolor
1.000000 setlinewidth
newpath
330 425.25 M
443.85 405 L
528 445.5 L
528 567 L
closepath
stroke
grestore
gsave
0 0 0 setrgbcolor
1.000000 setlinewidth
newpath
528 567 M
443.85 405 L
stroke
grestore
gsave
0 0 0 setrgbcolor
1.000000 setlinewidth
[4] 0 setdash
newpath
330 425.25 M
528 445.5 L
stroke
grestore
gsave
gsave
matrix currentmatrix
[1 0 0 1 292.5 402] concat
newpath
0 0 M 0 18 L 49.988 18 L 49.988 0 L
closepath setmatrix
0 0 0 setrgbcolor
grestore
newpath
290.5 400 M 290.5 422.429 L 344.488 422.429 L 344.488 400 L
closepath clip newpath
0 0 0 setrgbcolor
matrix currentmatrix
[1 0 0 1 292.5 402] concat
/Times-Roman-SHOWISO findfont 18 scalefont setfont
0 0 0 setrgbcolor
0 3.42857 M (\(0,0,0\)) 47.988 S
setmatrix
grestore
gsave
gsave
matrix currentmatrix
[1 0 0 1 459.5 395] concat
newpath
0 0 M 0 18 L 49.988 18 L 49.988 0 L
closepath setmatrix
0 0 0 setrgbcolor
grestore
newpath
457.5 393 M 457.5 415.429 L 511.488 415.429 L 511.488 393 L
closepath clip newpath
0 0 0 setrgbcolor
matrix currentmatrix
[1 0 0 1 459.5 395] concat
/Times-Roman-SHOWISO findfont 18 scalefont setfont
0 0 0 setrgbcolor
0 3.42857 M (\(1,0,0\)) 47.988 S
setmatrix
grestore
gsave
gsave
matrix currentmatrix
[1 0 0 1 537 441] concat
newpath
0 0 M 0 18 L 49.988 18 L 49.988 0 L
closepath setmatrix
0 0 0 setrgbcolor
grestore
newpath
535 439 M 535 461.429 L 588.988 461.429 L 588.988 439 L
closepath clip newpath
0 0 0 setrgbcolor
matrix currentmatrix
[1 0 0 1 537 441] concat
/Times-Roman-SHOWISO findfont 18 scalefont setfont
0 0 0 setrgbcolor
0 3.42857 M (\(1,1,0\)) 47.988 S
setmatrix
grestore
gsave
gsave
matrix currentmatrix
[1 0 0 1 533 562] concat
newpath
0 0 M 0 18 L 49.988 18 L 49.988 0 L
closepath setmatrix
0 0 0 setrgbcolor
grestore
newpath
531 560 M 531 582.429 L 584.988 582.429 L 584.988 560 L
closepath clip newpath
0 0 0 setrgbcolor
matrix currentmatrix
[1 0 0 1 533 562] concat
/Times-Roman-SHOWISO findfont 18 scalefont setfont
0 0 0 setrgbcolor
0 3.42857 M (\(1,1,1\)) 47.988 S
setmatrix
grestore
gsave
0 0 0 setrgbcolor
1.000000 setlinewidth
newpath
72 558 M
72 414 L
216 414 L
closepath
stroke
grestore
gsave
gsave
matrix currentmatrix
[1 0 0 1 220.5 405] concat
newpath
0 0 M 0 18 L 36.488 18 L 36.488 0 L
closepath setmatrix
0 0 0 setrgbcolor
grestore
newpath
218.5 403 M 218.5 425.429 L 258.988 425.429 L 258.988 403 L
closepath clip newpath
0 0 0 setrgbcolor
matrix currentmatrix
[1 0 0 1 220.5 405] concat
/Times-Roman-SHOWISO findfont 18 scalefont setfont
0 0 0 setrgbcolor
0 3.42857 M (\(1,0\)) 34.488 S
setmatrix
grestore
gsave
gsave
matrix currentmatrix
[1 0 0 1 45 396] concat
newpath
0 0 M 0 18 L 36.488 18 L 36.488 0 L
closepath setmatrix
0 0 0 setrgbcolor
grestore
newpath
43 394 M 43 416.429 L 83.488 416.429 L 83.488 394 L
closepath clip newpath
0 0 0 setrgbcolor
matrix currentmatrix
[1 0 0 1 45 396] concat
/Times-Roman-SHOWISO findfont 18 scalefont setfont
0 0 0 setrgbcolor
0 3.42857 M (\(0,0\)) 34.488 S
setmatrix
grestore
gsave
gsave
matrix currentmatrix
[1 0 0 1 45 558] concat
newpath
0 0 M 0 18 L 36.488 18 L 36.488 0 L
closepath setmatrix
0 0 0 setrgbcolor
grestore
newpath
43 556 M 43 578.429 L 83.488 578.429 L 83.488 556 L
closepath clip newpath
0 0 0 setrgbcolor
matrix currentmatrix
[1 0 0 1 45 558] concat
/Times-Roman-SHOWISO findfont 18 scalefont setfont
0 0 0 setrgbcolor
0 3.42857 M (\(0,1\)) 34.488 S
setmatrix
grestore
gsave
gsave
matrix currentmatrix
[1 0 0 1 192 416.203] concat
newpath
0 0 M 0 14 L 10.4 14 L 10.4 0 L
closepath setmatrix
0 0 0 setrgbcolor
grestore
newpath
190 414.203 M 190 432.203 L 204.4 432.203 L 204.4 414.203 L
closepath clip newpath
0 0 0 setrgbcolor
matrix currentmatrix
[1 0 0 1 192 416.203] concat
/Courier-SHOWISO findfont 14 scalefont setfont
0 0 0 setrgbcolor
0 2.8 M (0) 8.4 S
setmatrix
grestore
gsave
gsave
matrix currentmatrix
[1 0 0 1 76 532.203] concat
newpath
0 0 M 0 14 L 10.4 14 L 10.4 0 L
closepath setmatrix
0 0 0 setrgbcolor
grestore
newpath
74 530.203 M 74 548.203 L 88.4 548.203 L 88.4 530.203 L
closepath clip newpath
0 0 0 setrgbcolor
matrix currentmatrix
[1 0 0 1 76 532.203] concat
/Courier-SHOWISO findfont 14 scalefont setfont
0 0 0 setrgbcolor
0 2.8 M (1) 8.4 S
setmatrix
grestore
gsave
gsave
matrix currentmatrix
[1 0 0 1 77 416.203] concat
newpath
0 0 M 0 14 L 10.4 14 L 10.4 0 L
closepath setmatrix
0 0 0 setrgbcolor
grestore
newpath
75 414.203 M 75 432.203 L 89.4 432.203 L 89.4 414.203 L
closepath clip newpath
0 0 0 setrgbcolor
matrix currentmatrix
[1 0 0 1 77 416.203] concat
/Courier-SHOWISO findfont 14 scalefont setfont
0 0 0 setrgbcolor
0 2.8 M (2) 8.4 S
setmatrix
grestore
gsave
gsave
matrix currentmatrix
[1 0 0 1 349 426.203] concat
newpath
0 0 M 0 14 L 10.4 14 L 10.4 0 L
closepath setmatrix
0 0 0 setrgbcolor
grestore
newpath
347 424.203 M 347 442.203 L 361.4 442.203 L 361.4 424.203 L
closepath clip newpath
0 0 0 setrgbcolor
matrix currentmatrix
[1 0 0 1 349 426.203] concat
/Courier-SHOWISO findfont 14 scalefont setfont
0 0 0 setrgbcolor
0 2.8 M (0) 8.4 S
setmatrix
grestore
gsave
gsave
matrix currentmatrix
[1 0 0 1 519 534.203] concat
newpath
0 0 M 0 14 L 10.4 14 L 10.4 0 L
closepath setmatrix
0 0 0 setrgbcolor
grestore
newpath
517 532.203 M 517 550.203 L 531.4 550.203 L 531.4 532.203 L
closepath clip newpath
0 0 0 setrgbcolor
matrix currentmatrix
[1 0 0 1 519 534.203] concat
/Courier-SHOWISO findfont 14 scalefont setfont
0 0 0 setrgbcolor
0 2.8 M (1) 8.4 S
setmatrix
grestore
gsave
gsave
matrix currentmatrix
[1 0 0 1 517 448.203] concat
newpath
0 0 M 0 14 L 10.4 14 L 10.4 0 L
closepath setmatrix
0 0 0 setrgbcolor
grestore
newpath
515 446.203 M 515 464.203 L 529.4 464.203 L 529.4 446.203 L
closepath clip newpath
0 0 0 setrgbcolor
matrix currentmatrix
[1 0 0 1 517 448.203] concat
/Courier-SHOWISO findfont 14 scalefont setfont
0 0 0 setrgbcolor
0 2.8 M (2) 8.4 S
setmatrix
grestore
gsave
gsave
matrix currentmatrix
[1 0 0 1 436 407.203] concat
newpath
0 0 M 0 14 L 10.4 14 L 10.4 0 L
closepath setmatrix
0 0 0 setrgbcolor
grestore
newpath
434 405.203 M 434 423.203 L 448.4 423.203 L 448.4 405.203 L
closepath clip newpath
0 0 0 setrgbcolor
matrix currentmatrix
[1 0 0 1 436 407.203] concat
/Courier-SHOWISO findfont 14 scalefont setfont
0 0 0 setrgbcolor
0 2.8 M (3) 8.4 S
setmatrix
grestore
grestore
showpage
saveit restore
grestore
%%EOF
