%!PS-Adobe-2.0 EPSF-2.0
%%Title: submesh_numbering_3d.fig
%%Creator: fig2dev Version 3.2 Patchlevel 4
%%CreationDate: Thu Dec  7 14:15:41 2006
%%For: dani@sputnik (Daniel Koester)
%%BoundingBox: 0 0 304 207
%%Magnification: 1.0000
%%EndComments
/$F2psDict 200 dict def
$F2psDict begin
$F2psDict /mtrx matrix put
/col-1 {0 setgray} bind def
/col0 {0.000 0.000 0.000 srgb} bind def
/col1 {0.000 0.000 1.000 srgb} bind def
/col2 {0.000 1.000 0.000 srgb} bind def
/col3 {0.000 1.000 1.000 srgb} bind def
/col4 {1.000 0.000 0.000 srgb} bind def
/col5 {1.000 0.000 1.000 srgb} bind def
/col6 {1.000 1.000 0.000 srgb} bind def
/col7 {1.000 1.000 1.000 srgb} bind def
/col8 {0.000 0.000 0.560 srgb} bind def
/col9 {0.000 0.000 0.690 srgb} bind def
/col10 {0.000 0.000 0.820 srgb} bind def
/col11 {0.530 0.810 1.000 srgb} bind def
/col12 {0.000 0.560 0.000 srgb} bind def
/col13 {0.000 0.690 0.000 srgb} bind def
/col14 {0.000 0.820 0.000 srgb} bind def
/col15 {0.000 0.560 0.560 srgb} bind def
/col16 {0.000 0.690 0.690 srgb} bind def
/col17 {0.000 0.820 0.820 srgb} bind def
/col18 {0.560 0.000 0.000 srgb} bind def
/col19 {0.690 0.000 0.000 srgb} bind def
/col20 {0.820 0.000 0.000 srgb} bind def
/col21 {0.560 0.000 0.560 srgb} bind def
/col22 {0.690 0.000 0.690 srgb} bind def
/col23 {0.820 0.000 0.820 srgb} bind def
/col24 {0.500 0.190 0.000 srgb} bind def
/col25 {0.630 0.250 0.000 srgb} bind def
/col26 {0.750 0.380 0.000 srgb} bind def
/col27 {1.000 0.500 0.500 srgb} bind def
/col28 {1.000 0.630 0.630 srgb} bind def
/col29 {1.000 0.750 0.750 srgb} bind def
/col30 {1.000 0.880 0.880 srgb} bind def
/col31 {1.000 0.840 0.000 srgb} bind def
/col32 {0.750 0.750 0.750 srgb} bind def

end
save
newpath 0 207 moveto 0 0 lineto 304 0 lineto 304 207 lineto closepath clip newpath
7.8 235.8 translate
1 -1 scale

/cp {closepath} bind def
/ef {eofill} bind def
/gr {grestore} bind def
/gs {gsave} bind def
/sa {save} bind def
/rs {restore} bind def
/l {lineto} bind def
/m {moveto} bind def
/rm {rmoveto} bind def
/n {newpath} bind def
/s {stroke} bind def
/sh {show} bind def
/slc {setlinecap} bind def
/slj {setlinejoin} bind def
/slw {setlinewidth} bind def
/srgb {setrgbcolor} bind def
/rot {rotate} bind def
/sc {scale} bind def
/sd {setdash} bind def
/ff {findfont} bind def
/sf {setfont} bind def
/scf {scalefont} bind def
/sw {stringwidth} bind def
/tr {translate} bind def
/tnt {dup dup currentrgbcolor
  4 -2 roll dup 1 exch sub 3 -1 roll mul add
  4 -2 roll dup 1 exch sub 3 -1 roll mul add
  4 -2 roll dup 1 exch sub 3 -1 roll mul add srgb}
  bind def
/shd {dup dup currentrgbcolor 4 -2 roll mul 4 -2 roll mul
  4 -2 roll mul srgb} bind def
/$F2psBegin {$F2psDict begin /$F2psEnteredState save def} def
/$F2psEnd {$F2psEnteredState restore end} def

$F2psBegin
10 setmiterlimit
0 slj 0 slc
 0.06299 0.06299 sc
%
% Fig objects follow
%
% 
% here starts figure with depth 51
% Polyline
7.500 slw
n 1249 1940 m
 2095 1660 l gs col32 s gr 
% Polyline
n 1436 3003 m
 1991 2820 l gs col32 s gr 
% Polyline
1 slj
1 slc
30.000 slw
n 1071 2645 m
 2713 2098 l gs col32 s gr 
% Polyline
 [15 90] 90 sd
n 1075 2640 m
 2162 2640 l gs col32 s gr  [] 0 sd
% Polyline
0 slj
0 slc
7.500 slw
 [15 45] 45 sd
n 3260 1186 m
 3990 2645 l gs col0 s gr  [] 0 sd
% Polyline
n -23 2645 m 341 1186 l 524 3193 l
 -23 2645 l  cp gs col0 s gr 
% Polyline
n 3260 1186 m 4537 2098 l
 3443 3193 l gs col0 s gr 
% Polyline
n 3260 1186 m
 3443 3193 l gs col0 s gr 
% Polyline
 [15 45] 45 sd
n 1087 3128 m
 2181 3128 l gs col0 s gr  [] 0 sd
% Polyline
n 2716 2595 m
 1622 3690 l gs col0 s gr 
% Polyline
n 1079 3127 m
 1619 3686 l gs col0 s gr 
% Polyline
1 slj
1 slc
30.000 slw
n 1071 2645 m 1438 1202 l 1618 3193 l
 1071 2645 l  cp gs col0 s gr 
% Polyline
n 1447 1193 m 2713 2098 l
 1618 3193 l gs col0 s gr 
/Times-Bold ff 180.00 scf sf
2822 2159 m
gs 1 -1 sc (1) col0 sh gr
/Times-Bold ff 180.00 scf sf
889 2742 m
gs 1 -1 sc (2) col0 sh gr
/Times-Roman ff 150.00 scf sf
-124 2698 m
gs 1 -1 sc (0) col0 sh gr
/Times-Roman ff 150.00 scf sf
606 3282 m
gs 1 -1 sc (1) col0 sh gr
/Times-Roman ff 150.00 scf sf
338 1108 m
gs 1 -1 sc (2) col0 sh gr
/Times-Roman ff 150.00 scf sf
4619 2106 m
gs 1 -1 sc (1) col0 sh gr
/Times-Roman ff 150.00 scf sf
3192 1125 m
gs 1 -1 sc (2) col0 sh gr
/Times-Roman ff 150.00 scf sf
3435 3403 m
gs 1 -1 sc (0) col0 sh gr
/Times-Roman ff 150.00 scf sf
2811 1482 m
gs 1 -1 sc (1) col0 sh gr
/Times-Roman ff 150.00 scf sf
1587 565 m
gs 1 -1 sc (0) col0 sh gr
/Times-Bold ff 180.00 scf sf
1505 1141 m
gs 1 -1 sc (3) col0 sh gr
/Times-Roman ff 150.00 scf sf
962 2009 m
gs 1 -1 sc (2) col0 sh gr
/Times-Bold ff 180.00 scf sf
1594 3367 m
gs 1 -1 sc (0) col0 sh gr
/Times-Roman ff 150.00 scf sf
962 3193 m
gs 1 -1 sc (2) col0 sh gr
/Times-Roman ff 150.00 scf sf
1773 3744 m
gs 1 -1 sc (1) col0 sh gr
/Times-Roman ff 150.00 scf sf
2779 2657 m
gs 1 -1 sc (0) col0 sh gr
% Polyline
0 slj
0 slc
7.500 slw
n 1073 3128 m
 1430 3010 l gs col0 s gr 
% Polyline
n 1986 2820 m
 2710 2580 l gs col0 s gr 
% Polyline
n 1071 1998 m
 1246 1940 l gs col0 s gr 
% Polyline
n 2098 1657 m
 2715 1449 l gs col0 s gr 
% Polyline
n 1072 1999 m 1434 535 l
 2714 1447 l gs col0 s gr 
% Polyline
1 slj
1 slc
30.000 slw
 [15 90] 90 sd
n 2162 2640 m
 1452 1215 l gs col-1 s gr  [] 0 sd
% here ends figure;
$F2psEnd
rs
showpage
