%!PS-Adobe-3.0 EPSF-3.0
%%BoundingBox: (atend)
%%LanguageLevel: 2
%%Creator: Grace-5.1.8
%%CreationDate: Wed Mar 26 11:15:18 2003
%%DocumentData: Clean8Bit
%%Orientation: Portrait
%%Title: /home/kgs/tmp/tau-3d.agr
%%For: kgs
%%DocumentNeededResources: (atend)
%%EndComments
%%BeginProlog
/m {moveto} def
/l {lineto} def
/s {stroke} def
/n {newpath} def
/c {closepath} def
/RL {rlineto} def
/SLW {setlinewidth} def
/GS {gsave} def
/GR {grestore} def
/SC {setcolor} def
/SGRY {setgray} def
/SRGB {setrgbcolor} def
/SD {setdash} def
/SLC {setlinecap} def
/SLJ {setlinejoin} def
/SCS {setcolorspace} def
/FFSF {findfont setfont} def
/CC {concat} def
/PXL {n m 0 0 RL s} def
/Color0 {1.0000 1.0000 1.0000} def
/Color1 {0.0000 0.0000 0.0000} def
/Color2 {1.0000 0.0000 0.0000} def
/Color3 {0.0000 1.0000 0.0000} def
/Color4 {0.0000 0.0000 1.0000} def
/Color5 {1.0000 1.0000 0.0000} def
/Color6 {0.7373 0.5608 0.5608} def
/Color7 {0.8627 0.8627 0.8627} def
/Color8 {0.5804 0.0000 0.8275} def
/Color9 {0.0000 1.0000 1.0000} def
/Color10 {1.0000 0.0000 1.0000} def
/Color11 {1.0000 0.6471 0.0000} def
/Color12 {0.4471 0.1294 0.7373} def
/Color13 {0.4039 0.0275 0.2824} def
/Color14 {0.2510 0.8784 0.8157} def
/Color15 {0.0000 0.5451 0.0000} def
/Color16 {0.7529 0.7529 0.7529} def
/Color17 {0.5059 0.5059 0.5059} def
/Color18 {0.2588 0.2588 0.2588} def
/PTRN {
 /pat_bits exch def 
 <<
  /PaintType 2
  /PatternType 1 /TilingType 1
  /BBox[0 0 16 16]
  /XStep 16 /YStep 16
  /PaintProc {
   pop
   16 16 true [-1 0 0 -1 16 16] pat_bits imagemask
  }
 >>
 [0.0017 0 0 0.0017 0 0]
 makepattern
} def
/Pattern0 {<0000000000000000000000000000000000000000000000000000000000000000> PTRN} bind def
/Pattern1 {<ffffffffffffffffffffffffffffffffffffffffffffffffffffffffffffffff> PTRN} bind def
/Pattern2 {<eeeeffffbbbbffffeeeeffffbbbbffffeeeeffffbbbbffffeeeeffffbbbbffff> PTRN} bind def
/Pattern3 {<eeeebbbbeeeebbbbeeeebbbbeeeebbbbeeeebbbbeeeebbbbeeeebbbbeeeebbbb> PTRN} bind def
/Pattern4 {<5555aaaa5555aaaa5555aaaa5555aaaa5555aaaa5555aaaa5555aaaa5555aaaa> PTRN} bind def
/Pattern5 {<1111444411114444111144441111444411114444111144441111444411114444> PTRN} bind def
/Pattern6 {<1111000044440000111100004444000011110000444400001111000044440000> PTRN} bind def
/Pattern7 {<1010000000000000010100000000000010100000000000000101000000000000> PTRN} bind def
/Pattern8 {<0000000000000000000000000000000000000000000000000000000000000000> PTRN} bind def
/Pattern9 {<1e1e0f0f8787c3c3e1e1f0f078783c3c1e1e0f0f8787c3c3e1e1f0f078783c3c> PTRN} bind def
/Pattern10 {<7878f0f0e1e1c3c387870f0f1e1e3c3c7878f0f0e1e1c3c387870f0f1e1e3c3c> PTRN} bind def
/Pattern11 {<3333333333333333333333333333333333333333333333333333333333333333> PTRN} bind def
/Pattern12 {<ffffffff00000000ffffffff00000000ffffffff00000000ffffffff00000000> PTRN} bind def
/Pattern13 {<8181424224241818181824244242818181814242242418181818242442428181> PTRN} bind def
/Pattern14 {<8080404020201010080804040202010180804040202010100808040402020101> PTRN} bind def
/Pattern15 {<0101020204040808101020204040808001010202040408081010202040408080> PTRN} bind def
/Pattern16 {<2222222222222222222222222222222222222222222222222222222222222222> PTRN} bind def
/Pattern17 {<0000ffff000000000000ffff000000000000ffff000000000000ffff00000000> PTRN} bind def
/Pattern18 {<2222ffff222222222222ffff222222222222ffff222222222222ffff22222222> PTRN} bind def
/Pattern19 {<ffffffff33333333ffffffff33333333ffffffff33333333ffffffff33333333> PTRN} bind def
/Pattern20 {<0f0f0f0f0f0f0f0ff0f0f0f0f0f0f0f00f0f0f0f0f0f0f0ff0f0f0f0f0f0f0f0> PTRN} bind def
/Pattern21 {<ff00ff00ff00ff00ff00ff00ff00ff0000ff00ff00ff00ff00ff00ff00ff00ff> PTRN} bind def
/Pattern22 {<8001800180018001800180018001ffffffff8001800180018001800180018001> PTRN} bind def
/Pattern23 {<c003c003c003c003c003c003ffffffffffffffffc003c003c003c003c003c003> PTRN} bind def
/Pattern24 {<040404040404ffff404040404040ffff040404040404ffff404040404040ffff> PTRN} bind def
/Pattern25 {<180018001800180018001800ffffffff001800180018001800180018ffffffff> PTRN} bind def
/Pattern26 {<1111b8b87c7c3a3a1111a3a3c7c78b8b1111b8b87c7c3a3a1111a3a3c7c78b8b> PTRN} bind def
/Pattern27 {<101010102828c7c70101010182827c7c101010102828c7c70101010182827c7c> PTRN} bind def
/Pattern28 {<1c1c121211112121c1c12121111112121c1c121211112121c1c1212111111212> PTRN} bind def
/Pattern29 {<3e3e414180808080e3e31414080808083e3e414180808080e3e3141408080808> PTRN} bind def
/Pattern30 {<4848888884848383848488884848383848488888848483838484888848483838> PTRN} bind def
/Pattern31 {<03030404080808080c0c12122121c0c003030404080808080c0c12122121c0c0> PTRN} bind def
/ellipsedict 8 dict def
ellipsedict /mtrx matrix put
/EARC {
 ellipsedict begin
  /endangle exch def
  /startangle exch def
  /yrad exch def
  /xrad exch def
  /y exch def
  /x exch def
  /savematrix mtrx currentmatrix def
  x y translate
  xrad yrad scale
  0 0 1 startangle endangle arc
  savematrix setmatrix
 end
} def
/TL {
  /kcomp exch def
  /linewidth exch def
  /offset exch def
  GS
  0 offset rmoveto
  linewidth SLW
  dup stringwidth exch kcomp add exch RL s
  GR
} def
/KINIT
{
 /kvector exch def
 /kid 0 def
} def
/KPROC
{
 pop pop
 kvector kid get
 0 rmoveto
 /kid 1 kid add def
} def
/DefEncoding [
 /.notdef
 /.notdef
 /.notdef
 /.notdef
 /.notdef
 /.notdef
 /.notdef
 /.notdef
 /.notdef
 /.notdef
 /.notdef
 /.notdef
 /.notdef
 /.notdef
 /.notdef
 /.notdef
 /.notdef
 /.notdef
 /.notdef
 /.notdef
 /.notdef
 /.notdef
 /.notdef
 /.notdef
 /.notdef
 /.notdef
 /.notdef
 /.notdef
 /.notdef
 /.notdef
 /.notdef
 /.notdef
 /space
 /exclam
 /quotedbl
 /numbersign
 /dollar
 /percent
 /ampersand
 /quoteright
 /parenleft
 /parenright
 /asterisk
 /plus
 /comma
 /hyphen
 /period
 /slash
 /zero
 /one
 /two
 /three
 /four
 /five
 /six
 /seven
 /eight
 /nine
 /colon
 /semicolon
 /less
 /equal
 /greater
 /question
 /at
 /A
 /B
 /C
 /D
 /E
 /F
 /G
 /H
 /I
 /J
 /K
 /L
 /M
 /N
 /O
 /P
 /Q
 /R
 /S
 /T
 /U
 /V
 /W
 /X
 /Y
 /Z
 /bracketleft
 /backslash
 /bracketright
 /asciicircum
 /underscore
 /grave
 /a
 /b
 /c
 /d
 /e
 /f
 /g
 /h
 /i
 /j
 /k
 /l
 /m
 /n
 /o
 /p
 /q
 /r
 /s
 /t
 /u
 /v
 /w
 /x
 /y
 /z
 /braceleft
 /bar
 /braceright
 /asciitilde
 /.notdef
 /.notdef
 /.notdef
 /.notdef
 /.notdef
 /.notdef
 /.notdef
 /.notdef
 /.notdef
 /.notdef
 /.notdef
 /.notdef
 /.notdef
 /.notdef
 /.notdef
 /.notdef
 /.notdef
 /dotlessi
 /grave
 /acute
 /circumflex
 /tilde
 /macron
 /breve
 /dotaccent
 /dieresis
 /.notdef
 /ring
 /cedilla
 /.notdef
 /hungarumlaut
 /ogonek
 /caron
 /space
 /exclamdown
 /cent
 /sterling
 /currency
 /yen
 /brokenbar
 /section
 /dieresis
 /copyright
 /ordfeminine
 /guillemotleft
 /logicalnot
 /hyphen
 /registered
 /macron
 /degree
 /plusminus
 /twosuperior
 /threesuperior
 /acute
 /mu
 /paragraph
 /periodcentered
 /cedilla
 /onesuperior
 /ordmasculine
 /guillemotright
 /onequarter
 /onehalf
 /threequarters
 /questiondown
 /Agrave
 /Aacute
 /Acircumflex
 /Atilde
 /Adieresis
 /Aring
 /AE
 /Ccedilla
 /Egrave
 /Eacute
 /Ecircumflex
 /Edieresis
 /Igrave
 /Iacute
 /Icircumflex
 /Idieresis
 /Eth
 /Ntilde
 /Ograve
 /Oacute
 /Ocircumflex
 /Otilde
 /Odieresis
 /multiply
 /Oslash
 /Ugrave
 /Uacute
 /Ucircumflex
 /Udieresis
 /Yacute
 /Thorn
 /germandbls
 /agrave
 /aacute
 /acircumflex
 /atilde
 /adieresis
 /aring
 /ae
 /ccedilla
 /egrave
 /eacute
 /ecircumflex
 /edieresis
 /igrave
 /iacute
 /icircumflex
 /idieresis
 /eth
 /ntilde
 /ograve
 /oacute
 /ocircumflex
 /otilde
 /odieresis
 /divide
 /oslash
 /ugrave
 /uacute
 /ucircumflex
 /udieresis
 /yacute
 /thorn
 /ydieresis
] def
%%EndProlog
%%BeginSetup
591.84 591.84 scale
%%EndSetup
[/DeviceRGB] SCS
Color1 SC
[] 0 SD
0.0015 SLW
0 SLC
0 SLJ
n
0.1511 0.2094 m
0.1515 0.1710 l
0.1519 0.1710 l
0.1523 0.1710 l
0.1527 0.1710 l
0.1531 0.1710 l
0.1535 0.1710 l
0.1539 0.1710 l
0.1543 0.1710 l
0.1547 0.1710 l
0.1551 0.1710 l
0.1555 0.1710 l
0.1559 0.1710 l
0.1563 0.1710 l
0.1567 0.1710 l
0.1571 0.1710 l
0.1575 0.1710 l
0.1579 0.1710 l
0.1583 0.1710 l
0.1587 0.1710 l
0.1591 0.1710 l
0.1595 0.1710 l
0.1599 0.1710 l
0.1603 0.1710 l
0.1607 0.1710 l
0.1611 0.1710 l
0.1615 0.1710 l
0.1619 0.1710 l
0.1623 0.1710 l
0.1627 0.1710 l
0.1631 0.1710 l
0.1635 0.1710 l
0.1639 0.1710 l
0.1643 0.1710 l
0.1647 0.1710 l
0.1651 0.1710 l
0.1655 0.1710 l
0.1659 0.1710 l
0.1663 0.1710 l
0.1667 0.1710 l
0.1671 0.1710 l
0.1675 0.1710 l
0.1679 0.1710 l
0.1683 0.1710 l
0.1687 0.1710 l
0.1691 0.1710 l
0.1695 0.1710 l
0.1699 0.1710 l
0.1703 0.1710 l
0.1707 0.1710 l
0.1711 0.1710 l
0.1715 0.1710 l
0.1719 0.1710 l
0.1723 0.1710 l
0.1727 0.1710 l
0.1731 0.1710 l
0.1735 0.1710 l
0.1739 0.1710 l
0.1743 0.1710 l
0.1747 0.1710 l
0.1751 0.1710 l
0.1755 0.1710 l
0.1759 0.1710 l
0.1763 0.1710 l
0.1767 0.1710 l
0.1771 0.1710 l
0.1775 0.1710 l
0.1779 0.1710 l
0.1783 0.1710 l
0.1787 0.1710 l
0.1791 0.1710 l
0.1795 0.1710 l
0.1799 0.1710 l
0.1803 0.1710 l
0.1807 0.1710 l
0.1811 0.1710 l
0.1815 0.1710 l
0.1819 0.1710 l
0.1823 0.1710 l
0.1827 0.1710 l
0.1831 0.1710 l
0.1835 0.1710 l
0.1839 0.1710 l
0.1843 0.1710 l
0.1847 0.1710 l
0.1851 0.1710 l
0.1855 0.1710 l
0.1859 0.1710 l
0.1863 0.1710 l
0.1867 0.1710 l
0.1871 0.1710 l
0.1875 0.1710 l
0.1879 0.1710 l
0.1883 0.1710 l
0.1887 0.1710 l
0.1891 0.1710 l
0.1895 0.1710 l
0.1899 0.1710 l
0.1903 0.1710 l
0.1907 0.1710 l
0.1911 0.1710 l
0.1915 0.1710 l
0.1919 0.1710 l
0.1923 0.1710 l
0.1927 0.1710 l
0.1931 0.1710 l
0.1935 0.1710 l
0.1939 0.1710 l
0.1943 0.1710 l
0.1947 0.1710 l
0.1951 0.1710 l
0.1955 0.1710 l
0.1959 0.1710 l
0.1963 0.1710 l
0.1967 0.1710 l
0.1971 0.1710 l
0.1975 0.1710 l
0.1979 0.1710 l
0.1983 0.1710 l
0.1987 0.1710 l
0.1991 0.1710 l
0.1995 0.1710 l
0.1999 0.1710 l
0.2003 0.1710 l
0.2007 0.1710 l
0.2011 0.1710 l
0.2015 0.1710 l
0.2019 0.1710 l
0.2023 0.1710 l
0.2027 0.1710 l
0.2031 0.1710 l
0.2035 0.1710 l
0.2039 0.1710 l
0.2043 0.1710 l
0.2047 0.1710 l
0.2051 0.1710 l
0.2055 0.1710 l
0.2059 0.1710 l
0.2063 0.1710 l
0.2067 0.1710 l
0.2071 0.1710 l
0.2075 0.1710 l
0.2079 0.1710 l
0.2083 0.1710 l
0.2087 0.1710 l
0.2091 0.1710 l
0.2095 0.1710 l
0.2099 0.1710 l
0.2103 0.1710 l
0.2107 0.1710 l
0.2111 0.1710 l
0.2115 0.1710 l
0.2119 0.1710 l
0.2123 0.1710 l
0.2127 0.1710 l
0.2131 0.1710 l
0.2135 0.1710 l
0.2139 0.1710 l
0.2143 0.1710 l
0.2147 0.1710 l
0.2151 0.1710 l
0.2155 0.1710 l
0.2159 0.1710 l
0.2163 0.1710 l
0.2167 0.1710 l
0.2171 0.1710 l
0.2175 0.1710 l
0.2179 0.1710 l
0.2183 0.1710 l
0.2187 0.1710 l
0.2191 0.1710 l
0.2195 0.1710 l
0.2199 0.1710 l
0.2203 0.1710 l
0.2207 0.1710 l
0.2211 0.1710 l
0.2215 0.1710 l
0.2219 0.1710 l
0.2223 0.1710 l
0.2227 0.1710 l
0.2231 0.1710 l
0.2235 0.1710 l
0.2239 0.1710 l
0.2243 0.1710 l
0.2247 0.1710 l
0.2251 0.1710 l
0.2255 0.1710 l
0.2259 0.1710 l
0.2263 0.1710 l
0.2267 0.1710 l
0.2271 0.1710 l
0.2275 0.1710 l
0.2279 0.1710 l
0.2283 0.1710 l
0.2287 0.1710 l
0.2291 0.1797 l
0.2296 0.1797 l
0.2302 0.1797 l
0.2308 0.1797 l
0.2313 0.1797 l
0.2319 0.1797 l
0.2325 0.1797 l
0.2330 0.1797 l
0.2336 0.1797 l
0.2342 0.1797 l
0.2347 0.1797 l
0.2353 0.1797 l
0.2359 0.1797 l
0.2364 0.1797 l
0.2370 0.1797 l
0.2376 0.1797 l
0.2381 0.1797 l
0.2387 0.1797 l
0.2393 0.1797 l
0.2398 0.1797 l
0.2404 0.1920 l
0.2412 0.1920 l
0.2420 0.1920 l
0.2428 0.1920 l
0.2436 0.1920 l
0.2444 0.1920 l
0.2452 0.1920 l
0.2460 0.1920 l
0.2468 0.1920 l
0.2476 0.1920 l
0.2484 0.2094 l
0.2495 0.2094 l
0.2506 0.2094 l
0.2518 0.2094 l
0.2529 0.2094 l
0.2540 0.2341 l
0.2556 0.2341 l
0.2572 0.2341 l
0.2588 0.2689 l
0.2611 0.3181 l
0.2643 0.3877 l
0.2688 0.4862 l
0.2752 0.4862 l
0.2784 0.3181 l
0.2816 0.3181 l
0.2839 0.2689 l
0.2861 0.2689 l
0.2884 0.2689 l
0.2900 0.2340 l
0.2916 0.2340 l
0.2932 0.2340 l
0.2948 0.2340 l
0.2964 0.2340 l
0.2975 0.2094 l
0.2986 0.2094 l
0.2998 0.2094 l
0.3009 0.2094 l
0.3020 0.2094 l
0.3032 0.2094 l
0.3043 0.2094 l
0.3054 0.2094 l
0.3066 0.2094 l
0.3077 0.2094 l
0.3088 0.2094 l
0.3099 0.2094 l
0.3107 0.1920 l
0.3115 0.1920 l
0.3123 0.1920 l
0.3131 0.1920 l
0.3139 0.1920 l
0.3147 0.1920 l
0.3155 0.1920 l
0.3163 0.1920 l
0.3171 0.1920 l
0.3179 0.1920 l
0.3187 0.1920 l
0.3195 0.1920 l
0.3203 0.1920 l
0.3211 0.1920 l
0.3219 0.1920 l
0.3227 0.1920 l
0.3235 0.1920 l
0.3243 0.1920 l
0.3251 0.1920 l
0.3259 0.1920 l
0.3267 0.1920 l
0.3275 0.1920 l
0.3283 0.1920 l
0.3291 0.1920 l
0.3299 0.1920 l
0.3307 0.1920 l
0.3315 0.1920 l
0.3321 0.1797 l
0.3327 0.1797 l
0.3332 0.1797 l
0.3338 0.1797 l
0.3344 0.1797 l
0.3349 0.1797 l
0.3355 0.1797 l
0.3360 0.1797 l
0.3366 0.1797 l
0.3372 0.1797 l
0.3377 0.1797 l
0.3383 0.1797 l
0.3389 0.1797 l
0.3394 0.1797 l
0.3400 0.1797 l
0.3406 0.1797 l
0.3411 0.1797 l
0.3417 0.1797 l
0.3423 0.1797 l
0.3428 0.1797 l
0.3434 0.1797 l
0.3440 0.1797 l
0.3445 0.1797 l
0.3451 0.1797 l
0.3457 0.1797 l
0.3462 0.1797 l
0.3468 0.1797 l
0.3474 0.1797 l
0.3479 0.1797 l
0.3485 0.1797 l
0.3490 0.1797 l
0.3496 0.1797 l
0.3502 0.1797 l
0.3507 0.1797 l
0.3513 0.1797 l
0.3519 0.1797 l
0.3524 0.1797 l
0.3530 0.1797 l
0.3536 0.1797 l
0.3541 0.1797 l
0.3547 0.1797 l
0.3553 0.1797 l
0.3558 0.1797 l
0.3564 0.1797 l
0.3570 0.1797 l
0.3575 0.1797 l
0.3581 0.1797 l
0.3587 0.1797 l
0.3592 0.1797 l
0.3598 0.1797 l
0.3604 0.1797 l
0.3609 0.1797 l
0.3615 0.1797 l
0.3620 0.1797 l
0.3626 0.1797 l
0.3632 0.1797 l
0.3637 0.1797 l
0.3643 0.1797 l
0.3649 0.1797 l
0.3654 0.1797 l
0.3660 0.1797 l
0.3666 0.1797 l
0.3671 0.1797 l
0.3677 0.1797 l
0.3683 0.1797 l
0.3688 0.1797 l
0.3694 0.1797 l
0.3700 0.1797 l
0.3705 0.1797 l
0.3711 0.1797 l
0.3717 0.1797 l
0.3722 0.1797 l
0.3728 0.1797 l
0.3734 0.1797 l
0.3739 0.1797 l
0.3745 0.1797 l
0.3749 0.1710 l
0.3753 0.1710 l
0.3757 0.1710 l
0.3761 0.1710 l
0.3765 0.1710 l
0.3769 0.1710 l
0.3773 0.1710 l
0.3777 0.1710 l
0.3781 0.1710 l
0.3785 0.1710 l
0.3789 0.1710 l
0.3793 0.1710 l
0.3797 0.1710 l
0.3801 0.1710 l
0.3805 0.1710 l
0.3809 0.1710 l
0.3813 0.1710 l
0.3817 0.1710 l
0.3821 0.1710 l
0.3825 0.1710 l
0.3829 0.1710 l
0.3833 0.1710 l
0.3837 0.1710 l
0.3841 0.1710 l
0.3845 0.1710 l
0.3849 0.1710 l
0.3853 0.1710 l
0.3857 0.1710 l
0.3861 0.1710 l
0.3865 0.1710 l
0.3869 0.1710 l
0.3873 0.1710 l
0.3877 0.1710 l
0.3881 0.1710 l
0.3885 0.1710 l
0.3889 0.1710 l
0.3893 0.1710 l
0.3897 0.1710 l
0.3901 0.1710 l
0.3905 0.1710 l
0.3909 0.1710 l
0.3913 0.1710 l
0.3917 0.1710 l
0.3921 0.1710 l
0.3925 0.1710 l
0.3929 0.1710 l
0.3933 0.1710 l
0.3937 0.1710 l
0.3941 0.1710 l
0.3945 0.1710 l
0.3949 0.1710 l
0.3953 0.1710 l
0.3957 0.1710 l
0.3961 0.1710 l
0.3965 0.1710 l
0.3969 0.1710 l
0.3973 0.1710 l
0.3977 0.1710 l
0.3981 0.1710 l
0.3985 0.1710 l
0.3989 0.1710 l
0.3993 0.1710 l
0.3997 0.1710 l
0.4001 0.1710 l
0.4005 0.1710 l
0.4009 0.1710 l
0.4013 0.1710 l
0.4017 0.1710 l
0.4021 0.1710 l
0.4025 0.1710 l
0.4029 0.1710 l
0.4033 0.1710 l
0.4037 0.1710 l
0.4041 0.1710 l
0.4045 0.1710 l
0.4049 0.1710 l
0.4053 0.1710 l
0.4057 0.1710 l
0.4061 0.1710 l
0.4065 0.1710 l
0.4069 0.1710 l
0.4073 0.1710 l
0.4077 0.1710 l
0.4081 0.1710 l
0.4085 0.1710 l
0.4089 0.1710 l
0.4093 0.1710 l
0.4097 0.1710 l
0.4101 0.1710 l
0.4105 0.1710 l
0.4109 0.1710 l
0.4113 0.1710 l
0.4117 0.1710 l
0.4121 0.1710 l
0.4125 0.1710 l
0.4129 0.1710 l
0.4133 0.1710 l
0.4137 0.1710 l
0.4140 0.1710 l
0.4144 0.1710 l
0.4148 0.1710 l
0.4152 0.1710 l
0.4156 0.1710 l
0.4160 0.1710 l
0.4164 0.1710 l
0.4168 0.1710 l
0.4172 0.1710 l
0.4176 0.1710 l
0.4180 0.1710 l
0.4184 0.1710 l
0.4188 0.1710 l
0.4192 0.1710 l
0.4196 0.1710 l
0.4200 0.1710 l
0.4204 0.1710 l
0.4208 0.1710 l
0.4212 0.1710 l
0.4216 0.1710 l
0.4220 0.1710 l
0.4224 0.1710 l
0.4228 0.1710 l
0.4232 0.1710 l
0.4236 0.1710 l
0.4240 0.1710 l
0.4244 0.1710 l
0.4248 0.1710 l
0.4252 0.1710 l
0.4256 0.1710 l
0.4260 0.1710 l
0.4264 0.1710 l
0.4268 0.1710 l
0.4272 0.1710 l
0.4276 0.1710 l
0.4280 0.1710 l
0.4284 0.1710 l
0.4288 0.1710 l
0.4292 0.1710 l
0.4296 0.1710 l
0.4300 0.1710 l
0.4304 0.1710 l
0.4308 0.1710 l
0.4312 0.1710 l
0.4316 0.1710 l
0.4320 0.1710 l
0.4324 0.1710 l
0.4328 0.1710 l
0.4332 0.1710 l
0.4336 0.1710 l
0.4340 0.1710 l
0.4344 0.1710 l
0.4348 0.1710 l
0.4352 0.1710 l
0.4356 0.1710 l
0.4360 0.1710 l
0.4364 0.1710 l
0.4368 0.1710 l
0.4372 0.1710 l
0.4376 0.1710 l
0.4380 0.1710 l
0.4384 0.1710 l
0.4388 0.1710 l
0.4392 0.1710 l
0.4396 0.1710 l
0.4400 0.1710 l
0.4404 0.1710 l
0.4408 0.1710 l
0.4412 0.1710 l
0.4416 0.1710 l
0.4420 0.1710 l
0.4424 0.1710 l
0.4428 0.1710 l
0.4432 0.1710 l
0.4436 0.1710 l
0.4440 0.1710 l
0.4444 0.1710 l
0.4448 0.1710 l
0.4452 0.1710 l
0.4456 0.1710 l
0.4460 0.1710 l
0.4464 0.1710 l
0.4468 0.1710 l
0.4472 0.1710 l
0.4476 0.1710 l
0.4480 0.1710 l
0.4484 0.1710 l
0.4488 0.1710 l
0.4492 0.1710 l
0.4496 0.1710 l
0.4500 0.1710 l
0.4504 0.1710 l
0.4508 0.1710 l
0.4512 0.1710 l
0.4516 0.1710 l
0.4520 0.1710 l
0.4524 0.1710 l
0.4528 0.1710 l
0.4532 0.1710 l
0.4536 0.1710 l
0.4540 0.1710 l
0.4544 0.1710 l
0.4548 0.1710 l
0.4552 0.1710 l
0.4556 0.1710 l
0.4560 0.1710 l
0.4564 0.1710 l
0.4568 0.1710 l
0.4572 0.1710 l
0.4576 0.1710 l
0.4580 0.1710 l
0.4584 0.1710 l
0.4588 0.1710 l
0.4592 0.1710 l
0.4596 0.1710 l
0.4600 0.1710 l
0.4604 0.1710 l
0.4608 0.1710 l
0.4612 0.1710 l
0.4616 0.1710 l
0.4620 0.1710 l
0.4624 0.1710 l
0.4628 0.1710 l
0.4632 0.1710 l
0.4636 0.1710 l
0.4640 0.1710 l
0.4644 0.1710 l
0.4648 0.1710 l
0.4652 0.1710 l
0.4656 0.1710 l
0.4660 0.1710 l
0.4664 0.1710 l
0.4668 0.1710 l
0.4672 0.1710 l
0.4676 0.1710 l
0.4680 0.1710 l
0.4684 0.1710 l
0.4688 0.1710 l
0.4692 0.1710 l
0.4696 0.1710 l
0.4700 0.1710 l
0.4704 0.1710 l
0.4708 0.1710 l
0.4712 0.1710 l
0.4716 0.1710 l
0.4720 0.1710 l
0.4724 0.1710 l
0.4728 0.1710 l
0.4732 0.1710 l
0.4736 0.1710 l
0.4740 0.1710 l
0.4744 0.1710 l
0.4748 0.1710 l
0.4752 0.1710 l
0.4756 0.1710 l
0.4760 0.1710 l
0.4764 0.1710 l
0.4768 0.1710 l
0.4772 0.1710 l
0.4776 0.1710 l
0.4780 0.1710 l
0.4784 0.1710 l
0.4788 0.1710 l
0.4792 0.1710 l
0.4796 0.1710 l
0.4800 0.1710 l
0.4804 0.1710 l
0.4808 0.1710 l
0.4812 0.1710 l
0.4816 0.1710 l
0.4820 0.1710 l
0.4824 0.1710 l
0.4828 0.1710 l
0.4832 0.1710 l
0.4836 0.1710 l
0.4840 0.1710 l
0.4844 0.1710 l
0.4848 0.1710 l
0.4852 0.1710 l
0.4856 0.1710 l
0.4860 0.1710 l
0.4864 0.1710 l
0.4868 0.1710 l
0.4872 0.1710 l
0.4876 0.1710 l
0.4880 0.1710 l
0.4884 0.1710 l
0.4888 0.1710 l
0.4892 0.1710 l
0.4896 0.1710 l
0.4900 0.1710 l
0.4904 0.1710 l
0.4908 0.1710 l
0.4912 0.1710 l
0.4916 0.1710 l
0.4920 0.1710 l
0.4924 0.1710 l
0.4928 0.1710 l
0.4932 0.1710 l
0.4936 0.1710 l
0.4940 0.1710 l
0.4944 0.1710 l
0.4948 0.1710 l
0.4952 0.1710 l
0.4956 0.1710 l
0.4960 0.1710 l
0.4964 0.1710 l
0.4968 0.1710 l
0.4972 0.1710 l
0.4976 0.1710 l
0.4980 0.1710 l
0.4984 0.1710 l
0.4988 0.1710 l
0.4992 0.1710 l
0.4996 0.1710 l
0.5000 0.1710 l
0.5004 0.1710 l
0.5008 0.1710 l
0.5012 0.1710 l
0.5016 0.1710 l
0.5020 0.1710 l
0.5024 0.1710 l
0.5028 0.1710 l
0.5032 0.1710 l
0.5036 0.1710 l
0.5040 0.1710 l
0.5044 0.1710 l
0.5048 0.1710 l
0.5052 0.1710 l
0.5056 0.1710 l
0.5060 0.1710 l
0.5064 0.1710 l
0.5068 0.1710 l
0.5072 0.1710 l
0.5076 0.1710 l
0.5080 0.1710 l
0.5084 0.1710 l
0.5088 0.1710 l
0.5092 0.1710 l
0.5096 0.1710 l
0.5100 0.1710 l
0.5104 0.1710 l
0.5108 0.1710 l
0.5112 0.1710 l
0.5116 0.1710 l
0.5120 0.1710 l
0.5124 0.1710 l
0.5128 0.1710 l
0.5132 0.1710 l
0.5136 0.1710 l
0.5140 0.1710 l
0.5144 0.1710 l
0.5148 0.1710 l
0.5152 0.1710 l
0.5156 0.1710 l
0.5160 0.1710 l
0.5164 0.1710 l
0.5168 0.1710 l
0.5172 0.1710 l
0.5176 0.1710 l
0.5180 0.1710 l
0.5184 0.1797 l
0.5189 0.1797 l
0.5195 0.1797 l
0.5201 0.1797 l
0.5206 0.1797 l
0.5212 0.1797 l
0.5218 0.1797 l
0.5223 0.1797 l
0.5229 0.1797 l
0.5235 0.1797 l
0.5240 0.1797 l
0.5246 0.1797 l
0.5251 0.1797 l
0.5257 0.1797 l
0.5263 0.1797 l
0.5268 0.1797 l
0.5274 0.1797 l
0.5280 0.1797 l
0.5285 0.1797 l
0.5291 0.1797 l
0.5297 0.1920 l
0.5305 0.1920 l
0.5313 0.1920 l
0.5321 0.1920 l
0.5329 0.1920 l
0.5337 0.1920 l
0.5345 0.1920 l
0.5353 0.1920 l
0.5361 0.1920 l
0.5369 0.1920 l
0.5377 0.2094 l
0.5388 0.2094 l
0.5399 0.2094 l
0.5411 0.2094 l
0.5422 0.2094 l
0.5433 0.2340 l
0.5449 0.2340 l
0.5465 0.2340 l
0.5481 0.2688 l
0.5504 0.3181 l
0.5536 0.3877 l
0.5581 0.4861 l
0.5645 0.4861 l
0.5677 0.3181 l
0.5709 0.3181 l
0.5731 0.2688 l
0.5754 0.2688 l
0.5777 0.2688 l
0.5793 0.2340 l
0.5809 0.2340 l
0.5825 0.2340 l
0.5841 0.2340 l
0.5857 0.2340 l
0.5868 0.2094 l
0.5879 0.2094 l
0.5890 0.2094 l
0.5902 0.2094 l
0.5913 0.2094 l
0.5924 0.2094 l
0.5936 0.2094 l
0.5947 0.2094 l
0.5958 0.2094 l
0.5970 0.2094 l
0.5981 0.2094 l
0.5992 0.2094 l
0.6000 0.1920 l
0.6008 0.1920 l
0.6016 0.1920 l
0.6024 0.1920 l
0.6032 0.1920 l
0.6040 0.1920 l
0.6048 0.1920 l
0.6056 0.1920 l
0.6064 0.1920 l
0.6072 0.1920 l
0.6080 0.1920 l
0.6088 0.1920 l
0.6096 0.1920 l
0.6104 0.1920 l
0.6112 0.1920 l
0.6120 0.1920 l
0.6128 0.1920 l
0.6136 0.1920 l
0.6144 0.1920 l
0.6152 0.1920 l
0.6160 0.1920 l
0.6168 0.1920 l
0.6176 0.1920 l
0.6184 0.1920 l
0.6192 0.1920 l
0.6200 0.1920 l
0.6208 0.1920 l
0.6214 0.1797 l
0.6219 0.1797 l
0.6225 0.1797 l
0.6231 0.1797 l
0.6236 0.1797 l
0.6242 0.1797 l
0.6248 0.1797 l
0.6253 0.1797 l
0.6259 0.1797 l
0.6264 0.1797 l
0.6270 0.1797 l
0.6276 0.1797 l
0.6281 0.1797 l
0.6287 0.1797 l
0.6293 0.1797 l
0.6298 0.1797 l
0.6304 0.1797 l
0.6310 0.1797 l
0.6315 0.1797 l
0.6321 0.1797 l
0.6327 0.1797 l
0.6332 0.1797 l
0.6338 0.1797 l
0.6344 0.1797 l
0.6349 0.1797 l
0.6355 0.1797 l
0.6361 0.1797 l
0.6366 0.1797 l
0.6372 0.1797 l
0.6377 0.1797 l
0.6383 0.1797 l
0.6389 0.1797 l
0.6394 0.1797 l
0.6400 0.1797 l
0.6406 0.1797 l
0.6411 0.1797 l
0.6417 0.1797 l
0.6423 0.1797 l
0.6428 0.1797 l
0.6434 0.1797 l
0.6440 0.1797 l
0.6445 0.1797 l
0.6451 0.1797 l
0.6457 0.1797 l
0.6462 0.1797 l
0.6468 0.1797 l
0.6474 0.1797 l
0.6479 0.1797 l
0.6485 0.1797 l
0.6491 0.1797 l
0.6496 0.1797 l
0.6502 0.1797 l
0.6507 0.1797 l
0.6513 0.1797 l
0.6519 0.1797 l
0.6524 0.1797 l
0.6530 0.1797 l
0.6536 0.1797 l
0.6541 0.1797 l
0.6547 0.1797 l
0.6553 0.1797 l
0.6558 0.1797 l
0.6564 0.1797 l
0.6570 0.1797 l
0.6575 0.1797 l
0.6581 0.1797 l
0.6587 0.1797 l
0.6592 0.1797 l
0.6598 0.1797 l
0.6604 0.1797 l
0.6609 0.1797 l
0.6615 0.1797 l
0.6620 0.1797 l
0.6626 0.1797 l
0.6632 0.1797 l
0.6637 0.1797 l
0.6641 0.1710 l
0.6645 0.1710 l
0.6649 0.1710 l
0.6653 0.1710 l
0.6657 0.1710 l
0.6661 0.1710 l
0.6665 0.1710 l
0.6669 0.1710 l
0.6673 0.1710 l
0.6677 0.1710 l
0.6681 0.1710 l
0.6685 0.1710 l
0.6689 0.1710 l
0.6693 0.1710 l
0.6697 0.1710 l
0.6701 0.1710 l
0.6705 0.1710 l
0.6709 0.1710 l
0.6713 0.1710 l
0.6717 0.1710 l
0.6721 0.1710 l
0.6725 0.1710 l
0.6729 0.1710 l
0.6733 0.1710 l
0.6737 0.1710 l
0.6741 0.1710 l
0.6745 0.1710 l
0.6749 0.1710 l
0.6753 0.1710 l
0.6757 0.1710 l
0.6761 0.1710 l
0.6765 0.1710 l
0.6769 0.1710 l
0.6773 0.1710 l
0.6777 0.1710 l
0.6781 0.1710 l
0.6785 0.1710 l
0.6789 0.1710 l
0.6793 0.1710 l
0.6797 0.1710 l
0.6801 0.1710 l
0.6805 0.1710 l
0.6809 0.1710 l
0.6813 0.1710 l
0.6817 0.1710 l
0.6821 0.1710 l
0.6825 0.1710 l
0.6829 0.1710 l
0.6833 0.1710 l
0.6837 0.1710 l
0.6841 0.1710 l
0.6845 0.1710 l
0.6849 0.1710 l
0.6853 0.1710 l
0.6857 0.1710 l
0.6861 0.1710 l
0.6865 0.1710 l
0.6869 0.1710 l
0.6873 0.1710 l
0.6877 0.1710 l
0.6881 0.1710 l
0.6885 0.1710 l
0.6889 0.1710 l
0.6893 0.1710 l
0.6897 0.1710 l
0.6901 0.1710 l
0.6905 0.1710 l
0.6909 0.1710 l
0.6913 0.1710 l
0.6917 0.1710 l
0.6921 0.1710 l
0.6925 0.1710 l
0.6929 0.1710 l
0.6933 0.1710 l
0.6937 0.1710 l
0.6941 0.1710 l
0.6945 0.1710 l
0.6949 0.1710 l
0.6953 0.1710 l
0.6957 0.1710 l
0.6961 0.1710 l
0.6965 0.1710 l
0.6969 0.1710 l
0.6973 0.1710 l
0.6977 0.1710 l
0.6981 0.1710 l
0.6985 0.1710 l
0.6989 0.1710 l
0.6993 0.1710 l
0.6997 0.1710 l
0.7001 0.1710 l
s
n
0.1500 0.1500 m
0.7000 0.1500 l
s
n
0.1500 0.5000 m
0.7000 0.5000 l
s
n
0.1934 0.1500 m
0.1934 0.1600 l
s
n
0.1934 0.5000 m
0.1934 0.4900 l
s
n
0.3382 0.1500 m
0.3382 0.1600 l
s
n
0.3382 0.5000 m
0.3382 0.4900 l
s
n
0.4829 0.1500 m
0.4829 0.1600 l
s
n
0.4829 0.5000 m
0.4829 0.4900 l
s
n
0.6276 0.1500 m
0.6276 0.1600 l
s
n
0.6276 0.5000 m
0.6276 0.4900 l
s
n
0.2658 0.1500 m
0.2658 0.1700 l
s
n
0.2658 0.5000 m
0.2658 0.4800 l
s
n
0.4105 0.1500 m
0.4105 0.1700 l
s
n
0.4105 0.5000 m
0.4105 0.4800 l
s
n
0.5553 0.1500 m
0.5553 0.1700 l
s
n
0.5553 0.5000 m
0.5553 0.4800 l
s
n
0.7000 0.1500 m
0.7000 0.1700 l
s
n
0.7000 0.5000 m
0.7000 0.4800 l
s
/Times-Roman findfont
dup length dict begin
 {1 index /FID ne {def} {pop pop} ifelse} forall
 /Encoding DefEncoding def
 currentdict
end
/Font0 exch definefont pop
/Font0 FFSF
0.2492 0.1205 m
GS
[0.0280 0.0000 0.0000 0.0280 0 0] CC
(0.5) show
GR
/Font0 FFSF
0.3933 0.1209 m
GS
[0.0280 0.0000 0.0000 0.0280 0 0] CC
(1.0) show
GR
/Font0 FFSF
0.5386 0.1205 m
GS
[0.0280 0.0000 0.0000 0.0280 0 0] CC
(1.5) show
GR
/Font0 FFSF
0.6828 0.1209 m
GS
[0.0280 0.0000 0.0000 0.0280 0 0] CC
(2.0) show
GR
/Font0 FFSF
0.4005 0.0911 m
GS
[0.0280 0.0000 0.0000 0.0280 0 0] CC
(time) show
GR
n
0.1500 0.1500 m
0.1500 0.5000 l
s
n
0.7000 0.1500 m
0.7000 0.5000 l
s
n
0.1500 0.1880 m
0.1600 0.1880 l
s
n
0.7000 0.1880 m
0.6900 0.1880 l
s
n
0.1500 0.2641 m
0.1600 0.2641 l
s
n
0.7000 0.2641 m
0.6900 0.2641 l
s
n
0.1500 0.3402 m
0.1600 0.3402 l
s
n
0.7000 0.3402 m
0.6900 0.3402 l
s
n
0.1500 0.4163 m
0.1600 0.4163 l
s
n
0.7000 0.4163 m
0.6900 0.4163 l
s
n
0.1500 0.4924 m
0.1600 0.4924 l
s
n
0.7000 0.4924 m
0.6900 0.4924 l
s
n
0.1500 0.1500 m
0.1700 0.1500 l
s
n
0.7000 0.1500 m
0.6800 0.1500 l
s
n
0.1500 0.2261 m
0.1700 0.2261 l
s
n
0.7000 0.2261 m
0.6800 0.2261 l
s
n
0.1500 0.3022 m
0.1700 0.3022 l
s
n
0.7000 0.3022 m
0.6800 0.3022 l
s
n
0.1500 0.3783 m
0.1700 0.3783 l
s
n
0.7000 0.3783 m
0.6800 0.3783 l
s
n
0.1500 0.4543 m
0.1700 0.4543 l
s
n
0.7000 0.4543 m
0.6800 0.4543 l
s
/Font0 FFSF
0.0776 0.1407 m
GS
[0.0280 0.0000 0.0000 0.0280 0 0] CC
(0.000) show
GR
/Font0 FFSF
0.0788 0.2166 m
GS
[0.0280 0.0000 0.0000 0.0280 0 0] CC
(0.005) show
GR
/Font0 FFSF
0.0776 0.2928 m
GS
[0.0280 0.0000 0.0000 0.0280 0 0] CC
(0.010) show
GR
/Font0 FFSF
0.0788 0.3687 m
GS
[0.0280 0.0000 0.0000 0.0280 0 0] CC
(0.015) show
GR
/Font0 FFSF
0.0776 0.4450 m
GS
[0.0280 0.0000 0.0000 0.0280 0 0] CC
(0.020) show
GR
/Font0 FFSF
0.0615 0.2526 m
GS
[0.0000 0.0280 -0.0280 0.0000 0 0] CC
(timestep size) show
GR
n
0.1500 0.1500 m
0.1500 0.5000 l
0.7000 0.5000 l
0.7000 0.1500 l
0.1500 0.1500 l
c
s
%%Trailer
%%BoundingBox: 24 52 426 298
%%DocumentNeededResources: font Times-Roman
%%EOF
